%!PS-Adobe-2.0 EPSF-2.0
%%BoundingBox:  0 0 567 398
%%Title: /Users/cgy606/Documents/Train/LEGOTrain/020814/lhc13b/lhc13b_ClusterEta.eps: 
%%Creator: ROOT Version 5.34/09
%%CreationDate: Fri Mar 28 14:54:15 2014
%%EndComments
%%BeginProlog
80 dict begin
/s {stroke} def /l {lineto} def /m {moveto} def /t {translate} def
/r {rotate} def /rl {roll}  def /R {repeat} def
/d {rlineto} def /rm {rmoveto} def /gr {grestore} def /f {eofill} def
/c {setrgbcolor} def /black {0 setgray} def /sd {setdash} def
/cl {closepath} def /sf {scalefont setfont} def /lw {setlinewidth} def
/box {m dup 0 exch d exch 0 d 0 exch neg d cl} def
/NC{systemdict begin initclip end}def/C{NC box clip newpath}def
/bl {box s} def /bf {box f} def /Y { 0 exch d} def /X { 0 d} def 
/K {{pop pop 0 moveto} exch kshow} bind def
/ita {/ang 15 def gsave [1 0 ang dup sin exch cos div 1 0 0] concat} def 
/mp {newpath /y exch def /x exch def} def
/side {[w .77 mul w .23 mul] .385 w mul sd w 0 l currentpoint t -144 r} def
/mr {mp x y w2 0 360 arc} def /m24 {mr s} def /m20 {mr f} def
/mb {mp x y w2 add m w2 neg 0 d 0 w neg d w 0 d 0 w d cl} def
/mt {mp x y w2 add m w2 neg w neg d w 0 d cl} def
/m21 {mb f} def /m25 {mb s} def /m22 {mt f} def /m26{mt s} def
/m23 {mp x y w2 sub m w2 w d w neg 0 d cl f} def
/m27 {mp x y w2 add m w3 neg w2 neg d w3 w2 neg d w3 w2 d cl s} def
/m28 {mp x w2 sub y w2 sub w3 add m w3 0 d  0 w3 neg d w3 0 d 0 w3 d w3 0 d  0 w3 d w3 neg 0 d 0 w3 d w3 neg 0 d 0 w3 neg d w3 neg 0 d cl s } def
/m29 {mp gsave x w2 sub y w2 add w3 sub m currentpoint t 4 {side} repeat cl fill gr} def
/m30 {mp gsave x w2 sub y w2 add w3 sub m currentpoint t 4 {side} repeat cl s gr} def
/m31 {mp x y w2 sub m 0 w d x w2 sub y m w 0 d x w2 sub y w2 add m w w neg d x w2 sub y w2 sub m w w d s} def
/m32 {mp x y w2 sub m w2 w d w neg 0 d cl s} def
/m33 {mp x y w2 add m w3 neg w2 neg d w3 w2 neg d w3 w2 d cl f} def
/m34 {mp x w2 sub y w2 sub w3 add m w3 0 d  0 w3 neg d w3 0 d 0 w3 d w3 0 d  0 w3 d w3 neg 0 d 0 w3 d w3 neg 0 d 0 w3 neg d w3 neg 0 d cl f } def
/m2 {mp x y w2 sub m 0 w d x w2 sub y m w 0 d s} def
/m5 {mp x w2 sub y w2 sub m w w d x w2 sub y w2 add m w w neg d s} def
/reEncode {exch findfont dup length dict begin {1 index /FID eq  {pop pop} {def} ifelse } forall /Encoding exch def currentdict end dup /FontName get exch definefont pop } def [/Times-Bold /Times-Italic /Times-BoldItalic /Helvetica /Helvetica-Oblique
 /Helvetica-Bold /Helvetica-BoldOblique /Courier /Courier-Oblique /Courier-Bold /Courier-BoldOblique /Times-Roman /AvantGarde-Book /AvantGarde-BookOblique /AvantGarde-Demi /AvantGarde-DemiOblique /Bookman-Demi /Bookman-DemiItalic /Bookman-Light
 /Bookman-LightItalic /Helvetica-Narrow /Helvetica-Narrow-Bold /Helvetica-Narrow-BoldOblique /Helvetica-Narrow-Oblique /NewCenturySchlbk-Roman /NewCenturySchlbk-Bold /NewCenturySchlbk-BoldItalic /NewCenturySchlbk-Italic /Palatino-Bold
 /Palatino-BoldItalic /Palatino-Italic /Palatino-Roman ] {ISOLatin1Encoding reEncode } forall
%%EndProlog
%%BeginSetup
%%EndSetup
newpath  gsave  .25 .25 scale  gsave  0 0 t black[  ] 0 sd 3 lw 0.999 0.999 0.999 c 2268 1594 0 0 bf black 0.999 0.999 0.999 c 1814 1276 227 159 bf black 1814 1276 227 159 bl 0 0 1 c 1 1 1 c 0 0 1 c 348 162 m 2 X s 366 162 m 2 X s /w 16 def /w2 {w 2
 div} def /w3 {w 3 div} def 358 162 m20 368 255 m 2 X s 386 255 m 2 X s 378 255 m20 388 691 m 2 X s 406 691 m 2 X s 398 691 m20 408 1022 m 2 X s 426 1022 m 2 X s 418 1022 m20 428 1045 m 2 X s 447 1045 m 2 X s 438 1045 m20 449 1006 m 1 X s 467 1006 m
 2 X s 459 1006 m20 469 939 m 2 X s 487 939 m 2 X s 479 939 m20 489 870 m 2 X s 507 870 m 2 X s 499 870 m20 509 865 m 2 X s 527 865 m 2 X s 519 865 m20 529 915 m 2 X s 547 915 m 2 X s 539 915 m20 549 983 m 2 X s 568 983 m 1 X s 559 983 m20 569 1030 m
 2 X s 588 1030 m 2 X s 580 1030 m20 590 1054 m 1 X s 608 1054 m 2 X s 600 1054 m20 610 1048 m 2 X s 628 1048 m 2 X s 620 1048 m20 630 1032 m 2 X s 648 1032 m 2 X s 640 1032 m20 650 1028 m 2 X s 668 1028 m 2 X s 660 1028 m20 670 1036 m 2 X s 689 1036
 m 1 X s 680 1036 m20 690 1033 m 2 X s 709 1033 m 2 X s 700 1033 m20 711 1026 m 1 X s 729 1026 m 2 X s 721 1026 m20 731 1013 m 2 X s 749 1013 m 2 X s 741 1013 m20 751 1003 m 2 X s 769 1003 m 2 X s 761 1003 m20 771 993 m 2 X s 789 993 m 2 X s 781 993
 m20 791 1000 m 2 X s 809 1000 m 2 X s 801 1000 m20 811 1008 m 2 X s 830 1008 m 1 X s 821 1008 m20 831 996 m 2 X s 850 996 m 2 X s 842 996 m20 852 986 m 2 X s 870 986 m 2 X s 862 986 m20 872 955 m 2 X s 890 955 m 2 X s 882 955 m20 892 874 m 2 X s 910
 874 m 2 X s 902 874 m20 912 792 m 2 X s 930 792 m 2 X s 922 792 m20 932 764 m 2 X s 951 764 m 1 X s 942 764 m20 952 816 m 2 X s 971 816 m 2 X s 963 816 m20 973 883 m 1 X s 991 883 m 2 X s 983 883 m20 993 936 m 2 X s 1011 936 m 2 X s 1003 936 m20
 1013 963 m 2 X s 1031 963 m 2 X s 1023 963 m20 1033 974 m 2 X s 1051 974 m 2 X s 1043 974 m20 1053 970 m 2 X s 1072 970 m 1 X s 1063 970 m20 1073 959 m 2 X s 1092 959 m 2 X s 1083 959 m20 1094 960 m 1 X s 1112 960 m 2 X s 1104 960 m20 1114 946 m 2 X
 s 1132 946 m 2 X s 1124 946 m20 1134 954 m 2 X s 1152 954 m 2 X s 1144 954 m20 1154 968 m 2 X s 1172 968 m 2 X s 1164 968 m20 1174 977 m 2 X s 1192 977 m 2 X s 1184 977 m20 1194 977 m 2 X s 1213 977 m 1 X s 1204 977 m20 1214 974 m 2 X s 1233 974 m 2
 X s 1225 974 m20 1235 955 m 2 X s 1253 955 m 2 X s 1245 955 m20 1255 939 m 2 X s 1273 939 m 2 X s 1265 939 m20 1275 889 m 2 X s 1293 889 m 2 X s 1285 889 m20 1295 810 m 2 X s 1313 810 m 2 X s 1305 810 m20 1315 787 m 2 X s 1334 787 m 1 X s 1325 787
 m20 1335 841 m 2 X s 1354 841 m 2 X s 1346 841 m20 1356 926 m 1 X s 1374 926 m 2 X s 1366 926 m20 1376 972 m 2 X s 1394 972 m 2 X s 1386 972 m20 1396 987 m 2 X s 1414 987 m 2 X s 1406 987 m20 1416 995 m 2 X s 1434 995 m 2 X s 1426 995 m20 1436 1001
 m 2 X s 1455 1001 m 1 X s 1446 1001 m20 1456 1005 m 2 X s 1475 1005 m 2 X s 1466 1005 m20 1477 994 m 1 X s 1495 994 m 2 X s 1487 994 m20 1497 1001 m 2 X s 1515 1001 m 2 X s 1507 1001 m20 1517 1003 m 2 X s 1535 1003 m 2 X s 1527 1003 m20 1537 984 m 2
 X s 1555 984 m 2 X s 1547 984 m20 1557 1018 m 2 X s 1575 1018 m 2 X s 1567 1018 m20 1577 1078 m 2 X s 1596 1078 m 1 X s 1587 1078 m20 1597 1107 m 2 X s 1616 1107 m 2 X s 1608 1107 m20 1618 1121 m 2 X s 1636 1121 m 2 X s 1628 1121 m20 1638 1110 m 2 X
 s 1656 1110 m 2 X s 1648 1110 m20 1658 1093 m 2 X s 1676 1093 m 2 X s 1668 1093 m20 1678 1076 m 2 X s 1696 1076 m 2 X s 1688 1076 m20 1698 1028 m 2 X s 1717 1028 m 1 X s 1708 1028 m20 1718 932 m 2 X s 1737 932 m 2 X s 1729 932 m20 1739 905 m 1 X s
 1757 905 m 2 X s 1749 905 m20 1759 933 m 2 X s 1777 933 m 2 X s 1769 933 m20 1779 982 m 2 X s 1797 982 m 2 X s 1789 982 m20 1799 1033 m 2 X s 1817 1033 m 2 X s 1809 1033 m20 1819 1088 m 2 X s 1838 1088 m 1 X s 1829 1088 m20 1839 1019 m 2 X s 1858
 1019 m 2 X s 1849 1019 m20 1860 648 m 1 X s 1878 648 m 2 X s 1870 648 m20 1880 249 m 2 X s 1898 249 m 2 X s 1890 249 m20 1900 162 m 2 X s 1918 162 m 2 X s 1910 162 m20 black 227 159 m 1814 X s
 gsave  2268 1594 0 0 C 2010.96 63.6768 t 0 r /Symbol findfont 51.3523 sf 0 0 m (h) show NC gr  238 198 m -39 Y s 294 179 m -20 Y s 350 179 m -20 Y s 406 179 m -20 Y s 462 198 m -39 Y s 518 179 m -20 Y s 574 179 m -20 Y s 630 179 m -20 Y s 686 198 m
 -39 Y s 742 179 m -20 Y s 798 179 m -20 Y s 854 179 m -20 Y s 910 198 m -39 Y s 966 179 m -20 Y s 1022 179 m -20 Y s 1078 179 m -20 Y s 1134 198 m -39 Y s 1190 179 m -20 Y s 1246 179 m -20 Y s 1302 179 m -20 Y s 1358 198 m -39 Y s 1414 179 m -20 Y s
 1470 179 m -20 Y s 1526 179 m -20 Y s 1582 198 m -39 Y s 1638 179 m -20 Y s 1694 179 m -20 Y s 1750 179 m -20 Y s 1806 198 m -39 Y s 1862 179 m -20 Y s 1918 179 m -20 Y s 1974 179 m -20 Y s 2030 198 m -39 Y s 238 198 m -39 Y s 2030 198 m -39 Y s
 gsave  2268 1594 0 0 C 191.03 106.813 t 0 r /Helvetica findfont 51.3523 sf 0 0 m (\2550.8) show NC gr 
 gsave  2268 1594 0 0 C 414.926 106.813 t 0 r /Helvetica findfont 51.3523 sf 0 0 m (\2550.6) show NC gr 
 gsave  2268 1594 0 0 C 638.822 106.813 t 0 r /Helvetica findfont 51.3523 sf 0 0 m (\2550.4) show NC gr 
 gsave  2268 1594 0 0 C 864.772 106.813 t 0 r /Helvetica findfont 51.3523 sf 0 0 m (\2550.2) show NC gr 
 gsave  2268 1594 0 0 C 1119.48 106.813 t 0 r /Helvetica findfont 51.3523 sf 0 0 m (0) show NC gr 
 gsave  2268 1594 0 0 C 1322.83 106.813 t 0 r /Helvetica findfont 51.3523 sf 0 0 m (0.2) show NC gr 
 gsave  2268 1594 0 0 C 1546.73 106.813 t 0 r /Helvetica findfont 51.3523 sf 0 0 m (0.4) show NC gr 
 gsave  2268 1594 0 0 C 1770.63 106.813 t 0 r /Helvetica findfont 51.3523 sf 0 0 m (0.6) show NC gr 
 gsave  2268 1594 0 0 C 1994.52 106.813 t 0 r /Helvetica findfont 51.3523 sf 0 0 m (0.8) show NC gr  227 159 m 1276 Y s
 gsave  2268 1594 0 0 C 108.867 1407.05 t 90 r /Symbol findfont 51.3523 sf 0 0 m (h) show NC gr 
 gsave  2268 1594 0 0 C 108.867 1285.86 t 90 r /Helvetica findfont 51.3523 sf 0 0 m ( dN/d) show NC gr 
 gsave  2268 1594 0 0 C 127.354 1179.05 t 90 r /Helvetica findfont 34.9195 sf 0 0 m (Events) show NC gr 
 gsave  2268 1594 0 0 C 108.867 1100.99 t 90 r /Helvetica findfont 51.3523 sf 0 0 m (1/N) show NC gr  281 159 m -54 X s 254 191 m -27 X s 254 223 m -27 X s 254 255 m -27 X s 281 287 m -54 X s 254 319 m -27 X s 254 351 m -27 X s 254 383 m -27 X s 281
 414 m -54 X s 254 446 m -27 X s 254 478 m -27 X s 254 510 m -27 X s 281 542 m -54 X s 254 574 m -27 X s 254 606 m -27 X s 254 638 m -27 X s 281 669 m -54 X s 254 701 m -27 X s 254 733 m -27 X s 254 765 m -27 X s 281 797 m -54 X s 254 829 m -27 X s
 254 861 m -27 X s 254 893 m -27 X s 281 925 m -54 X s 254 956 m -27 X s 254 988 m -27 X s 254 1020 m -27 X s 281 1052 m -54 X s 254 1084 m -27 X s 254 1116 m -27 X s 254 1148 m -27 X s 281 1180 m -54 X s 254 1211 m -27 X s 254 1243 m -27 X s 254
 1275 m -27 X s 281 1307 m -54 X s 254 1339 m -27 X s 254 1371 m -27 X s 254 1403 m -27 X s 281 1435 m -54 X s
 gsave  2268 1594 0 0 C 186.922 141.732 t 0 r /Helvetica findfont 51.3523 sf 0 0 m (0) show NC gr 
 gsave  2268 1594 0 0 C 143.786 269.086 t 0 r /Helvetica findfont 51.3523 sf 0 0 m (0.2) show NC gr 
 gsave  2268 1594 0 0 C 143.786 396.44 t 0 r /Helvetica findfont 51.3523 sf 0 0 m (0.4) show NC gr 
 gsave  2268 1594 0 0 C 143.786 523.793 t 0 r /Helvetica findfont 51.3523 sf 0 0 m (0.6) show NC gr 
 gsave  2268 1594 0 0 C 143.786 651.147 t 0 r /Helvetica findfont 51.3523 sf 0 0 m (0.8) show NC gr 
 gsave  2268 1594 0 0 C 195.139 776.446 t 0 r /Helvetica findfont 51.3523 sf 0 0 m (1) show NC gr 
 gsave  2268 1594 0 0 C 143.786 905.854 t 0 r /Helvetica findfont 51.3523 sf 0 0 m (1.2) show NC gr 
 gsave  2268 1594 0 0 C 143.786 1033.21 t 0 r /Helvetica findfont 51.3523 sf 0 0 m (1.4) show NC gr 
 gsave  2268 1594 0 0 C 143.786 1162.62 t 0 r /Helvetica findfont 51.3523 sf 0 0 m (1.6) show NC gr 
 gsave  2268 1594 0 0 C 143.786 1289.97 t 0 r /Helvetica findfont 51.3523 sf 0 0 m (1.8) show NC gr 
 gsave  2268 1594 0 0 C 186.922 1415.27 t 0 r /Helvetica findfont 51.3523 sf 0 0 m (2) show NC gr 
 gsave  2268 1594 0 0 C 490.928 1308.46 t 0 r /Helvetica-Bold findfont 55.4605 sf 0 0 m ( distribution of clusters for lhc13b merged output) show NC gr 
 gsave  2268 1594 0 0 C 460.116 1308.46 t 0 r /Symbol findfont 55.4605 sf 0 0 m (h) show NC gr 
 gr  gr showpage
end
%%EOF
