%!PS-Adobe-2.0 EPSF-2.0
%%BoundingBox:  0 0 567 398
%%Title: /Users/cgy606/Documents/Train/LEGOTrain/020814/lhc13b/lhc13b_ClusterPt.eps: 
%%Creator: ROOT Version 5.34/09
%%CreationDate: Fri Mar 28 14:54:15 2014
%%EndComments
%%BeginProlog
80 dict begin
/s {stroke} def /l {lineto} def /m {moveto} def /t {translate} def
/r {rotate} def /rl {roll}  def /R {repeat} def
/d {rlineto} def /rm {rmoveto} def /gr {grestore} def /f {eofill} def
/c {setrgbcolor} def /black {0 setgray} def /sd {setdash} def
/cl {closepath} def /sf {scalefont setfont} def /lw {setlinewidth} def
/box {m dup 0 exch d exch 0 d 0 exch neg d cl} def
/NC{systemdict begin initclip end}def/C{NC box clip newpath}def
/bl {box s} def /bf {box f} def /Y { 0 exch d} def /X { 0 d} def 
/K {{pop pop 0 moveto} exch kshow} bind def
/ita {/ang 15 def gsave [1 0 ang dup sin exch cos div 1 0 0] concat} def 
/mp {newpath /y exch def /x exch def} def
/side {[w .77 mul w .23 mul] .385 w mul sd w 0 l currentpoint t -144 r} def
/mr {mp x y w2 0 360 arc} def /m24 {mr s} def /m20 {mr f} def
/mb {mp x y w2 add m w2 neg 0 d 0 w neg d w 0 d 0 w d cl} def
/mt {mp x y w2 add m w2 neg w neg d w 0 d cl} def
/m21 {mb f} def /m25 {mb s} def /m22 {mt f} def /m26{mt s} def
/m23 {mp x y w2 sub m w2 w d w neg 0 d cl f} def
/m27 {mp x y w2 add m w3 neg w2 neg d w3 w2 neg d w3 w2 d cl s} def
/m28 {mp x w2 sub y w2 sub w3 add m w3 0 d  0 w3 neg d w3 0 d 0 w3 d w3 0 d  0 w3 d w3 neg 0 d 0 w3 d w3 neg 0 d 0 w3 neg d w3 neg 0 d cl s } def
/m29 {mp gsave x w2 sub y w2 add w3 sub m currentpoint t 4 {side} repeat cl fill gr} def
/m30 {mp gsave x w2 sub y w2 add w3 sub m currentpoint t 4 {side} repeat cl s gr} def
/m31 {mp x y w2 sub m 0 w d x w2 sub y m w 0 d x w2 sub y w2 add m w w neg d x w2 sub y w2 sub m w w d s} def
/m32 {mp x y w2 sub m w2 w d w neg 0 d cl s} def
/m33 {mp x y w2 add m w3 neg w2 neg d w3 w2 neg d w3 w2 d cl f} def
/m34 {mp x w2 sub y w2 sub w3 add m w3 0 d  0 w3 neg d w3 0 d 0 w3 d w3 0 d  0 w3 d w3 neg 0 d 0 w3 d w3 neg 0 d 0 w3 neg d w3 neg 0 d cl f } def
/m2 {mp x y w2 sub m 0 w d x w2 sub y m w 0 d s} def
/m5 {mp x w2 sub y w2 sub m w w d x w2 sub y w2 add m w w neg d s} def
/reEncode {exch findfont dup length dict begin {1 index /FID eq  {pop pop} {def} ifelse } forall /Encoding exch def currentdict end dup /FontName get exch definefont pop } def [/Times-Bold /Times-Italic /Times-BoldItalic /Helvetica /Helvetica-Oblique
 /Helvetica-Bold /Helvetica-BoldOblique /Courier /Courier-Oblique /Courier-Bold /Courier-BoldOblique /Times-Roman /AvantGarde-Book /AvantGarde-BookOblique /AvantGarde-Demi /AvantGarde-DemiOblique /Bookman-Demi /Bookman-DemiItalic /Bookman-Light
 /Bookman-LightItalic /Helvetica-Narrow /Helvetica-Narrow-Bold /Helvetica-Narrow-BoldOblique /Helvetica-Narrow-Oblique /NewCenturySchlbk-Roman /NewCenturySchlbk-Bold /NewCenturySchlbk-BoldItalic /NewCenturySchlbk-Italic /Palatino-Bold
 /Palatino-BoldItalic /Palatino-Italic /Palatino-Roman ] {ISOLatin1Encoding reEncode } forall
%%EndProlog
%%BeginSetup
%%EndSetup
newpath  gsave  .25 .25 scale  gsave  0 0 t black[  ] 0 sd 3 lw 0.999 0.999 0.999 c 2268 1594 0 0 bf black 0.999 0.999 0.999 c 1814 1276 227 159 bf black 1814 1276 227 159 bl 0 0 1 c 1 1 1 c 0 0 1 c 263 1331 m 10 X s 289 1331 m 10 X s /w 16 def /w2
 {w 2 div} def /w3 {w 3 div} def 281 1331 m20 299 1178 m 10 X s 326 1178 m 10 X s 317 1178 m20 336 1060 m 10 X s 362 1060 m 10 X s 354 1060 m20 372 971 m 10 X s 398 971 m 10 X s 390 971 m20 408 900 m 10 X s 435 900 m 9 X s 426 900 m20 444 841 m 10 X
 s 471 841 m 10 X s 463 841 m20 481 791 m 10 X s 507 791 m 10 X s 499 791 m20 517 751 m 10 X s 543 751 m 10 X s 535 751 m20 553 711 m 10 X s 580 711 m 10 X s 571 711 m20 590 679 m 10 X s 616 679 m 10 X s 608 679 m20 626 649 m 10 X s 652 649 m 10 X s
 644 649 m20 662 635 m 10 X s 689 635 m 9 X s 680 635 m20 698 601 m 10 X s 725 601 m 10 X s 717 601 m20 735 566 m 10 X s 761 566 m 10 X s 753 566 m20 789 531 m 1 Y s 789 548 m s 771 540 m 10 X s 797 540 m 10 X s 789 540 m20 825 540 m s 807 549 m 10 X
 s 834 549 m 10 X s 825 549 m20 862 520 m 2 Y s 862 539 m s 844 530 m 10 X s 870 530 m 10 X s 862 530 m20 898 508 m 3 Y s 898 527 m 2 Y s 880 519 m 10 X s 906 519 m 10 X s 898 519 m20 934 479 m 6 Y s 934 501 m 4 Y s 916 493 m 10 X s 943 493 m 9 X s
 934 493 m20 971 472 m 6 Y s 971 494 m 4 Y s 952 486 m 10 X s 979 486 m 10 X s 971 486 m20 1007 445 m 10 Y s 1007 471 m 6 Y s 989 463 m 10 X s 1015 463 m 10 X s 1007 463 m20 1043 404 m 15 Y s 1043 436 m 9 Y s 1025 427 m 10 X s 1051 427 m 10 X s 1043
 427 m20 1079 417 m 13 Y s 1079 446 m 9 Y s 1061 438 m 10 X s 1088 438 m 10 X s 1079 438 m20 1116 411 m 14 Y s 1116 441 m 9 Y s 1098 433 m 10 X s 1124 433 m 10 X s 1116 433 m20 1152 326 m 33 Y s 1152 375 m 17 Y s 1134 367 m 10 X s 1160 367 m 10 X s
 1152 367 m20 1188 369 m 22 Y s 1188 408 m 12 Y s 1170 399 m 10 X s 1196 399 m 10 X s 1188 399 m20 1225 343 m 28 Y s 1225 388 m 15 Y s 1206 379 m 10 X s 1233 379 m 10 X s 1225 379 m20 1261 357 m 25 Y s 1261 398 m 14 Y s 1243 390 m 10 X s 1269 390 m
 10 X s 1261 390 m20 1297 326 m 33 Y s 1297 375 m 17 Y s 1279 367 m 10 X s 1305 367 m 10 X s 1297 367 m20 1333 343 m 28 Y s 1333 388 m 15 Y s 1315 379 m 10 X s 1342 379 m 10 X s 1333 379 m20 1370 326 m 33 Y s 1370 375 m 17 Y s 1352 367 m 9 X s 1378
 367 m 10 X s 1370 367 m20 1406 218 m 77 Y s 1406 312 m 28 Y s 1388 303 m 10 X s 1414 303 m 10 X s 1406 303 m20 1479 357 m 25 Y s 1479 398 m 14 Y s 1460 390 m 10 X s 1487 390 m 10 X s 1479 390 m20 1551 159 m 88 Y s 1551 264 m 39 Y s 1533 255 m 10 X s
 1559 255 m 10 X s 1551 255 m20 1587 159 m 88 Y s 1587 264 m 39 Y s 1569 255 m 10 X s 1596 255 m 10 X s 1587 255 m20 1624 218 m 77 Y s 1624 312 m 28 Y s 1606 303 m 9 X s 1632 303 m 10 X s 1624 303 m20 1660 159 m 88 Y s 1660 264 m 39 Y s 1642 255 m 10
 X s 1668 255 m 10 X s 1660 255 m20 1696 159 m 88 Y s 1696 264 m 39 Y s 1678 255 m 10 X s 1704 255 m 10 X s 1696 255 m20 1733 218 m 77 Y s 1733 312 m 28 Y s 1714 303 m 10 X s 1741 303 m 10 X s 1733 303 m20 1805 159 m 88 Y s 1805 264 m 39 Y s 1787 255
 m 10 X s 1813 255 m 10 X s 1805 255 m20 1841 218 m 77 Y s 1841 312 m 28 Y s 1823 303 m 10 X s 1850 303 m 10 X s 1841 303 m20 1914 159 m 88 Y s 1914 264 m 39 Y s 1896 255 m 10 X s 1922 255 m 10 X s 1914 255 m20 1950 159 m 88 Y s 1950 264 m 39 Y s
 1932 255 m 10 X s 1958 255 m 10 X s 1950 255 m20 black 227 159 m 1814 X s
 gsave  2268 1594 0 0 C 1850.74 51.3523 t 0 r /Helvetica findfont 51.3523 sf 0 0 m ( \(GeV/c\)) show NC gr 
 gsave  2268 1594 0 0 C 1828.14 22.595 t 0 r /Helvetica findfont 34.9195 sf 0 0 m (T) show NC gr 
 gsave  2268 1594 0 0 C 1799.38 51.3523 t 0 r /Helvetica findfont 51.3523 sf 0 0 m (p) show NC gr  227 198 m -39 Y s 263 179 m -20 Y s 299 179 m -20 Y s 336 179 m -20 Y s 372 179 m -20 Y s 408 198 m -39 Y s 444 179 m -20 Y s 481 179 m -20 Y s 517 179
 m -20 Y s 553 179 m -20 Y s 590 198 m -39 Y s 626 179 m -20 Y s 662 179 m -20 Y s 698 179 m -20 Y s 735 179 m -20 Y s 771 198 m -39 Y s 807 179 m -20 Y s 844 179 m -20 Y s 880 179 m -20 Y s 916 179 m -20 Y s 952 198 m -39 Y s 989 179 m -20 Y s 1025
 179 m -20 Y s 1061 179 m -20 Y s 1098 179 m -20 Y s 1134 198 m -39 Y s 1170 179 m -20 Y s 1206 179 m -20 Y s 1243 179 m -20 Y s 1279 179 m -20 Y s 1315 198 m -39 Y s 1352 179 m -20 Y s 1388 179 m -20 Y s 1424 179 m -20 Y s 1460 179 m -20 Y s 1497
 198 m -39 Y s 1533 179 m -20 Y s 1569 179 m -20 Y s 1606 179 m -20 Y s 1642 179 m -20 Y s 1678 198 m -39 Y s 1714 179 m -20 Y s 1751 179 m -20 Y s 1787 179 m -20 Y s 1823 179 m -20 Y s 1860 198 m -39 Y s 1896 179 m -20 Y s 1932 179 m -20 Y s 1968
 179 m -20 Y s 2005 179 m -20 Y s 2041 198 m -39 Y s
 gsave  2268 1594 0 0 C 211.571 106.813 t 0 r /Helvetica findfont 51.3523 sf 0 0 m (0) show NC gr 
 gsave  2268 1594 0 0 C 392.331 106.813 t 0 r /Helvetica findfont 51.3523 sf 0 0 m (5) show NC gr 
 gsave  2268 1594 0 0 C 560.767 106.813 t 0 r /Helvetica findfont 51.3523 sf 0 0 m (10) show NC gr 
 gsave  2268 1594 0 0 C 741.527 106.813 t 0 r /Helvetica findfont 51.3523 sf 0 0 m (15) show NC gr 
 gsave  2268 1594 0 0 C 922.287 106.813 t 0 r /Helvetica findfont 51.3523 sf 0 0 m (20) show NC gr 
 gsave  2268 1594 0 0 C 1105.1 106.813 t 0 r /Helvetica findfont 51.3523 sf 0 0 m (25) show NC gr 
 gsave  2268 1594 0 0 C 1285.86 106.813 t 0 r /Helvetica findfont 51.3523 sf 0 0 m (30) show NC gr 
 gsave  2268 1594 0 0 C 1466.62 106.813 t 0 r /Helvetica findfont 51.3523 sf 0 0 m (35) show NC gr 
 gsave  2268 1594 0 0 C 1647.38 106.813 t 0 r /Helvetica findfont 51.3523 sf 0 0 m (40) show NC gr 
 gsave  2268 1594 0 0 C 1830.2 106.813 t 0 r /Helvetica findfont 51.3523 sf 0 0 m (45) show NC gr 
 gsave  2268 1594 0 0 C 2010.96 106.813 t 0 r /Helvetica findfont 51.3523 sf 0 0 m (50) show NC gr  227 159 m 1276 Y s
 gsave  2268 1594 0 0 C 115.029 1413.21 t 90 r /Helvetica findfont 34.9195 sf 0 0 m (T) show NC gr 
 gsave  2268 1594 0 0 C 86.2718 1263.27 t 90 r /Helvetica findfont 51.3523 sf 0 0 m ( dN/dp) show NC gr 
 gsave  2268 1594 0 0 C 104.759 1156.45 t 90 r /Helvetica findfont 34.9195 sf 0 0 m (Events) show NC gr 
 gsave  2268 1594 0 0 C 86.2718 1078.4 t 90 r /Helvetica findfont 51.3523 sf 0 0 m (1/N) show NC gr  281 159 m -54 X s
 gsave  2268 1594 0 0 C 176.652 160.219 t 0 r /Helvetica findfont 34.9195 sf 0 0 m (\2558) show NC gr 
 gsave  2268 1594 0 0 C 121.191 135.57 t 0 r /Helvetica findfont 51.3523 sf 0 0 m (10) show NC gr  254 207 m -27 X s 254 235 m -27 X s 254 255 m -27 X s 254 271 m -27 X s 254 283 m -27 X s 254 294 m -27 X s 254 303 m -27 X s 254 312 m -27 X s 281 319
 m -54 X s
 gsave  2268 1594 0 0 C 176.652 318.384 t 0 r /Helvetica findfont 34.9195 sf 0 0 m (\2557) show NC gr 
 gsave  2268 1594 0 0 C 121.191 295.789 t 0 r /Helvetica findfont 51.3523 sf 0 0 m (10) show NC gr  254 367 m -27 X s 254 395 m -27 X s 254 415 m -27 X s 254 430 m -27 X s 254 443 m -27 X s 254 454 m -27 X s 254 463 m -27 X s 254 471 m -27 X s 281
 478 m -54 X s
 gsave  2268 1594 0 0 C 176.652 478.603 t 0 r /Helvetica findfont 34.9195 sf 0 0 m (\2556) show NC gr 
 gsave  2268 1594 0 0 C 121.191 453.954 t 0 r /Helvetica findfont 51.3523 sf 0 0 m (10) show NC gr  254 526 m -27 X s 254 554 m -27 X s 254 574 m -27 X s 254 590 m -27 X s 254 602 m -27 X s 254 613 m -27 X s 254 622 m -27 X s 254 630 m -27 X s 281
 638 m -54 X s
 gsave  2268 1594 0 0 C 176.652 638.822 t 0 r /Helvetica findfont 34.9195 sf 0 0 m (\2555) show NC gr 
 gsave  2268 1594 0 0 C 121.191 614.173 t 0 r /Helvetica findfont 51.3523 sf 0 0 m (10) show NC gr  254 686 m -27 X s 254 714 m -27 X s 254 734 m -27 X s 254 749 m -27 X s 254 762 m -27 X s 254 772 m -27 X s 254 782 m -27 X s 254 790 m -27 X s 281
 797 m -54 X s
 gsave  2268 1594 0 0 C 176.652 794.933 t 0 r /Helvetica findfont 34.9195 sf 0 0 m (\2554) show NC gr 
 gsave  2268 1594 0 0 C 121.191 772.338 t 0 r /Helvetica findfont 51.3523 sf 0 0 m (10) show NC gr  254 845 m -27 X s 254 873 m -27 X s 254 893 m -27 X s 254 908 m -27 X s 254 921 m -27 X s 254 932 m -27 X s 254 941 m -27 X s 254 949 m -27 X s 281
 956 m -54 X s
 gsave  2268 1594 0 0 C 176.652 957.206 t 0 r /Helvetica findfont 34.9195 sf 0 0 m (\2553) show NC gr 
 gsave  2268 1594 0 0 C 121.191 932.557 t 0 r /Helvetica findfont 51.3523 sf 0 0 m (10) show NC gr  254 1004 m -27 X s 254 1032 m -27 X s 254 1052 m -27 X s 254 1068 m -27 X s 254 1080 m -27 X s 254 1091 m -27 X s 254 1100 m -27 X s 254 1108 m -27 X
 s 281 1116 m -54 X s
 gsave  2268 1594 0 0 C 176.652 1115.37 t 0 r /Helvetica findfont 34.9195 sf 0 0 m (\2552) show NC gr 
 gsave  2268 1594 0 0 C 121.191 1092.78 t 0 r /Helvetica findfont 51.3523 sf 0 0 m (10) show NC gr  254 1164 m -27 X s 254 1192 m -27 X s 254 1212 m -27 X s 254 1227 m -27 X s 254 1240 m -27 X s 254 1250 m -27 X s 254 1260 m -27 X s 254 1268 m -27 X
 s 281 1275 m -54 X s
 gsave  2268 1594 0 0 C 182.814 1273.54 t 0 r /Helvetica findfont 34.9195 sf 0 0 m (\2551) show NC gr 
 gsave  2268 1594 0 0 C 127.354 1250.94 t 0 r /Helvetica findfont 51.3523 sf 0 0 m (10) show NC gr  254 1323 m -27 X s 254 1351 m -27 X s 254 1371 m -27 X s 254 1387 m -27 X s 254 1399 m -27 X s 254 1410 m -27 X s 254 1419 m -27 X s 254 1427 m -27 X
 s 281 1435 m -54 X s
 gsave  2268 1594 0 0 C 209.083 1412.39 t 0 r  -28 0 t /Helvetica findfont 51.3523 sf 0 0 m (1) show NC gr 
 gsave  2268 1594 0 0 C 571.037 1324.89 t 0 r /Helvetica-Bold findfont 55.4605 sf 0 0 m ( distribution of clusters for lhc13b merged output) show NC gr 
 gsave  2268 1594 0 0 C 548.442 1296.13 t 0 r /Helvetica-Bold findfont 36.9736 sf 0 0 m (T) show NC gr 
 gsave  2268 1594 0 0 C 515.577 1324.89 t 0 r /Helvetica-Bold findfont 55.4605 sf 0 0 m (p) show NC gr 
 gr  gr showpage
end
%%EOF
