%!PS-Adobe-2.0 EPSF-2.0
%%BoundingBox:  0 0 567 261
%%Title: ./c_jrprofile_20_40_3M.eps: c_jrprofile_20_40_3M
%%Creator: ROOT Version 6.04/14
%%CreationDate: Mon Mar  7 18:08:32 2016
%%DocumentNeededResources: ProcSet (FontSetInit)
%%EndComments
%%BeginProlog
80 dict begin
/s {stroke} def /l {lineto} def /m {moveto} def /t {translate} def
/r {rotate} def /rl {roll}  def /R {repeat} def
/d {rlineto} def /rm {rmoveto} def /gr {grestore} def /f {eofill} def
/c {setrgbcolor} def /black {0 setgray} def /sd {setdash} def
/cl {closepath} def /sf {scalefont setfont} def /lw {setlinewidth} def
/box {m dup 0 exch d exch 0 d 0 exch neg d cl} def
/NC{systemdict begin initclip end}def/C{NC box clip newpath}def
/bl {box s} def /bf {gsave box gsave f grestore 1 lw [] 0 sd s grestore} def /Y { 0 exch d} def /X { 0 d} def 
/K {{pop pop 0 moveto} exch kshow} bind def
/ita {/ang 15 def gsave [1 0 ang dup sin exch cos div 1 0 0] concat} def 
/mp {newpath /y exch def /x exch def} def
/side {[w .77 mul w .23 mul] .385 w mul sd w 0 l currentpoint t -144 r} def
/mr {mp x y w2 0 360 arc} def /m24 {mr s} def /m20 {mr f} def
/mb {mp x y w2 add m w2 neg 0 d 0 w neg d w 0 d 0 w d cl} def
/mt {mp x y w2 add m w2 neg w neg d w 0 d cl} def
/m21 {mb f} def /m25 {mb s} def /m22 {mt f} def /m26{mt s} def
/m23 {mp x y w2 sub m w2 w d w neg 0 d cl f} def
/m27 {mp x y w2 add m w3 neg w2 neg d w3 w2 neg d w3 w2 d cl s} def
/m28 {mp x w2 sub y w2 sub w3 add m w3 0 d  0 w3 neg d w3 0 d 0 w3 d w3 0 d  0 w3 d w3 neg 0 d 0 w3 d w3 neg 0 d 0 w3 neg d w3 neg 0 d cl s } def
/m29 {mp gsave x w2 sub y w2 add w3 sub m currentpoint t 4 {side} repeat cl fill gr} def
/m30 {mp gsave x w2 sub y w2 add w3 sub m currentpoint t 4 {side} repeat cl s gr} def
/m31 {mp x y w2 sub m 0 w d x w2 sub y m w 0 d x w2 sub y w2 add m w w neg d x w2 sub y w2 sub m w w d s} def
/m32 {mp x y w2 sub m w2 w d w neg 0 d cl s} def
/m33 {mp x y w2 add m w3 neg w2 neg d w3 w2 neg d w3 w2 d cl f} def
/m34 {mp x w2 sub y w2 sub w3 add m w3 0 d  0 w3 neg d w3 0 d 0 w3 d w3 0 d  0 w3 d w3 neg 0 d 0 w3 d w3 neg 0 d 0 w3 neg d w3 neg 0 d cl f } def
/m2 {mp x y w2 sub m 0 w d x w2 sub y m w 0 d s} def
/m5 {mp x w2 sub y w2 sub m w w d x w2 sub y w2 add m w w neg d s} def
%%IncludeResource: ProcSet (FontSetInit)
%%IncludeResource: font Times-Roman
%%IncludeResource: font Times-Italic
%%IncludeResource: font Times-Bold
%%IncludeResource: font Times-BoldItalic
%%IncludeResource: font Helvetica
%%IncludeResource: font Helvetica-Oblique
%%IncludeResource: font Helvetica-Bold
%%IncludeResource: font Helvetica-BoldOblique
%%IncludeResource: font Courier
%%IncludeResource: font Courier-Oblique
%%IncludeResource: font Courier-Bold
%%IncludeResource: font Courier-BoldOblique
%%IncludeResource: font Symbol
%%IncludeResource: font ZapfDingbats
/reEncode {exch findfont dup length dict begin {1 index /FID eq  {pop pop} {def} ifelse } forall /Encoding exch def currentdict end dup /FontName get exch definefont pop } def [/Times-Bold /Times-Italic /Times-BoldItalic /Helvetica /Helvetica-Oblique
 /Helvetica-Bold /Helvetica-BoldOblique /Courier /Courier-Oblique /Courier-Bold /Courier-BoldOblique /Times-Roman /AvantGarde-Book /AvantGarde-BookOblique /AvantGarde-Demi /AvantGarde-DemiOblique /Bookman-Demi /Bookman-DemiItalic /Bookman-Light
 /Bookman-LightItalic /Helvetica-Narrow /Helvetica-Narrow-Bold /Helvetica-Narrow-BoldOblique /Helvetica-Narrow-Oblique /NewCenturySchlbk-Roman /NewCenturySchlbk-Bold /NewCenturySchlbk-BoldItalic /NewCenturySchlbk-Italic /Palatino-Bold
 /Palatino-BoldItalic /Palatino-Italic /Palatino-Roman ] {ISOLatin1Encoding reEncode } forall
%%EndProlog
%%BeginSetup
%%EndSetup
newpath  gsave  .25 .25 scale  gsave  0 0 t black[  ] 0 sd 3 lw 1 1 1 c 2268 1045 0 0 bf black 1 1 1 c 1088 1024 23 10 bf black 1 1 1 c 870 819 132 113 bf black 870 819 132 113 bl 1 1 1 c 870 819 132 113 bf black 870 819 132 113 bl 132 113 m 870 X s
 gsave  1088 1024 23 10 C 884.918 52.6953 t 0 r /Helvetica findfont 32.7365 sf 0 0 m ( [GeV/c]) show NC gr 
 gsave  1088 1024 23 10 C 877.65 34.5245 t 0 r /Helvetica findfont 21.8243 sf 0 0 m (t) show NC gr 
 gsave  1088 1024 23 10 C 859.479 52.6953 t 0 r /Helvetica findfont 32.7365 sf 0 0 m (p) show NC gr  132 137 m -24 Y s 169 125 m -12 Y s 207 125 m -12 Y s 245 125 m -12 Y s 283 137 m -24 Y s 321 125 m -12 Y s 359 125 m -12 Y s 397 125 m -12 Y s 434
 137 m -24 Y s 472 125 m -12 Y s 510 125 m -12 Y s 548 125 m -12 Y s 586 137 m -24 Y s 624 125 m -12 Y s 662 125 m -12 Y s 699 125 m -12 Y s 737 137 m -24 Y s 775 125 m -12 Y s 813 125 m -12 Y s 851 125 m -12 Y s 889 137 m -24 Y s 889 137 m -24 Y s
 927 125 m -12 Y s 964 125 m -12 Y s
 gsave  1088 1024 23 10 C 121.744 79.9515 t 0 r /Helvetica findfont 32.7365 sf 0 0 m (0) show NC gr 
 gsave  1088 1024 23 10 C 272.562 79.9515 t 0 r /Helvetica findfont 32.7365 sf 0 0 m (2) show NC gr 
 gsave  1088 1024 23 10 C 425.197 79.9515 t 0 r /Helvetica findfont 32.7365 sf 0 0 m (4) show NC gr 
 gsave  1088 1024 23 10 C 576.015 79.9515 t 0 r /Helvetica findfont 32.7365 sf 0 0 m (6) show NC gr 
 gsave  1088 1024 23 10 C 726.832 79.9515 t 0 r /Helvetica findfont 32.7365 sf 0 0 m (8) show NC gr 
 gsave  1088 1024 23 10 C 870.382 79.9515 t 0 r /Helvetica findfont 32.7365 sf 0 0 m (10) show NC gr  132 113 m 819 Y s
 gsave  1088 1024 23 10 C 78.1345 757.723 t 90 r /Helvetica findfont 32.7365 sf 0 0 m (FWHM [rad]) show NC gr  158 113 m -26 X s 145 167 m -13 X s 145 222 m -13 X s 145 277 m -13 X s 145 331 m -13 X s 158 386 m -26 X s 145 440 m -13 X s 145 495 m -13
 X s 145 550 m -13 X s 145 604 m -13 X s 158 659 m -26 X s 145 714 m -13 X s 145 768 m -13 X s 145 823 m -13 X s 145 877 m -13 X s 158 932 m -26 X s
 gsave  1088 1024 23 10 C 107.208 101.757 t 0 r /Helvetica findfont 32.7365 sf 0 0 m (0) show NC gr 
 gsave  1088 1024 23 10 C 112.659 374.319 t 0 r /Helvetica findfont 32.7365 sf 0 0 m (1) show NC gr 
 gsave  1088 1024 23 10 C 107.208 646.881 t 0 r /Helvetica findfont 32.7365 sf 0 0 m (2) show NC gr 
 gsave  1088 1024 23 10 C 107.208 919.443 t 0 r /Helvetica findfont 32.7365 sf 0 0 m (3) show NC gr  1 0.4 0.4 c black 1 0.4 0.4 c 169 685 m 7 -28 d 8 -28 d 7 -27 d 8 -28 d 7 -23 d 7 -22 d 8 -21 d 8 -22 d 7 -18 d 7 -17 d 2 -4 d 6 -11 d 6 -12 d 7 -11
 d 7 -10 d 8 -10 d 10 -10 d 12 -11 d 20 -17 d 12 -10 d 10 -8 d 14 -8 d 15 -8 d 25 -11 d 18 -8 d 21 -7 d 24 -6 d 12 -3 d 16 -3 d 34 -3 d 20 -2 d 6 -1 d 76 -16 d 44 -8 d 27 -4 d 4 X 29 -2 d 32 -1 d 15 1 d 18 1 d 33 4 d 13 1 d 12 -1 d 18 -2 d 19 -4 d 18
 -5 d 18 -6 d 3 -1 d s /w 11 def /w2 {w 2 div} def /w3 {w 3 div} def 169 685 245 447 321 355 397 310 472 286 548 277 624 261 699 249 775 247 851 252 927 234 11 { m21} R black[ 12 12] 0 sd 169 555 m 7 -20 d 7 -19 d 7 -18 d 7 -18 d 8 -17 d 6 -13 d 7
 -15 d 7 -14 d 7 -12 d 8 -12 d 5 -8 d 6 -7 d 5 -7 d 7 -7 d 7 -6 d 8 -6 d 9 -5 d 22 -11 d 12 -6 d 12 -7 d 16 -8 d 19 -8 d 29 -11 d 21 -7 d 27 -8 d 27 -7 d 28 -7 d 27 -5 d 21 -4 d 25 -3 d 43 -4 d 8 -1 d 29 -1 d 33 -2 d 13 -2 d 22 -3 d 49 -8 d 5 -1 d 22
 -2 d 54 -4 d 49 -6 d 27 -3 d s[  ] 0 sd 169 555 245 389 321 334 397 300 472 278 548 262 624 254 699 249 775 237 851 231 927 222 11 { m25} R[ 12 12] 0 sd[  ] 0 sd 1 1 1 c 1088 1024 1157 10 bf black 1 1 1 c 871 819 1265 113 bf black 871 819 1265 113
 bl 1 1 1 c 871 819 1265 113 bf black 871 819 1265 113 bl 1265 113 m 871 X s
 gsave  1088 1024 1157 10 C 2018.78 50.8783 t 0 r /Helvetica findfont 32.7365 sf 0 0 m ( [GeV/c]) show NC gr 
 gsave  1088 1024 1157 10 C 2004.24 34.5245 t 0 r /Helvetica findfont 21.8243 sf 0 0 m (T) show NC gr 
 gsave  1088 1024 1157 10 C 1986.07 50.8783 t 0 r /Helvetica findfont 32.7365 sf 0 0 m (p) show NC gr  1265 137 m -24 Y s 1304 125 m -12 Y s 1343 125 m -12 Y s 1382 125 m -12 Y s 1421 137 m -24 Y s 1461 125 m -12 Y s 1500 125 m -12 Y s 1539 125 m -12
 Y s 1578 137 m -24 Y s 1617 125 m -12 Y s 1656 125 m -12 Y s 1695 125 m -12 Y s 1734 137 m -24 Y s 1773 125 m -12 Y s 1812 125 m -12 Y s 1851 125 m -12 Y s 1890 137 m -24 Y s 1929 125 m -12 Y s 1968 125 m -12 Y s 2007 125 m -12 Y s 2046 137 m -24 Y
 s 2046 137 m -24 Y s 2085 125 m -12 Y s 2124 125 m -12 Y s
 gsave  1088 1024 1157 10 C 1255.6 79.9515 t 0 r /Helvetica findfont 32.7365 sf 0 0 m (0) show NC gr 
 gsave  1088 1024 1157 10 C 1411.87 79.9515 t 0 r /Helvetica findfont 32.7365 sf 0 0 m (2) show NC gr 
 gsave  1088 1024 1157 10 C 1568.14 79.9515 t 0 r /Helvetica findfont 32.7365 sf 0 0 m (4) show NC gr 
 gsave  1088 1024 1157 10 C 1724.41 79.9515 t 0 r /Helvetica findfont 32.7365 sf 0 0 m (6) show NC gr 
 gsave  1088 1024 1157 10 C 1880.68 79.9515 t 0 r /Helvetica findfont 32.7365 sf 0 0 m (8) show NC gr 
 gsave  1088 1024 1157 10 C 2026.04 79.9515 t 0 r /Helvetica findfont 32.7365 sf 0 0 m (10) show NC gr  1265 113 m 819 Y s
 gsave  1088 1024 1157 10 C 1213.81 757.723 t 90 r /Helvetica findfont 32.7365 sf 0 0 m (FWHM [rad]) show NC gr  1292 113 m -27 X s 1278 167 m -13 X s 1278 222 m -13 X s 1278 277 m -13 X s 1278 331 m -13 X s 1292 386 m -27 X s 1278 440 m -13 X s 1278
 495 m -13 X s 1278 550 m -13 X s 1278 604 m -13 X s 1292 659 m -27 X s 1278 714 m -13 X s 1278 768 m -13 X s 1278 823 m -13 X s 1278 877 m -13 X s 1292 932 m -27 X s
 gsave  1088 1024 1157 10 C 1241.07 101.757 t 0 r /Helvetica findfont 32.7365 sf 0 0 m (0) show NC gr 
 gsave  1088 1024 1157 10 C 1246.52 374.319 t 0 r /Helvetica findfont 32.7365 sf 0 0 m (1) show NC gr 
 gsave  1088 1024 1157 10 C 1241.07 646.881 t 0 r /Helvetica findfont 32.7365 sf 0 0 m (2) show NC gr 
 gsave  1088 1024 1157 10 C 1241.07 919.443 t 0 r /Helvetica findfont 32.7365 sf 0 0 m (3) show NC gr  1 0.4 0.4 c 1 1 1 c 1 0.4 0.4 c 1275 768 m 3 6 d 3 5 d 4 3 d 3 1 d 3 -1 d 4 -2 d 2 -3 d 3 -5 d 3 -8 d 3 -10 d 18 -79 d 5 -21 d 5 -26 d 9 -45 d 11
 -58 d 5 -25 d 4 -16 d 19 -83 d 6 -25 d 5 -17 d 4 -13 d 4 -12 d 1 -3 d 4 -8 d 4 -8 d 4 -6 d 5 -6 d 6 -4 d 6 -2 d 11 -3 d 10 -2 d 6 -3 d 3 -1 d 55 -41 d 14 -8 d 9 -4 d 12 -5 d 14 -3 d 16 -1 d 19 X 41 1 d 15 X 156 -14 d 68 -4 d 82 -2 d 84 -2 d 90 X s
 /w 14 def /w2 {w 2 div} def /w3 {w 3 div} def 1275 768 1295 780 1324 675 1363 484 1402 331 1461 288 1539 235 1656 227 1812 213 2046 205 10 { m20} R 1275 775 m 123 Y s 1272 898 m 7 X s 1275 761 m -122 Y s 1272 639 m 7 X s 1295 787 m 27 Y s 1291 814 m
 7 X s 1295 773 m -27 Y s 1291 746 m 7 X s 1324 682 m 1 Y s 1320 683 m 8 X s 1324 667 m s 1320 667 m 8 X s 0.4 0.4 1 c[ 80 20] 0 sd 1275 460 m 35 Y s 1272 495 m 7 X s 1275 442 m -34 Y s 1272 408 m 7 X s 1295 552 m 5 Y s 1291 557 m 7 X s 1295 534 m -5
 Y s 1291 529 m 7 X s 1 1 1 c 0.4 0.4 1 c 1275 451 m 1 11 d 1 10 d 1 9 d 1 10 d 2 9 d 1 8 d 2 8 d 2 7 d 2 6 d 1 5 d 2 4 d 2 3 d 2 2 d 1 1 d 2 X 1 -2 d 2 -1 d 1 -4 d 2 -4 d 1 -6 d 2 -8 d 2 -10 d 5 -24 d 3 -17 d 2 -11 d 2 -8 d 1 -6 d 2 -5 d 6 -17 d 5
 -13 d 6 -16 d 6 -14 d 7 -14 d 6 -13 d 3 -5 d 6 -10 d 5 -8 d 7 -10 d 9 -11 d 12 -14 d 11 -12 d 11 -11 d 9 -8 d 9 -8 d 8 -5 d 8 -5 d 3 -1 d 6 -2 d 6 -2 d 17 X 12 2 d 21 3 d 8 1 d 8 X 14 -1 d 18 -3 d 44 -10 d 24 -5 d 17 -2 d 20 -2 d 24 -1 d 32 X 64 2 d
 16 X 234 -3 d 90 X s[  ] 0 sd /w 18 def /w2 {w 2 div} def /w3 {w 3 div} def 1275 451 1295 543 1324 438 1363 346 1402 293 1461 243 1539 245 1656 224 1812 223 2046 220 10 { m28} R[ 80 20] 0 sd black[ 12 12] 0 sd 1275 581 m s 1272 581 m 7 X s 1275 566
 m s 1272 566 m 7 X s 1 1 1 c black 1275 574 m 11 -48 d 9 -38 d 9 -40 d 6 -27 d 4 -19 d 4 -13 d 3 -12 d 3 -9 d 4 -10 d 4 -11 d 5 -10 d 5 -10 d 6 -11 d 9 -13 d 6 -10 d 6 -8 d 7 -9 d 9 -9 d 11 -10 d 6 -5 d 9 -7 d 8 -5 d 11 -5 d 18 -6 d 13 -5 d 12 -4 d
 18 -4 d 28 -5 d 20 -4 d 31 -5 d 44 -5 d 42 -4 d 40 -3 d 65 -3 d 51 -2 d 118 -4 d 116 -4 d 90 -1 d s[  ] 0 sd /w 14 def /w2 {w 2 div} def /w3 {w 3 div} def 1275 574 1295 488 1324 368 1363 293 1402 252 1461 224 1539 207 1656 193 1812 185 2046 177 10 {
 m24} R[ 12 12] 0 sd
 gr  gr showpage
end
%%EOF
