%!PS-Adobe-2.0 EPSF-2.0
%%BoundingBox:  0 0 567 261
%%Title: ./c_jrprofile_20_40_3M.eps: c_jrprofile_20_40_3M
%%Creator: ROOT Version 6.04/14
%%CreationDate: Mon Mar  7 18:10:45 2016
%%DocumentNeededResources: ProcSet (FontSetInit)
%%EndComments
%%BeginProlog
80 dict begin
/s {stroke} def /l {lineto} def /m {moveto} def /t {translate} def
/r {rotate} def /rl {roll}  def /R {repeat} def
/d {rlineto} def /rm {rmoveto} def /gr {grestore} def /f {eofill} def
/c {setrgbcolor} def /black {0 setgray} def /sd {setdash} def
/cl {closepath} def /sf {scalefont setfont} def /lw {setlinewidth} def
/box {m dup 0 exch d exch 0 d 0 exch neg d cl} def
/NC{systemdict begin initclip end}def/C{NC box clip newpath}def
/bl {box s} def /bf {gsave box gsave f grestore 1 lw [] 0 sd s grestore} def /Y { 0 exch d} def /X { 0 d} def 
/K {{pop pop 0 moveto} exch kshow} bind def
/ita {/ang 15 def gsave [1 0 ang dup sin exch cos div 1 0 0] concat} def 
/mp {newpath /y exch def /x exch def} def
/side {[w .77 mul w .23 mul] .385 w mul sd w 0 l currentpoint t -144 r} def
/mr {mp x y w2 0 360 arc} def /m24 {mr s} def /m20 {mr f} def
/mb {mp x y w2 add m w2 neg 0 d 0 w neg d w 0 d 0 w d cl} def
/mt {mp x y w2 add m w2 neg w neg d w 0 d cl} def
/m21 {mb f} def /m25 {mb s} def /m22 {mt f} def /m26{mt s} def
/m23 {mp x y w2 sub m w2 w d w neg 0 d cl f} def
/m27 {mp x y w2 add m w3 neg w2 neg d w3 w2 neg d w3 w2 d cl s} def
/m28 {mp x w2 sub y w2 sub w3 add m w3 0 d  0 w3 neg d w3 0 d 0 w3 d w3 0 d  0 w3 d w3 neg 0 d 0 w3 d w3 neg 0 d 0 w3 neg d w3 neg 0 d cl s } def
/m29 {mp gsave x w2 sub y w2 add w3 sub m currentpoint t 4 {side} repeat cl fill gr} def
/m30 {mp gsave x w2 sub y w2 add w3 sub m currentpoint t 4 {side} repeat cl s gr} def
/m31 {mp x y w2 sub m 0 w d x w2 sub y m w 0 d x w2 sub y w2 add m w w neg d x w2 sub y w2 sub m w w d s} def
/m32 {mp x y w2 sub m w2 w d w neg 0 d cl s} def
/m33 {mp x y w2 add m w3 neg w2 neg d w3 w2 neg d w3 w2 d cl f} def
/m34 {mp x w2 sub y w2 sub w3 add m w3 0 d  0 w3 neg d w3 0 d 0 w3 d w3 0 d  0 w3 d w3 neg 0 d 0 w3 d w3 neg 0 d 0 w3 neg d w3 neg 0 d cl f } def
/m2 {mp x y w2 sub m 0 w d x w2 sub y m w 0 d s} def
/m5 {mp x w2 sub y w2 sub m w w d x w2 sub y w2 add m w w neg d s} def
%%IncludeResource: ProcSet (FontSetInit)
%%IncludeResource: font Times-Roman
%%IncludeResource: font Times-Italic
%%IncludeResource: font Times-Bold
%%IncludeResource: font Times-BoldItalic
%%IncludeResource: font Helvetica
%%IncludeResource: font Helvetica-Oblique
%%IncludeResource: font Helvetica-Bold
%%IncludeResource: font Helvetica-BoldOblique
%%IncludeResource: font Courier
%%IncludeResource: font Courier-Oblique
%%IncludeResource: font Courier-Bold
%%IncludeResource: font Courier-BoldOblique
%%IncludeResource: font Symbol
%%IncludeResource: font ZapfDingbats
/reEncode {exch findfont dup length dict begin {1 index /FID eq  {pop pop} {def} ifelse } forall /Encoding exch def currentdict end dup /FontName get exch definefont pop } def [/Times-Bold /Times-Italic /Times-BoldItalic /Helvetica /Helvetica-Oblique
 /Helvetica-Bold /Helvetica-BoldOblique /Courier /Courier-Oblique /Courier-Bold /Courier-BoldOblique /Times-Roman /AvantGarde-Book /AvantGarde-BookOblique /AvantGarde-Demi /AvantGarde-DemiOblique /Bookman-Demi /Bookman-DemiItalic /Bookman-Light
 /Bookman-LightItalic /Helvetica-Narrow /Helvetica-Narrow-Bold /Helvetica-Narrow-BoldOblique /Helvetica-Narrow-Oblique /NewCenturySchlbk-Roman /NewCenturySchlbk-Bold /NewCenturySchlbk-BoldItalic /NewCenturySchlbk-Italic /Palatino-Bold
 /Palatino-BoldItalic /Palatino-Italic /Palatino-Roman ] {ISOLatin1Encoding reEncode } forall
%%EndProlog
%%BeginSetup
%%EndSetup
newpath  gsave  .25 .25 scale  gsave  0 0 t black[  ] 0 sd 3 lw 1 1 1 c 2268 1045 0 0 bf black 1 1 1 c 1088 1024 23 10 bf black 1 1 1 c 870 819 132 113 bf black 870 819 132 113 bl 1 1 1 c 870 819 132 113 bf black 870 819 132 113 bl 132 113 m 870 X s
 gsave  1088 1024 23 10 C 884.918 52.6953 t 0 r /Helvetica findfont 32.7365 sf 0 0 m ( [GeV/c]) show NC gr 
 gsave  1088 1024 23 10 C 877.65 34.5245 t 0 r /Helvetica findfont 21.8243 sf 0 0 m (t) show NC gr 
 gsave  1088 1024 23 10 C 859.479 52.6953 t 0 r /Helvetica findfont 32.7365 sf 0 0 m (p) show NC gr  132 137 m -24 Y s 169 125 m -12 Y s 207 125 m -12 Y s 245 125 m -12 Y s 283 137 m -24 Y s 321 125 m -12 Y s 359 125 m -12 Y s 397 125 m -12 Y s 434
 137 m -24 Y s 472 125 m -12 Y s 510 125 m -12 Y s 548 125 m -12 Y s 586 137 m -24 Y s 624 125 m -12 Y s 662 125 m -12 Y s 699 125 m -12 Y s 737 137 m -24 Y s 775 125 m -12 Y s 813 125 m -12 Y s 851 125 m -12 Y s 889 137 m -24 Y s 889 137 m -24 Y s
 927 125 m -12 Y s 964 125 m -12 Y s
 gsave  1088 1024 23 10 C 121.744 79.9515 t 0 r /Helvetica findfont 32.7365 sf 0 0 m (0) show NC gr 
 gsave  1088 1024 23 10 C 272.562 79.9515 t 0 r /Helvetica findfont 32.7365 sf 0 0 m (2) show NC gr 
 gsave  1088 1024 23 10 C 425.197 79.9515 t 0 r /Helvetica findfont 32.7365 sf 0 0 m (4) show NC gr 
 gsave  1088 1024 23 10 C 576.015 79.9515 t 0 r /Helvetica findfont 32.7365 sf 0 0 m (6) show NC gr 
 gsave  1088 1024 23 10 C 726.832 79.9515 t 0 r /Helvetica findfont 32.7365 sf 0 0 m (8) show NC gr 
 gsave  1088 1024 23 10 C 870.382 79.9515 t 0 r /Helvetica findfont 32.7365 sf 0 0 m (10) show NC gr  132 113 m 819 Y s
 gsave  1088 1024 23 10 C 78.1345 757.723 t 90 r /Helvetica findfont 32.7365 sf 0 0 m (FWHM [rad]) show NC gr  158 113 m -26 X s 145 167 m -13 X s 145 222 m -13 X s 145 277 m -13 X s 145 331 m -13 X s 158 386 m -26 X s 145 440 m -13 X s 145 495 m -13
 X s 145 550 m -13 X s 145 604 m -13 X s 158 659 m -26 X s 145 714 m -13 X s 145 768 m -13 X s 145 823 m -13 X s 145 877 m -13 X s 158 932 m -26 X s
 gsave  1088 1024 23 10 C 107.208 101.757 t 0 r /Helvetica findfont 32.7365 sf 0 0 m (0) show NC gr 
 gsave  1088 1024 23 10 C 112.659 374.319 t 0 r /Helvetica findfont 32.7365 sf 0 0 m (1) show NC gr 
 gsave  1088 1024 23 10 C 107.208 646.881 t 0 r /Helvetica findfont 32.7365 sf 0 0 m (2) show NC gr 
 gsave  1088 1024 23 10 C 107.208 919.443 t 0 r /Helvetica findfont 32.7365 sf 0 0 m (3) show NC gr  1 0.4 0.4 c black 1 0.4 0.4 c 169 778 m 7 -32 d 7 -31 d 7 -30 d 7 -28 d 7 -28 d 7 -22 d 8 -27 d 7 -23 d 7 -21 d 7 -19 d 5 -14 d 6 -13 d 6 -13 d 6 -12
 d 8 -12 d 7 -11 d 9 -11 d 12 -13 d 22 -21 d 10 -9 d 10 -8 d 12 -8 d 15 -7 d 29 -12 d 12 -5 d 15 -4 d 48 -10 d 70 -17 d 6 -2 d 30 -4 d 36 -3 d 10 -1 d 33 -1 d 42 -1 d 66 1 d 10 -1 d 42 -2 d 29 -3 d 5 X 29 -5 d 31 -6 d 16 -4 d s /w 11 def /w2 {w 2
 div} def /w3 {w 3 div} def 169 778 245 503 321 397 397 353 472 334 548 315 624 307 699 305 775 305 851 300 927 285 11 { m21} R black[ 12 12] 0 sd 169 568 m 7 -19 d 8 -18 d 7 -17 d 8 -19 d 7 -15 d 7 -14 d 8 -14 d 8 -14 d 7 -12 d 7 -11 d 2 -3 d 6 -7 d
 6 -8 d 7 -7 d 7 -6 d 8 -6 d 9 -7 d 12 -7 d 21 -10 d 9 -5 d 11 -4 d 11 -3 d 15 -3 d 25 -5 d 5 -1 d 56 -15 d 19 -4 d 15 -3 d 22 -2 d 36 -4 d 3 X 76 -10 d 75 -10 d 60 -8 d 16 -1 d 66 X 10 -1 d 29 -2 d 31 -2 d 16 -2 d s[  ] 0 sd 169 568 245 412 321 354
 397 333 472 314 548 305 624 295 699 285 775 276 851 275 927 269 11 { m25} R[ 12 12] 0 sd[  ] 0 sd 1 1 1 c 1088 1024 1157 10 bf black 1 1 1 c 871 819 1265 113 bf black 871 819 1265 113 bl 1 1 1 c 871 819 1265 113 bf black 871 819 1265 113 bl 1265 113
 m 871 X s
 gsave  1088 1024 1157 10 C 2018.78 50.8783 t 0 r /Helvetica findfont 32.7365 sf 0 0 m ( [GeV/c]) show NC gr 
 gsave  1088 1024 1157 10 C 2004.24 34.5245 t 0 r /Helvetica findfont 21.8243 sf 0 0 m (T) show NC gr 
 gsave  1088 1024 1157 10 C 1986.07 50.8783 t 0 r /Helvetica findfont 32.7365 sf 0 0 m (p) show NC gr  1265 137 m -24 Y s 1304 125 m -12 Y s 1343 125 m -12 Y s 1382 125 m -12 Y s 1421 137 m -24 Y s 1461 125 m -12 Y s 1500 125 m -12 Y s 1539 125 m -12
 Y s 1578 137 m -24 Y s 1617 125 m -12 Y s 1656 125 m -12 Y s 1695 125 m -12 Y s 1734 137 m -24 Y s 1773 125 m -12 Y s 1812 125 m -12 Y s 1851 125 m -12 Y s 1890 137 m -24 Y s 1929 125 m -12 Y s 1968 125 m -12 Y s 2007 125 m -12 Y s 2046 137 m -24 Y
 s 2046 137 m -24 Y s 2085 125 m -12 Y s 2124 125 m -12 Y s
 gsave  1088 1024 1157 10 C 1255.6 79.9515 t 0 r /Helvetica findfont 32.7365 sf 0 0 m (0) show NC gr 
 gsave  1088 1024 1157 10 C 1411.87 79.9515 t 0 r /Helvetica findfont 32.7365 sf 0 0 m (2) show NC gr 
 gsave  1088 1024 1157 10 C 1568.14 79.9515 t 0 r /Helvetica findfont 32.7365 sf 0 0 m (4) show NC gr 
 gsave  1088 1024 1157 10 C 1724.41 79.9515 t 0 r /Helvetica findfont 32.7365 sf 0 0 m (6) show NC gr 
 gsave  1088 1024 1157 10 C 1880.68 79.9515 t 0 r /Helvetica findfont 32.7365 sf 0 0 m (8) show NC gr 
 gsave  1088 1024 1157 10 C 2026.04 79.9515 t 0 r /Helvetica findfont 32.7365 sf 0 0 m (10) show NC gr  1265 113 m 819 Y s
 gsave  1088 1024 1157 10 C 1213.81 757.723 t 90 r /Helvetica findfont 32.7365 sf 0 0 m (FWHM [rad]) show NC gr  1292 113 m -27 X s 1278 167 m -13 X s 1278 222 m -13 X s 1278 277 m -13 X s 1278 331 m -13 X s 1292 386 m -27 X s 1278 440 m -13 X s 1278
 495 m -13 X s 1278 550 m -13 X s 1278 604 m -13 X s 1292 659 m -27 X s 1278 714 m -13 X s 1278 768 m -13 X s 1278 823 m -13 X s 1278 877 m -13 X s 1292 932 m -27 X s
 gsave  1088 1024 1157 10 C 1241.07 101.757 t 0 r /Helvetica findfont 32.7365 sf 0 0 m (0) show NC gr 
 gsave  1088 1024 1157 10 C 1246.52 374.319 t 0 r /Helvetica findfont 32.7365 sf 0 0 m (1) show NC gr 
 gsave  1088 1024 1157 10 C 1241.07 646.881 t 0 r /Helvetica findfont 32.7365 sf 0 0 m (2) show NC gr 
 gsave  1088 1024 1157 10 C 1241.07 919.443 t 0 r /Helvetica findfont 32.7365 sf 0 0 m (3) show NC gr  1 0.4 0.4 c 1 1 1 c 1 0.4 0.4 c 1276 932 m 1 -6 d s 1277 926 m 1 -28 d 2 -30 d 2 -24 d 2 -24 d 3 -22 d 2 -23 d 2 -17 d 3 -17 d 1 -5 d 2 -10 d 2 -9
 d 2 -9 d 2 -6 d 4 -6 d 3 -5 d 10 -8 d 3 -5 d 1 -1 d 7 -12 d 12 -16 d 11 -15 d 7 -11 d 2 -4 d 6 -13 d 33 -78 d 9 -16 d 8 -12 d 11 -14 d 15 -17 d 16 -17 d 15 -15 d 16 -14 d 17 -13 d 18 -11 d 12 -6 d 13 -6 d 17 -5 d 16 -2 d 24 -1 d 38 -1 d 9 -1 d 76 -6
 d 80 -7 d 173 -14 d 61 -6 d 90 -12 d s /w 14 def /w2 {w 2 div} def /w3 {w 3 div} def 1295 736 1324 677 1363 619 1402 528 1461 452 1539 393 1656 377 1812 364 2046 344 9 { m20} R 1295 744 m 22 Y s 1291 766 m 7 X s 1295 729 m -22 Y s 1291 707 m 7 X s
 1324 684 m 7 Y s 1320 691 m 8 X s 1324 670 m -7 Y s 1320 663 m 8 X s 1363 626 m 6 Y s 1359 632 m 8 X s 1363 611 m -5 Y s 1359 606 m 8 X s 1402 536 m 4 Y s 1398 540 m 8 X s 1402 521 m -4 Y s 1398 517 m 8 X s 1461 459 m 2 Y s 1457 461 m 7 X s 1461 445
 m -1 Y s 1457 444 m 7 X s 0.4 0.4 1 c[ 80 20] 0 sd 1275 345 m 133 Y s 1272 478 m 7 X s 1275 327 m -133 Y s 1272 194 m 7 X s 1295 507 m 17 Y s 1291 524 m 7 X s 1295 489 m -17 Y s 1291 472 m 7 X s 1324 537 m s 1320 537 m 8 X s 1324 518 m -1 Y s 1320
 517 m 8 X s 1363 499 m 1 Y s 1359 500 m 8 X s 1363 481 m -1 Y s 1359 480 m 8 X s 1 1 1 c 0.4 0.4 1 c 1275 336 m 49 Y 1 10 d 9 Y 1 10 d 1 9 d 1 10 d 2 9 d 1 10 d 2 8 d 2 8 d 2 8 d 2 8 d 2 6 d 2 6 d 1 2 d 2 5 d 2 4 d 2 4 d 3 4 d 3 3 d 2 3 d 4 2 d 4 2
 d 3 2 d 9 X 3 -2 d 2 -2 d 4 -3 d 4 -4 d 7 -9 d 5 -8 d 3 -4 d 3 -3 d 3 -2 d 5 -3 d 5 -2 d 9 -4 d 9 -4 d 6 -3 d 4 -2 d 1 -1 d 4 -3 d 4 -5 d 5 -5 d 6 -8 d 12 -16 d 9 -11 d 5 -7 d 5 -4 d 4 -4 d 4 -3 d 1 X 4 -3 d 5 -2 d 5 -2 d 5 -1 d 7 -1 d 7 X 7 1 d 13
 2 d 12 2 d 31 X 31 1 d 45 X 14 -1 d 9 -1 d 13 -1 d 15 -3 d 17 -3 d 18 -5 d 71 -18 d 16 -4 d 6 -1 d 28 -5 d 32 -5 d 27 -3 d 38 -4 d 43 -5 d 66 -5 d 54 -4 d 36 -3 d s[  ] 0 sd /w 18 def /w2 {w 2 div} def /w3 {w 3 div} def 1275 336 1295 498 1324 527
 1363 490 1402 471 1461 405 1539 401 1656 400 1812 365 2046 338 10 { m28} R[ 80 20] 0 sd black[ 12 12] 0 sd 1275 587 m 4 Y s 1272 591 m 7 X s 1275 572 m -4 Y s 1272 568 m 7 X s 1 1 1 c black 1275 579 m 7 -10 d 5 -9 d 6 -11 d 2 -4 d 3 -9 d 5 -11 d 11
 -33 d 6 -16 d 4 -9 d 6 -14 d 7 -15 d 9 -17 d 8 -15 d 9 -14 d 8 -12 d 8 -12 d 10 -12 d 11 -12 d 2 -2 d 9 -9 d 8 -7 d 11 -8 d 15 -9 d 16 -9 d 12 -7 d 16 -8 d 20 -8 d 30 -10 d 18 -5 d 18 -4 d 23 -4 d 51 -7 d 7 -1 d 109 -18 d 39 -6 d 8 -1 d 37 -3 d 43
 -3 d 56 -3 d 98 -3 d 90 -4 d s[  ] 0 sd /w 14 def /w2 {w 2 div} def /w3 {w 3 div} def 1275 579 1295 545 1324 467 1363 392 1402 342 1461 300 1539 267 1656 246 1812 221 2046 209 10 { m24} R[ 12 12] 0 sd
 gr  gr showpage
end
%%EOF
