%!PS-Adobe-2.0 EPSF-2.0
%%BoundingBox:  0 0 567 398
%%Title: /Users/cgy606/Documents/Train/LEGOTrain/020814/good/NEFMean_R2_good_100_200.eps: 
%%Creator: ROOT Version 5.34/09
%%CreationDate: Fri Mar 28 16:22:34 2014
%%EndComments
%%BeginProlog
80 dict begin
/s {stroke} def /l {lineto} def /m {moveto} def /t {translate} def
/r {rotate} def /rl {roll}  def /R {repeat} def
/d {rlineto} def /rm {rmoveto} def /gr {grestore} def /f {eofill} def
/c {setrgbcolor} def /black {0 setgray} def /sd {setdash} def
/cl {closepath} def /sf {scalefont setfont} def /lw {setlinewidth} def
/box {m dup 0 exch d exch 0 d 0 exch neg d cl} def
/NC{systemdict begin initclip end}def/C{NC box clip newpath}def
/bl {box s} def /bf {box f} def /Y { 0 exch d} def /X { 0 d} def 
/K {{pop pop 0 moveto} exch kshow} bind def
/ita {/ang 15 def gsave [1 0 ang dup sin exch cos div 1 0 0] concat} def 
/mp {newpath /y exch def /x exch def} def
/side {[w .77 mul w .23 mul] .385 w mul sd w 0 l currentpoint t -144 r} def
/mr {mp x y w2 0 360 arc} def /m24 {mr s} def /m20 {mr f} def
/mb {mp x y w2 add m w2 neg 0 d 0 w neg d w 0 d 0 w d cl} def
/mt {mp x y w2 add m w2 neg w neg d w 0 d cl} def
/m21 {mb f} def /m25 {mb s} def /m22 {mt f} def /m26{mt s} def
/m23 {mp x y w2 sub m w2 w d w neg 0 d cl f} def
/m27 {mp x y w2 add m w3 neg w2 neg d w3 w2 neg d w3 w2 d cl s} def
/m28 {mp x w2 sub y w2 sub w3 add m w3 0 d  0 w3 neg d w3 0 d 0 w3 d w3 0 d  0 w3 d w3 neg 0 d 0 w3 d w3 neg 0 d 0 w3 neg d w3 neg 0 d cl s } def
/m29 {mp gsave x w2 sub y w2 add w3 sub m currentpoint t 4 {side} repeat cl fill gr} def
/m30 {mp gsave x w2 sub y w2 add w3 sub m currentpoint t 4 {side} repeat cl s gr} def
/m31 {mp x y w2 sub m 0 w d x w2 sub y m w 0 d x w2 sub y w2 add m w w neg d x w2 sub y w2 sub m w w d s} def
/m32 {mp x y w2 sub m w2 w d w neg 0 d cl s} def
/m33 {mp x y w2 add m w3 neg w2 neg d w3 w2 neg d w3 w2 d cl f} def
/m34 {mp x w2 sub y w2 sub w3 add m w3 0 d  0 w3 neg d w3 0 d 0 w3 d w3 0 d  0 w3 d w3 neg 0 d 0 w3 d w3 neg 0 d 0 w3 neg d w3 neg 0 d cl f } def
/m2 {mp x y w2 sub m 0 w d x w2 sub y m w 0 d s} def
/m5 {mp x w2 sub y w2 sub m w w d x w2 sub y w2 add m w w neg d s} def
/reEncode {exch findfont dup length dict begin {1 index /FID eq  {pop pop} {def} ifelse } forall /Encoding exch def currentdict end dup /FontName get exch definefont pop } def [/Times-Bold /Times-Italic /Times-BoldItalic /Helvetica /Helvetica-Oblique
 /Helvetica-Bold /Helvetica-BoldOblique /Courier /Courier-Oblique /Courier-Bold /Courier-BoldOblique /Times-Roman /AvantGarde-Book /AvantGarde-BookOblique /AvantGarde-Demi /AvantGarde-DemiOblique /Bookman-Demi /Bookman-DemiItalic /Bookman-Light
 /Bookman-LightItalic /Helvetica-Narrow /Helvetica-Narrow-Bold /Helvetica-Narrow-BoldOblique /Helvetica-Narrow-Oblique /NewCenturySchlbk-Roman /NewCenturySchlbk-Bold /NewCenturySchlbk-BoldItalic /NewCenturySchlbk-Italic /Palatino-Bold
 /Palatino-BoldItalic /Palatino-Italic /Palatino-Roman ] {ISOLatin1Encoding reEncode } forall
%%EndProlog
%%BeginSetup
%%EndSetup
newpath  gsave  .25 .25 scale  gsave  0 0 t black[  ] 0 sd 3 lw 0.999 0.999 0.999 c 2268 1594 0 0 bf black 0.999 0.999 0.999 c 1814 1276 227 159 bf black 1814 1276 227 159 bl 0 0 1 c 1 1 1 c 0 0 1 c 227 780 m 22 X s 265 780 m 22 X s /w 16 def /w2 {w
 2 div} def /w3 {w 3 div} def 257 780 m20 287 839 m 22 X s 326 839 m 22 X s 317 839 m20 348 881 m 22 X s 386 881 m 22 X s 378 881 m20 408 918 m 22 X s 447 918 m 22 X s 438 918 m20 469 972 m 22 X s 507 972 m 22 X s 499 972 m20 529 949 m 22 X s 568 949
 m 22 X s 559 949 m20 590 922 m 22 X s 628 922 m 22 X s 620 922 m20 650 974 m 22 X s 689 974 m 22 X s 680 974 m20 711 953 m 22 X s 749 953 m 22 X s 741 953 m20 771 973 m 22 X s 809 973 m 22 X s 801 973 m20 831 982 m 23 X s 870 982 m 22 X s 862 982
 m20 892 984 m 22 X s 930 984 m 22 X s 922 984 m20 952 995 m 22 X s 991 995 m 22 X s 983 995 m20 1013 976 m 22 X s 1051 976 m 22 X s 1043 976 m20 1073 965 m 22 X s 1112 965 m 22 X s 1104 965 m20 1134 994 m 22 X s 1172 994 m 22 X s 1164 994 m20 1194
 988 m 22 X s 1233 988 m 22 X s 1225 988 m20 1255 1009 m 22 X s 1293 1009 m 22 X s 1285 1009 m20 1315 994 m 22 X s 1354 994 m 22 X s 1346 994 m20 1376 974 m 22 X s 1414 974 m 22 X s 1406 974 m20 1436 1007 m 22 X s 1475 1007 m 22 X s 1466 1007 m20
 1497 998 m 22 X s 1535 998 m 22 X s 1527 998 m20 1557 1011 m 22 X s 1596 1011 m 22 X s 1587 1011 m20 1618 1030 m 22 X s 1656 1030 m 22 X s 1648 1030 m20 1678 996 m 22 X s 1717 996 m 22 X s 1708 996 m20 1739 1050 m 22 X s 1777 1050 m 22 X s 1769 1050
 m20 1799 1027 m 22 X s 1838 1027 m 22 X s 1829 1027 m20 1860 1049 m 22 X s 1898 1049 m 22 X s 1890 1049 m20 1920 1066 m 22 X s 1958 1066 m 22 X s 1950 1066 m20 1980 1035 m 22 X s 2019 1035 m 22 X s 2011 1035 m20 black 227 159 m 1814 X s
 gsave  2268 1594 0 0 C 1891.82 51.3523 t 0 r /Helvetica findfont 51.3523 sf 0 0 m ( \(GeV\)) show NC gr 
 gsave  2268 1594 0 0 C 1824.03 22.595 t 0 r /Helvetica findfont 34.9195 sf 0 0 m (T,jet) show NC gr 
 gsave  2268 1594 0 0 C 1795.28 51.3523 t 0 r /Helvetica findfont 51.3523 sf 0 0 m (p) show NC gr  227 198 m -39 Y s 287 179 m -20 Y s 348 179 m -20 Y s 408 179 m -20 Y s 469 198 m -39 Y s 529 179 m -20 Y s 590 179 m -20 Y s 650 179 m -20 Y s 711 198
 m -39 Y s 771 179 m -20 Y s 831 179 m -20 Y s 892 179 m -20 Y s 952 198 m -39 Y s 1013 179 m -20 Y s 1073 179 m -20 Y s 1134 179 m -20 Y s 1194 198 m -39 Y s 1255 179 m -20 Y s 1315 179 m -20 Y s 1376 179 m -20 Y s 1436 198 m -39 Y s 1497 179 m -20
 Y s 1557 179 m -20 Y s 1618 179 m -20 Y s 1678 198 m -39 Y s 1739 179 m -20 Y s 1799 179 m -20 Y s 1860 179 m -20 Y s 1920 198 m -39 Y s 1920 198 m -39 Y s 1980 179 m -20 Y s 2041 179 m -20 Y s
 gsave  2268 1594 0 0 C 211.571 106.813 t 0 r /Helvetica findfont 51.3523 sf 0 0 m (0) show NC gr 
 gsave  2268 1594 0 0 C 439.576 106.813 t 0 r /Helvetica findfont 51.3523 sf 0 0 m (20) show NC gr 
 gsave  2268 1594 0 0 C 679.904 106.813 t 0 r /Helvetica findfont 51.3523 sf 0 0 m (40) show NC gr 
 gsave  2268 1594 0 0 C 922.287 106.813 t 0 r /Helvetica findfont 51.3523 sf 0 0 m (60) show NC gr 
 gsave  2268 1594 0 0 C 1164.67 106.813 t 0 r /Helvetica findfont 51.3523 sf 0 0 m (80) show NC gr 
 gsave  2268 1594 0 0 C 1392.67 106.813 t 0 r /Helvetica findfont 51.3523 sf 0 0 m (100) show NC gr 
 gsave  2268 1594 0 0 C 1633 106.813 t 0 r /Helvetica findfont 51.3523 sf 0 0 m (120) show NC gr 
 gsave  2268 1594 0 0 C 1875.39 106.813 t 0 r /Helvetica findfont 51.3523 sf 0 0 m (140) show NC gr  227 159 m 1276 Y s
 gsave  2268 1594 0 0 C 92.4341 1273.54 t 90 r /Helvetica findfont 51.3523 sf 0 0 m (<NEF>) show NC gr  281 159 m -54 X s 254 185 m -27 X s 254 210 m -27 X s 254 236 m -27 X s 254 261 m -27 X s 281 287 m -54 X s 254 312 m -27 X s 254 338 m -27 X s
 254 363 m -27 X s 254 389 m -27 X s 281 414 m -54 X s 254 440 m -27 X s 254 465 m -27 X s 254 491 m -27 X s 254 516 m -27 X s 281 542 m -54 X s 254 567 m -27 X s 254 593 m -27 X s 254 618 m -27 X s 254 644 m -27 X s 281 669 m -54 X s 254 695 m -27 X
 s 254 720 m -27 X s 254 746 m -27 X s 254 771 m -27 X s 281 797 m -54 X s 254 822 m -27 X s 254 848 m -27 X s 254 873 m -27 X s 254 899 m -27 X s 281 925 m -54 X s 254 950 m -27 X s 254 976 m -27 X s 254 1001 m -27 X s 254 1027 m -27 X s 281 1052 m
 -54 X s 254 1078 m -27 X s 254 1103 m -27 X s 254 1129 m -27 X s 254 1154 m -27 X s 281 1180 m -54 X s 254 1205 m -27 X s 254 1231 m -27 X s 254 1256 m -27 X s 254 1282 m -27 X s 281 1307 m -54 X s 254 1333 m -27 X s 254 1358 m -27 X s 254 1384 m
 -27 X s 254 1409 m -27 X s 281 1435 m -54 X s
 gsave  2268 1594 0 0 C 186.922 141.732 t 0 r /Helvetica findfont 51.3523 sf 0 0 m (0) show NC gr 
 gsave  2268 1594 0 0 C 115.029 269.086 t 0 r /Helvetica findfont 51.3523 sf 0 0 m (0.05) show NC gr 
 gsave  2268 1594 0 0 C 152.003 396.44 t 0 r /Helvetica findfont 51.3523 sf 0 0 m (0.1) show NC gr 
 gsave  2268 1594 0 0 C 115.029 523.793 t 0 r /Helvetica findfont 51.3523 sf 0 0 m (0.15) show NC gr 
 gsave  2268 1594 0 0 C 143.786 651.147 t 0 r /Helvetica findfont 51.3523 sf 0 0 m (0.2) show NC gr 
 gsave  2268 1594 0 0 C 115.029 778.5 t 0 r /Helvetica findfont 51.3523 sf 0 0 m (0.25) show NC gr 
 gsave  2268 1594 0 0 C 143.786 907.908 t 0 r /Helvetica findfont 51.3523 sf 0 0 m (0.3) show NC gr 
 gsave  2268 1594 0 0 C 115.029 1035.26 t 0 r /Helvetica findfont 51.3523 sf 0 0 m (0.35) show NC gr 
 gsave  2268 1594 0 0 C 143.786 1162.62 t 0 r /Helvetica findfont 51.3523 sf 0 0 m (0.4) show NC gr 
 gsave  2268 1594 0 0 C 115.029 1289.97 t 0 r /Helvetica findfont 51.3523 sf 0 0 m (0.45) show NC gr 
 gsave  2268 1594 0 0 C 143.786 1417.32 t 0 r /Helvetica findfont 51.3523 sf 0 0 m (0.5) show NC gr  1 1 1 c black 227 1172 m 22 X s 265 1172 m 22 X s 257 1172 m21 287 1226 m 22 X s 326 1226 m 22 X s 317 1226 m21 348 1237 m 22 X s 386 1237 m 22 X s
 378 1237 m21 408 1210 m 22 X s 447 1210 m 22 X s 438 1210 m21 469 1243 m 22 X s 507 1243 m 22 X s 499 1243 m21 529 1233 m 22 X s 568 1233 m 22 X s 559 1233 m21 590 1220 m 22 X s 628 1220 m 22 X s 620 1220 m21 650 1222 m 22 X s 689 1222 m 22 X s 680
 1222 m21 711 1200 m 22 X s 749 1200 m 22 X s 741 1200 m21 771 1240 m 22 X s 809 1240 m 22 X s 801 1240 m21 831 1228 m 23 X s 870 1228 m 22 X s 862 1228 m21 892 1235 m 22 X s 930 1235 m 22 X s 922 1235 m21 952 1220 m 22 X s 991 1220 m 22 X s 983 1220
 m21 1013 1232 m 22 X s 1051 1232 m 22 X s 1043 1232 m21 1073 1217 m 22 X s 1112 1217 m 22 X s 1104 1217 m21 1134 1234 m 22 X s 1172 1234 m 22 X s 1164 1234 m21 1194 1218 m 22 X s 1233 1218 m 22 X s 1225 1218 m21 1255 1207 m 22 X s 1293 1207 m 22 X s
 1285 1207 m21 1315 1219 m 22 X s 1354 1219 m 22 X s 1346 1219 m21 1376 1232 m 22 X s 1414 1232 m 22 X s 1406 1232 m21 1436 1188 m 22 X s 1475 1188 m 22 X s 1466 1188 m21 1497 1222 m 22 X s 1535 1222 m 22 X s 1527 1222 m21 1557 1200 m 22 X s 1596
 1200 m 22 X s 1587 1200 m21 1618 1222 m 22 X s 1656 1222 m 22 X s 1648 1222 m21 1678 1214 m 22 X s 1717 1214 m 22 X s 1708 1214 m21 1739 1253 m 22 X s 1777 1253 m 22 X s 1769 1253 m21 1799 1220 m 22 X s 1838 1220 m 22 X s 1829 1220 m21 1860 1235 m
 22 X s 1898 1235 m 22 X s 1890 1235 m21 1920 1232 m 22 X s 1958 1232 m 22 X s 1950 1232 m21 1980 1237 m 22 X s 2019 1237 m 22 X s 2011 1237 m21 1 1 1 c 681 240 1247 398 bf black
 gsave  2268 1594 0 0 C 1417.32 558.713 t 0 r /Helvetica-Bold findfont 53.4064 sf 0 0 m (Detector Level) show NC gr  0 0 1 c 1332 578 m20 black
 gsave  2268 1594 0 0 C 1417.32 439.576 t 0 r /Helvetica-Bold findfont 53.4064 sf 0 0 m (Particle Level) show NC gr  1332 458 m21
 gsave  2268 1594 0 0 C 1435.81 796.987 t 0 r /Helvetica-Bold findfont 55.4605 sf 0 0 m (Jet <NEF>) show NC gr 
 gsave  2268 1594 0 0 C 1606.3 696.337 t 0 r /Helvetica-Bold findfont 55.4605 sf 0 0 m ( R = 0.2) show NC gr 
 gsave  2268 1594 0 0 C 1583.7 677.85 t 0 r /Helvetica-Bold findfont 36.9736 sf 0 0 m (T) show NC gr 
 gsave  2268 1594 0 0 C 1435.81 696.337 t 0 r /Helvetica-Bold findfont 55.4605 sf 0 0 m (anti\255k) show NC gr 
 gr  gr showpage
end
%%EOF
