%!PS-Adobe-2.0 EPSF-2.0
%%BoundingBox:  0 0 567 398
%%Title: : 
%%Creator: ROOT Version 5.34/09
%%CreationDate: Fri Mar 28 16:23:12 2014
%%EndComments
%%BeginProlog
80 dict begin
/s {stroke} def /l {lineto} def /m {moveto} def /t {translate} def
/r {rotate} def /rl {roll}  def /R {repeat} def
/d {rlineto} def /rm {rmoveto} def /gr {grestore} def /f {eofill} def
/c {setrgbcolor} def /black {0 setgray} def /sd {setdash} def
/cl {closepath} def /sf {scalefont setfont} def /lw {setlinewidth} def
/box {m dup 0 exch d exch 0 d 0 exch neg d cl} def
/NC{systemdict begin initclip end}def/C{NC box clip newpath}def
/bl {box s} def /bf {box f} def /Y { 0 exch d} def /X { 0 d} def 
/K {{pop pop 0 moveto} exch kshow} bind def
/ita {/ang 15 def gsave [1 0 ang dup sin exch cos div 1 0 0] concat} def 
/mp {newpath /y exch def /x exch def} def
/side {[w .77 mul w .23 mul] .385 w mul sd w 0 l currentpoint t -144 r} def
/mr {mp x y w2 0 360 arc} def /m24 {mr s} def /m20 {mr f} def
/mb {mp x y w2 add m w2 neg 0 d 0 w neg d w 0 d 0 w d cl} def
/mt {mp x y w2 add m w2 neg w neg d w 0 d cl} def
/m21 {mb f} def /m25 {mb s} def /m22 {mt f} def /m26{mt s} def
/m23 {mp x y w2 sub m w2 w d w neg 0 d cl f} def
/m27 {mp x y w2 add m w3 neg w2 neg d w3 w2 neg d w3 w2 d cl s} def
/m28 {mp x w2 sub y w2 sub w3 add m w3 0 d  0 w3 neg d w3 0 d 0 w3 d w3 0 d  0 w3 d w3 neg 0 d 0 w3 d w3 neg 0 d 0 w3 neg d w3 neg 0 d cl s } def
/m29 {mp gsave x w2 sub y w2 add w3 sub m currentpoint t 4 {side} repeat cl fill gr} def
/m30 {mp gsave x w2 sub y w2 add w3 sub m currentpoint t 4 {side} repeat cl s gr} def
/m31 {mp x y w2 sub m 0 w d x w2 sub y m w 0 d x w2 sub y w2 add m w w neg d x w2 sub y w2 sub m w w d s} def
/m32 {mp x y w2 sub m w2 w d w neg 0 d cl s} def
/m33 {mp x y w2 add m w3 neg w2 neg d w3 w2 neg d w3 w2 d cl f} def
/m34 {mp x w2 sub y w2 sub w3 add m w3 0 d  0 w3 neg d w3 0 d 0 w3 d w3 0 d  0 w3 d w3 neg 0 d 0 w3 d w3 neg 0 d 0 w3 neg d w3 neg 0 d cl f } def
/m2 {mp x y w2 sub m 0 w d x w2 sub y m w 0 d s} def
/m5 {mp x w2 sub y w2 sub m w w d x w2 sub y w2 add m w w neg d s} def
/reEncode {exch findfont dup length dict begin {1 index /FID eq  {pop pop} {def} ifelse } forall /Encoding exch def currentdict end dup /FontName get exch definefont pop } def [/Times-Bold /Times-Italic /Times-BoldItalic /Helvetica /Helvetica-Oblique
 /Helvetica-Bold /Helvetica-BoldOblique /Courier /Courier-Oblique /Courier-Bold /Courier-BoldOblique /Times-Roman /AvantGarde-Book /AvantGarde-BookOblique /AvantGarde-Demi /AvantGarde-DemiOblique /Bookman-Demi /Bookman-DemiItalic /Bookman-Light
 /Bookman-LightItalic /Helvetica-Narrow /Helvetica-Narrow-Bold /Helvetica-Narrow-BoldOblique /Helvetica-Narrow-Oblique /NewCenturySchlbk-Roman /NewCenturySchlbk-Bold /NewCenturySchlbk-BoldItalic /NewCenturySchlbk-Italic /Palatino-Bold
 /Palatino-BoldItalic /Palatino-Italic /Palatino-Roman ] {ISOLatin1Encoding reEncode } forall
%%EndProlog
%%BeginSetup
%%EndSetup
newpath  gsave  .25 .25 scale  gsave  0 0 t black[  ] 0 sd 3 lw 0.999 0.999 0.999 c 2268 1594 0 0 bf black 0.999 0.999 0.999 c 1814 1276 227 159 bf black 1814 1276 227 159 bl 0 0 1 c 1 1 1 c 0 0 1 c 443 729 m 26 Y s 443 772 m 18 Y s 400 763 m 35 X s
 451 763 m 35 X s /w 16 def /w2 {w 2 div} def /w3 {w 3 div} def 443 763 m20 529 1114 m 8 Y s 529 1139 m 6 Y s 486 1130 m 35 X s 537 1130 m 35 X s 529 1130 m20 572 1231 m 35 X s 624 1231 m 35 X s 616 1231 m20 659 1283 m 35 X s 710 1283 m 35 X s 702
 1283 m20 745 1300 m 35 X s 797 1300 m 34 X s 788 1300 m20 831 1299 m 35 X s 883 1299 m 35 X s 875 1299 m20 961 1259 m s 918 1267 m 35 X s 969 1267 m 35 X s 961 1267 m20 1047 1230 m s 1004 1238 m 35 X s 1056 1238 m 35 X s 1047 1238 m20 1134 1199 m 1
 Y s 1134 1217 m s 1091 1208 m 35 X s 1142 1208 m 35 X s 1134 1208 m20 1220 1172 m 4 Y s 1220 1193 m 3 Y s 1177 1185 m 35 X s 1228 1185 m 35 X s 1220 1185 m20 1307 1144 m 10 Y s 1307 1170 m 7 Y s 1263 1162 m 35 X s 1315 1162 m 35 X s 1307 1162 m20
 1393 1116 m 11 Y s 1393 1144 m 8 Y s 1350 1135 m 35 X s 1401 1135 m 35 X s 1393 1135 m20 1479 1043 m 3 Y s 1479 1063 m 2 Y s 1436 1054 m 35 X s 1488 1054 m 35 X s 1479 1054 m20 1566 1028 m 4 Y s 1566 1048 m 3 Y s 1523 1040 m 35 X s 1574 1040 m 35 X
 s 1566 1040 m20 1652 1011 m 5 Y s 1652 1033 m 4 Y s 1609 1024 m 35 X s 1660 1024 m 35 X s 1652 1024 m20 1739 996 m 24 Y s 1739 1036 m 17 Y s 1695 1028 m 35 X s 1747 1028 m 35 X s 1739 1028 m20 1825 956 m 35 Y s 1825 1007 m 23 Y s 1782 999 m 35 X s
 1833 999 m 35 X s 1825 999 m20 1911 875 m 65 Y s 1911 957 m 35 Y s 1868 948 m 35 X s 1920 948 m 35 X s 1911 948 m20 1998 875 m 17 Y s 1998 909 m 12 Y s 1955 900 m 35 X s 2006 900 m 35 X s 1998 900 m20 black 227 159 m 1814 X s
 gsave  2268 1594 0 0 C 1971.93 41.0818 t 0 r /Helvetica findfont 34.9195 sf 0 0 m (T,jet) show NC gr 
 gsave  2268 1594 0 0 C 1926.74 69.8391 t 0 r /Helvetica findfont 51.3523 sf 0 0 m (/p) show NC gr 
 gsave  2268 1594 0 0 C 1682.3 41.0818 t 0 r /Helvetica findfont 34.9195 sf 0 0 m (T,leading const.) show NC gr 
 gsave  2268 1594 0 0 C 1596.03 69.8391 t 0 r /Helvetica findfont 51.3523 sf 0 0 m ( = p) show NC gr 
 gsave  2268 1594 0 0 C 1485.11 53.4064 t 0 r /Helvetica findfont 34.9195 sf 0 0 m (leading) show NC gr 
 gsave  2268 1594 0 0 C 1460.46 69.8391 t 0 r /Helvetica findfont 51.3523 sf 0 0 m (z) show NC gr  227 198 m -39 Y s 313 179 m -20 Y s 400 179 m -20 Y s 486 179 m -20 Y s 572 198 m -39 Y s 659 179 m -20 Y s 745 179 m -20 Y s 831 179 m -20 Y s 918 198
 m -39 Y s 1004 179 m -20 Y s 1091 179 m -20 Y s 1177 179 m -20 Y s 1263 198 m -39 Y s 1350 179 m -20 Y s 1436 179 m -20 Y s 1523 179 m -20 Y s 1609 198 m -39 Y s 1695 179 m -20 Y s 1782 179 m -20 Y s 1868 179 m -20 Y s 1955 198 m -39 Y s 1955 198 m
 -39 Y s
 gsave  2268 1594 0 0 C 211.571 106.813 t 0 r /Helvetica findfont 51.3523 sf 0 0 m (0) show NC gr 
 gsave  2268 1594 0 0 C 536.118 106.813 t 0 r /Helvetica findfont 51.3523 sf 0 0 m (0.2) show NC gr 
 gsave  2268 1594 0 0 C 881.205 106.813 t 0 r /Helvetica findfont 51.3523 sf 0 0 m (0.4) show NC gr 
 gsave  2268 1594 0 0 C 1228.35 106.813 t 0 r /Helvetica findfont 51.3523 sf 0 0 m (0.6) show NC gr 
 gsave  2268 1594 0 0 C 1573.43 106.813 t 0 r /Helvetica findfont 51.3523 sf 0 0 m (0.8) show NC gr 
 gsave  2268 1594 0 0 C 1943.17 106.813 t 0 r /Helvetica findfont 51.3523 sf 0 0 m (1) show NC gr  227 159 m 1276 Y s
 gsave  2268 1594 0 0 C 88.3259 1365.97 t 90 r /Helvetica findfont 51.3523 sf 0 0 m (/dz) show NC gr 
 gsave  2268 1594 0 0 C 104.759 1326.94 t 90 r /Helvetica findfont 34.9195 sf 0 0 m (jet) show NC gr 
 gsave  2268 1594 0 0 C 88.3259 1248.89 t 90 r /Helvetica findfont 51.3523 sf 0 0 m ( dN) show NC gr 
 gsave  2268 1594 0 0 C 104.759 1209.86 t 90 r /Helvetica findfont 34.9195 sf 0 0 m (jet) show NC gr 
 gsave  2268 1594 0 0 C 88.3259 1131.8 t 90 r /Helvetica findfont 51.3523 sf 0 0 m (1/N) show NC gr  281 159 m -54 X s
 gsave  2268 1594 0 0 C 176.652 158.165 t 0 r /Helvetica findfont 34.9195 sf 0 0 m (\2554) show NC gr 
 gsave  2268 1594 0 0 C 121.191 135.57 t 0 r /Helvetica findfont 51.3523 sf 0 0 m (10) show NC gr  254 236 m -27 X s 254 281 m -27 X s 254 313 m -27 X s 254 338 m -27 X s 254 358 m -27 X s 254 375 m -27 X s 254 390 m -27 X s 254 403 m -27 X s 281 414
 m -54 X s
 gsave  2268 1594 0 0 C 176.652 414.926 t 0 r /Helvetica findfont 34.9195 sf 0 0 m (\2553) show NC gr 
 gsave  2268 1594 0 0 C 121.191 390.277 t 0 r /Helvetica findfont 51.3523 sf 0 0 m (10) show NC gr  254 491 m -27 X s 254 536 m -27 X s 254 568 m -27 X s 254 593 m -27 X s 254 613 m -27 X s 254 630 m -27 X s 254 645 m -27 X s 254 658 m -27 X s 281
 669 m -54 X s
 gsave  2268 1594 0 0 C 176.652 667.58 t 0 r /Helvetica findfont 34.9195 sf 0 0 m (\2552) show NC gr 
 gsave  2268 1594 0 0 C 121.191 644.985 t 0 r /Helvetica findfont 51.3523 sf 0 0 m (10) show NC gr  254 746 m -27 X s 254 791 m -27 X s 254 823 m -27 X s 254 848 m -27 X s 254 868 m -27 X s 254 885 m -27 X s 254 900 m -27 X s 254 913 m -27 X s 281
 925 m -54 X s
 gsave  2268 1594 0 0 C 182.814 924.341 t 0 r /Helvetica findfont 34.9195 sf 0 0 m (\2551) show NC gr 
 gsave  2268 1594 0 0 C 127.354 901.746 t 0 r /Helvetica findfont 51.3523 sf 0 0 m (10) show NC gr  254 1001 m -27 X s 254 1046 m -27 X s 254 1078 m -27 X s 254 1103 m -27 X s 254 1123 m -27 X s 254 1140 m -27 X s 254 1155 m -27 X s 254 1168 m -27 X
 s 281 1180 m -54 X s
 gsave  2268 1594 0 0 C 209.083 1157.36 t 0 r  -28 0 t /Helvetica findfont 51.3523 sf 0 0 m (1) show NC gr  254 1256 m -27 X s 254 1301 m -27 X s 254 1333 m -27 X s 254 1358 m -27 X s 254 1378 m -27 X s 254 1395 m -27 X s 254 1410 m -27 X s 254 1423
 m -27 X s 281 1435 m -54 X s
 gsave  2268 1594 0 0 C 209.083 1412.39 t 0 r  -57 0 t /Helvetica findfont 51.3523 sf 0 0 m (10) show NC gr  1 1 1 c black 443 766 m 17 Y s 443 799 m 12 Y s 400 791 m 35 X s 451 791 m 35 X s 443 791 m21 529 1119 m 4 Y s 529 1140 m 3 Y s 486 1131 m 35
 X s 537 1131 m 35 X s 529 1131 m21 572 1255 m 35 X s 624 1255 m 35 X s 616 1255 m21 659 1304 m 35 X s 710 1304 m 35 X s 702 1304 m21 745 1313 m 35 X s 797 1313 m 34 X s 788 1313 m21 831 1298 m 35 X s 883 1298 m 35 X s 875 1298 m21 918 1263 m 35 X s
 969 1263 m 35 X s 961 1263 m21 1047 1227 m 2 Y s 1047 1245 m 2 Y s 1004 1237 m 35 X s 1056 1237 m 35 X s 1047 1237 m21 1134 1198 m 2 Y s 1134 1216 m 1 Y s 1091 1208 m 35 X s 1142 1208 m 35 X s 1134 1208 m21 1220 1156 m 3 Y s 1220 1176 m 3 Y s 1177
 1168 m 35 X s 1228 1168 m 35 X s 1220 1168 m21 1307 1112 m 7 Y s 1307 1135 m 5 Y s 1263 1127 m 35 X s 1315 1127 m 35 X s 1307 1127 m21 1393 1073 m 9 Y s 1393 1099 m 6 Y s 1350 1090 m 35 X s 1401 1090 m 35 X s 1393 1090 m21 1479 1014 m 14 Y s 1479
 1044 m 10 Y s 1436 1036 m 35 X s 1488 1036 m 35 X s 1479 1036 m21 1566 997 m 17 Y s 1566 1030 m 12 Y s 1523 1022 m 35 X s 1574 1022 m 35 X s 1566 1022 m21 1652 969 m 22 Y s 1652 1008 m 16 Y s 1609 999 m 35 X s 1660 999 m 35 X s 1652 999 m21 1739 903
 m 35 Y s 1739 954 m 23 Y s 1695 946 m 35 X s 1747 946 m 35 X s 1739 946 m21 1825 821 m 14 Y s 1825 851 m 10 Y s 1782 843 m 35 X s 1833 843 m 35 X s 1825 843 m21 1911 802 m 16 Y s 1911 834 m 12 Y s 1868 826 m 35 X s 1920 826 m 35 X s 1911 826 m21
 1998 756 m 22 Y s 1998 795 m 15 Y s 1955 786 m 35 X s 2006 786 m 35 X s 1998 786 m21 1 1 1 c 613 240 748 398 bf black
 gsave  2268 1594 0 0 C 899.692 558.713 t 0 r /Helvetica-Bold findfont 51.3523 sf 0 0 m (Detector level) show NC gr  0 0 1 c 825 578 m20 black
 gsave  2268 1594 0 0 C 899.692 439.576 t 0 r /Helvetica-Bold findfont 51.3523 sf 0 0 m (Particle level) show NC gr  825 458 m21
 gsave  2268 1594 0 0 C 1064.02 792.879 t 0 r /Helvetica-Bold findfont 55.4605 sf 0 0 m ( < 30) show NC gr 
 gsave  2268 1594 0 0 C 988.018 764.122 t 0 r /Helvetica-Bold findfont 36.9736 sf 0 0 m (T,jet) show NC gr 
 gsave  2268 1594 0 0 C 829.853 792.879 t 0 r /Helvetica-Bold findfont 55.4605 sf 0 0 m (20 < p) show NC gr 
 gsave  2268 1594 0 0 C 1000.34 669.634 t 0 r /Helvetica-Bold findfont 55.4605 sf 0 0 m ( R = 0.2) show NC gr 
 gsave  2268 1594 0 0 C 977.747 651.147 t 0 r /Helvetica-Bold findfont 36.9736 sf 0 0 m (T) show NC gr 
 gsave  2268 1594 0 0 C 829.853 669.634 t 0 r /Helvetica-Bold findfont 55.4605 sf 0 0 m (anti\255k) show NC gr 
 gr  gr showpage
end
%%EOF
