\relax 
\providecommand\hyper@newdestlabel[2]{}
\providecommand\HyperFirstAtBeginDocument{\AtBeginDocument}
\HyperFirstAtBeginDocument{\ifx\hyper@anchor\@undefined
\global\let\oldcontentsline\contentsline
\gdef\contentsline#1#2#3#4{\oldcontentsline{#1}{#2}{#3}}
\global\let\oldnewlabel\newlabel
\gdef\newlabel#1#2{\newlabelxx{#1}#2}
\gdef\newlabelxx#1#2#3#4#5#6{\oldnewlabel{#1}{{#2}{#3}}}
\AtEndDocument{\ifx\hyper@anchor\@undefined
\let\contentsline\oldcontentsline
\let\newlabel\oldnewlabel
\fi}
\fi}
\global\let\hyper@last\relax 
\gdef\HyperFirstAtBeginDocument#1{#1}
\providecommand\HyField@AuxAddToFields[1]{}
\providecommand\HyField@AuxAddToCoFields[2]{}
\citation{basenote}
\@writefile{toc}{\contentsline {section}{\numberline {1}Introduction}{2}{section.1}}
\citation{basenote}
\citation{basenote}
\citation{basenote}
\@writefile{toc}{\contentsline {section}{\numberline {2}Event, Track, Cluster and Jet Selections}{3}{section.2}}
\@writefile{toc}{\contentsline {subsection}{\numberline {2.1}Used Period and Runs}{3}{subsection.2.1}}
\@writefile{toc}{\contentsline {subsection}{\numberline {2.2}Event Selection}{3}{subsection.2.2}}
\@writefile{toc}{\contentsline {subsection}{\numberline {2.3}Track Selection}{3}{subsection.2.3}}
\citation{basenote}
\citation{Cacciari:2011ma,Cacciari:2005hq}
\citation{basenote}
\@writefile{toc}{\contentsline {subsection}{\numberline {2.4}Cluster Selection}{4}{subsection.2.4}}
\@writefile{toc}{\contentsline {subsection}{\numberline {2.5}Jet Selection}{4}{subsection.2.5}}
\@writefile{toc}{\contentsline {subsection}{\numberline {2.6}Train Settings and Used Tag}{5}{subsection.2.6}}
\@writefile{lot}{\contentsline {table}{\numberline {1}{\ignorespaces All trains used for the documented analysis\relax }}{5}{table.caption.2}}
\providecommand*\caption@xref[2]{\@setref\relax\@undefined{#1}}
\newlabel{tab:Trains}{{1}{5}{All trains used for the documented analysis\relax }{table.caption.2}{}}
\@writefile{toc}{\contentsline {section}{\numberline {3}Underlying Event}{5}{section.3}}
\@writefile{toc}{\contentsline {subsection}{\numberline {3.1}Special case of underlying event in p+Pb}{6}{subsection.3.1}}
\newlabel{eqn:cmsrho}{{2}{6}{Special case of underlying event in p+Pb}{equation.3.2}{}}
\@writefile{toc}{\contentsline {subsection}{\numberline {3.2}Scale Factor}{6}{subsection.3.2}}
\newlabel{eqn:scale}{{3}{6}{Scale Factor}{equation.3.3}{}}
\citation{Abelev:2012ej}
\citation{CentralityTwiki}
\@writefile{lof}{\contentsline {figure}{\numberline {1}{\ignorespaces \leavevmode {\color  {Peach}NEW FIG NEEDED} - Scale factor $s_{\rm  EMC}$ as measured as function of the V0A multiplicity class estimator.\relax }}{7}{figure.caption.3}}
\newlabel{fig:ScaleFactor}{{1}{7}{\MK {NEW FIG NEEDED} - Scale factor $s_{\rm EMC}$ as measured as function of the V0A multiplicity class estimator.\relax }{figure.caption.3}{}}
\@writefile{toc}{\contentsline {section}{\numberline {4}Background Fluctuations: \ensuremath  {\delta \ensuremath  {p_T}}}{7}{section.4}}
\newlabel{eq:deltaRC}{{4}{7}{Background Fluctuations: \dpT }{equation.4.4}{}}
\@writefile{lot}{\contentsline {table}{\numberline {2}{\ignorespaces $N_{\mathrm  {coll}}$ used for the partially exclusion of jet overlap with the random cones technique to estimate background fluctuations.\relax }}{8}{table.caption.4}}
\newlabel{tab:NCollTAANPart}{{2}{8}{$N_{\mathrm {coll}}$ used for the partially exclusion of jet overlap with the random cones technique to estimate background fluctuations.\relax }{table.caption.4}{}}
\@writefile{lof}{\contentsline {figure}{\numberline {2}{\ignorespaces  Background fluctuations for $R=0.4$ in different centrality bins (V0A centrality estimator) in the good runs (LHC13b) for charged jets.\relax }}{8}{figure.caption.5}}
\newlabel{fig:DeltaPtChargedR040LHC13b}{{2}{8}{Background fluctuations for $R=0.4$ in different centrality bins (V0A centrality estimator) in the good runs (LHC13b) for charged jets.\relax }{figure.caption.5}{}}
\@writefile{lof}{\contentsline {figure}{\numberline {3}{\ignorespaces  Background fluctuations for $R=0.4$ in different centrality bins (V0A centrality estimator) in the good runs (LHC13b) for full jets.\relax }}{9}{figure.caption.6}}
\newlabel{fig:DeltaPtFullR040LHC13b}{{3}{9}{Background fluctuations for $R=0.4$ in different centrality bins (V0A centrality estimator) in the good runs (LHC13b) for full jets.\relax }{figure.caption.6}{}}
\@writefile{lof}{\contentsline {figure}{\numberline {4}{\ignorespaces  Background fluctuations for $R=0.4$ in different centrality bins (V0A centrality estimator) in the semi-good runs (LHC13c) for charged jets.\relax }}{9}{figure.caption.7}}
\newlabel{fig:DeltaPtChargedR040LHC13c}{{4}{9}{Background fluctuations for $R=0.4$ in different centrality bins (V0A centrality estimator) in the semi-good runs (LHC13c) for charged jets.\relax }{figure.caption.7}{}}
\citation{ppnote}
\@writefile{lof}{\contentsline {figure}{\numberline {5}{\ignorespaces  Background fluctuations for $R=0.4$ in different centrality bins (V0A centrality estimator) in the semi-good runs (LHC13c) for full jets.\relax }}{10}{figure.caption.8}}
\newlabel{fig:DeltaPtFullR040LHC13c}{{5}{10}{Background fluctuations for $R=0.4$ in different centrality bins (V0A centrality estimator) in the semi-good runs (LHC13c) for full jets.\relax }{figure.caption.8}{}}
\@writefile{toc}{\contentsline {section}{\numberline {5}Unfolding}{10}{section.5}}
\@writefile{lof}{\contentsline {figure}{\numberline {6}{\ignorespaces R=0.4 spectrum unfolded for detector effects via the SVD unfolding algorithm compared to the bin by bin corrected spectrum. TODO: This plot needs updating to the latest version with the Bayesian method also included.\relax }}{11}{figure.caption.9}}
\newlabel{fig:R4allmethods}{{6}{11}{R=0.4 spectrum unfolded for detector effects via the SVD unfolding algorithm compared to the bin by bin corrected spectrum. TODO: This plot needs updating to the latest version with the Bayesian method also included.\relax }{figure.caption.9}{}}
\@writefile{lof}{\contentsline {figure}{\numberline {7}{\ignorespaces R=0.4 spectrum unfolded using the svd method and then refolded compared to the measured. The pink band represents the size of the statistical uncertainty.\relax }}{12}{figure.caption.10}}
\newlabel{fig:refoldtest}{{7}{12}{R=0.4 spectrum unfolded using the svd method and then refolded compared to the measured. The pink band represents the size of the statistical uncertainty.\relax }{figure.caption.10}{}}
\@writefile{toc}{\contentsline {section}{\numberline {6}Normalization}{12}{section.6}}
\newlabel{eqn:acc}{{6}{12}{Normalization}{equation.6.6}{}}
\@writefile{toc}{\contentsline {section}{\numberline {7}Results}{12}{section.7}}
\@writefile{toc}{\contentsline {subsection}{\numberline {7.1}Unfolded Spectra}{12}{subsection.7.1}}
\@writefile{lof}{\contentsline {figure}{\numberline {8}{\ignorespaces R=0.4 spectrum unfolded for detector effects via the SVD unfolding algorithm\relax }}{13}{figure.caption.11}}
\newlabel{fig:ufR4svd}{{8}{13}{R=0.4 spectrum unfolded for detector effects via the SVD unfolding algorithm\relax }{figure.caption.11}{}}
\@writefile{toc}{\contentsline {subsection}{\numberline {7.2}Jet Shape Ratio}{13}{subsection.7.2}}
\@writefile{toc}{\contentsline {subsection}{\numberline {7.3}$R_{pPb}^{PYTHIA}$}{13}{subsection.7.3}}
\@writefile{lof}{\contentsline {figure}{\numberline {9}{\ignorespaces R=0.2 spectrum unfolded for detector effects via the SVD unfolding algorithm\relax }}{14}{figure.caption.12}}
\newlabel{fig:ufR2svd}{{9}{14}{R=0.2 spectrum unfolded for detector effects via the SVD unfolding algorithm\relax }{figure.caption.12}{}}
\@writefile{lof}{\contentsline {figure}{\numberline {10}{\ignorespaces Ratio of the R=0.2 unfolded spectrum to the R=0.4 unfolded spectrum.\relax }}{14}{figure.caption.13}}
\newlabel{fig:radratio}{{10}{14}{Ratio of the R=0.2 unfolded spectrum to the R=0.4 unfolded spectrum.\relax }{figure.caption.13}{}}
\@writefile{lof}{\contentsline {figure}{\numberline {11}{\ignorespaces R=0.4 $R_{pPb}$ with PYTHIA6 Perguia 2011 as a reference\relax }}{15}{figure.caption.14}}
\newlabel{fig:RpPbR04}{{11}{15}{R=0.4 $R_{pPb}$ with PYTHIA6 Perguia 2011 as a reference\relax }{figure.caption.14}{}}
\@writefile{lof}{\contentsline {figure}{\numberline {12}{\ignorespaces R=0.2 $R_{pPb}$ with PYTHIA6 Perguia 2011 as a reference\relax }}{16}{figure.caption.15}}
\newlabel{fig:RpPbR02}{{12}{16}{R=0.2 $R_{pPb}$ with PYTHIA6 Perguia 2011 as a reference\relax }{figure.caption.15}{}}
\@writefile{toc}{\contentsline {subsubsection}{\numberline {7.3.1}pp Reference spectrum}{17}{subsubsection.7.3.1}}
\@writefile{lof}{\contentsline {figure}{\numberline {13}{\ignorespaces RpPb with various references for R=0.4.\relax }}{17}{figure.caption.16}}
\newlabel{fig:refratio4}{{13}{17}{RpPb with various references for R=0.4.\relax }{figure.caption.16}{}}
\@writefile{toc}{\contentsline {subsubsection}{\numberline {7.3.2}Scaled ATLAS as a Reference}{17}{subsubsection.7.3.2}}
\@writefile{toc}{\contentsline {subsection}{\numberline {7.4}Derived Plot}{17}{subsection.7.4}}
\citation{basenote}
\citation{basenote}
\@writefile{lof}{\contentsline {figure}{\numberline {14}{\ignorespaces RpPb with the various reference spectra for R=0.2.\relax }}{18}{figure.caption.17}}
\newlabel{fig:refratio2}{{14}{18}{RpPb with the various reference spectra for R=0.2.\relax }{figure.caption.17}{}}
\@writefile{toc}{\contentsline {section}{\numberline {8}Systematic Uncertainties}{18}{section.8}}
\@writefile{toc}{\contentsline {subsection}{\numberline {8.1}Tracking Efficiency Uncertainty}{18}{subsection.8.1}}
\@writefile{toc}{\contentsline {subsection}{\numberline {8.2}Hadronic Correction Uncertainty}{18}{subsection.8.2}}
\@writefile{lof}{\contentsline {figure}{\numberline {15}{\ignorespaces $R_{pPb}$ calculated using the scaled Atlas 7 TeV jet spectrum for R=0.4. \relax }}{19}{figure.caption.18}}
\newlabel{fig:Atlasref}{{15}{19}{$R_{pPb}$ calculated using the scaled Atlas 7 TeV jet spectrum for R=0.4. \relax }{figure.caption.18}{}}
\@writefile{lof}{\contentsline {figure}{\numberline {16}{\ignorespaces The gallery of full jet spectra measaured at ALICE.\relax }}{20}{figure.caption.19}}
\newlabel{fig:derivedplot}{{16}{20}{The gallery of full jet spectra measaured at ALICE.\relax }{figure.caption.19}{}}
\@writefile{lof}{\contentsline {figure}{\numberline {17}{\ignorespaces Effect of varying the tracking efficiency for R=0.2. Since only one variation was done, we apply this difference as a symmetric error.\relax }}{20}{figure.caption.20}}
\newlabel{fig:sysTrackEff}{{17}{20}{Effect of varying the tracking efficiency for R=0.2. Since only one variation was done, we apply this difference as a symmetric error.\relax }{figure.caption.20}{}}
\@writefile{lof}{\contentsline {figure}{\numberline {18}{\ignorespaces Effect of varying the tracking efficiency for R=0.4. Since only one variation was done, we apply this difference as a symmetric error.\relax }}{21}{figure.caption.21}}
\newlabel{fig:sysTrackEffR4}{{18}{21}{Effect of varying the tracking efficiency for R=0.4. Since only one variation was done, we apply this difference as a symmetric error.\relax }{figure.caption.21}{}}
\@writefile{lof}{\contentsline {figure}{\numberline {19}{\ignorespaces Effect of varying the tracking efficiency for R=0.4. Since only one variation was done, we apply this difference as a symmetric error.\relax }}{21}{figure.caption.22}}
\newlabel{fig:sysTrackEffjsr}{{19}{21}{Effect of varying the tracking efficiency for R=0.4. Since only one variation was done, we apply this difference as a symmetric error.\relax }{figure.caption.22}{}}
\@writefile{lof}{\contentsline {figure}{\numberline {20}{\ignorespaces Effect of varying the hadronic correction for R=0.2. Since only one variation was done, we apply this difference as a symmetric error.\relax }}{21}{figure.caption.23}}
\newlabel{fig:sysHadCorr}{{20}{21}{Effect of varying the hadronic correction for R=0.2. Since only one variation was done, we apply this difference as a symmetric error.\relax }{figure.caption.23}{}}
\@writefile{lof}{\contentsline {figure}{\numberline {21}{\ignorespaces Effect of varying the hadronic correction for the JSR. Since only one variation was done, we apply this difference as a symmetric error.\relax }}{22}{figure.caption.24}}
\newlabel{fig:sysHadCorrR4}{{21}{22}{Effect of varying the hadronic correction for the JSR. Since only one variation was done, we apply this difference as a symmetric error.\relax }{figure.caption.24}{}}
\@writefile{lof}{\contentsline {figure}{\numberline {22}{\ignorespaces Effect of varying the hadronic correction for the JSR. Since only one variation was done, we apply this difference as a symmetric error.\relax }}{22}{figure.caption.25}}
\newlabel{fig:sysHadCorrjsr}{{22}{22}{Effect of varying the hadronic correction for the JSR. Since only one variation was done, we apply this difference as a symmetric error.\relax }{figure.caption.25}{}}
\@writefile{toc}{\contentsline {subsection}{\numberline {8.3}Uncertainty in the Background Estimation}{23}{subsection.8.3}}
\@writefile{lof}{\contentsline {figure}{\numberline {23}{\ignorespaces Effect of using a different method to estimate the underlying event the R=0.2.\relax }}{23}{figure.caption.26}}
\newlabel{fig:sysUE}{{23}{23}{Effect of using a different method to estimate the underlying event the R=0.2.\relax }{figure.caption.26}{}}
\@writefile{lof}{\contentsline {figure}{\numberline {24}{\ignorespaces Effect of varying the scale factor in the unfolding algorthim for R=0.2. Since only one variation was done, we apply this difference as a symmetric error.\relax }}{23}{figure.caption.27}}
\newlabel{fig:sysSF}{{24}{23}{Effect of varying the scale factor in the unfolding algorthim for R=0.2. Since only one variation was done, we apply this difference as a symmetric error.\relax }{figure.caption.27}{}}
\@writefile{toc}{\contentsline {subsection}{\numberline {8.4}Unfolding Uncertainties}{23}{subsection.8.4}}
\@writefile{lof}{\contentsline {figure}{\numberline {25}{\ignorespaces Effect of using a different method to estimate the underlying event the R=0.4.\relax }}{24}{figure.caption.28}}
\newlabel{fig:sysUER4}{{25}{24}{Effect of using a different method to estimate the underlying event the R=0.4.\relax }{figure.caption.28}{}}
\@writefile{lof}{\contentsline {figure}{\numberline {26}{\ignorespaces Effect of varying the scale factor in the unfolding algorthim for R=0.4. Since only one variation was done, we apply this difference as a symmetric error.\relax }}{24}{figure.caption.29}}
\newlabel{fig:sysSFR4}{{26}{24}{Effect of varying the scale factor in the unfolding algorthim for R=0.4. Since only one variation was done, we apply this difference as a symmetric error.\relax }{figure.caption.29}{}}
\@writefile{lof}{\contentsline {figure}{\numberline {27}{\ignorespaces Effect of using a different method to estimate the underlying event the JSR.\relax }}{24}{figure.caption.30}}
\newlabel{fig:sysUER4}{{27}{24}{Effect of using a different method to estimate the underlying event the JSR.\relax }{figure.caption.30}{}}
\@writefile{lof}{\contentsline {figure}{\numberline {28}{\ignorespaces Effect of varying the scale factor in the unfolding algorthim the JSR. Since only one variation was done, we apply this difference as a symmetric error.\relax }}{25}{figure.caption.31}}
\newlabel{fig:sysSFR4}{{28}{25}{Effect of varying the scale factor in the unfolding algorthim the JSR. Since only one variation was done, we apply this difference as a symmetric error.\relax }{figure.caption.31}{}}
\@writefile{lof}{\contentsline {figure}{\numberline {29}{\ignorespaces Effect of varying the mininum $p_{T}$ in the unfolding algorthim for R=0.2.\relax }}{25}{figure.caption.32}}
\newlabel{fig:sysminPt}{{29}{25}{Effect of varying the mininum $p_{T}$ in the unfolding algorthim for R=0.2.\relax }{figure.caption.32}{}}
\@writefile{lof}{\contentsline {figure}{\numberline {30}{\ignorespaces Effect of varying the regularization strength for the SVD unfolding algorthim for R=0.2. The points on the plot show the ratio of the Bayesian method to the SVD method. The shaded bands show the uncertainty used based on the maximum deviation.\relax }}{25}{figure.caption.33}}
\newlabel{fig:sysReg}{{30}{25}{Effect of varying the regularization strength for the SVD unfolding algorthim for R=0.2. The points on the plot show the ratio of the Bayesian method to the SVD method. The shaded bands show the uncertainty used based on the maximum deviation.\relax }{figure.caption.33}{}}
\@writefile{lof}{\contentsline {figure}{\numberline {31}{\ignorespaces Effect of varying the prior used in unfolding the R=0.2 spectrum. The default unfolding uses a fit to the measured spectrum. As an alternate choice the truth spectrum was used. Since only one variation was done, we apply the difference as a symmetric error.\relax }}{26}{figure.caption.34}}
\newlabel{fig:sysPrior}{{31}{26}{Effect of varying the prior used in unfolding the R=0.2 spectrum. The default unfolding uses a fit to the measured spectrum. As an alternate choice the truth spectrum was used. Since only one variation was done, we apply the difference as a symmetric error.\relax }{figure.caption.34}{}}
\@writefile{lof}{\contentsline {figure}{\numberline {32}{\ignorespaces Effect of varying the mininum $p_{T}$ in the unfolding algorthim for R=0.4.\relax }}{26}{figure.caption.35}}
\newlabel{fig:sysminPtR4}{{32}{26}{Effect of varying the mininum $p_{T}$ in the unfolding algorthim for R=0.4.\relax }{figure.caption.35}{}}
\@writefile{lof}{\contentsline {figure}{\numberline {33}{\ignorespaces Effect of varying the regularization strength for the SVD unfolding algorthim for R=0.4. The points on the plot show the ratio of the Bayesian method to the SVD method. The shaded bands show the uncertainty used based on the maximum deviation.\relax }}{27}{figure.caption.36}}
\newlabel{fig:sysRegR4}{{33}{27}{Effect of varying the regularization strength for the SVD unfolding algorthim for R=0.4. The points on the plot show the ratio of the Bayesian method to the SVD method. The shaded bands show the uncertainty used based on the maximum deviation.\relax }{figure.caption.36}{}}
\@writefile{lof}{\contentsline {figure}{\numberline {34}{\ignorespaces Effect of varying the prior used in unfolding the R=0.4 spectrum. The default unfolding uses a fit to the measured spectrum. As an alternate choice the truth spectrum was used. Since only one variation was done, we apply the difference as a symmetric error.\relax }}{27}{figure.caption.37}}
\newlabel{fig:syspriorR4}{{34}{27}{Effect of varying the prior used in unfolding the R=0.4 spectrum. The default unfolding uses a fit to the measured spectrum. As an alternate choice the truth spectrum was used. Since only one variation was done, we apply the difference as a symmetric error.\relax }{figure.caption.37}{}}
\@writefile{lof}{\contentsline {figure}{\numberline {35}{\ignorespaces Effect of varying the mininum $p_{T}$ in the unfolding algorthim for the JSR.\relax }}{28}{figure.caption.38}}
\newlabel{fig:sysminPtjsr}{{35}{28}{Effect of varying the mininum $p_{T}$ in the unfolding algorthim for the JSR.\relax }{figure.caption.38}{}}
\@writefile{lof}{\contentsline {figure}{\numberline {36}{\ignorespaces Effect of varying the regularization strength for the SVD unfolding algorthim for the JSR. The points on the plot show the ratio of the Bayesian method to the SVD method. The shaded bands show the uncertainty used based on the maximum deviation.\relax }}{28}{figure.caption.39}}
\newlabel{fig:sysRegjsr}{{36}{28}{Effect of varying the regularization strength for the SVD unfolding algorthim for the JSR. The points on the plot show the ratio of the Bayesian method to the SVD method. The shaded bands show the uncertainty used based on the maximum deviation.\relax }{figure.caption.39}{}}
\@writefile{lof}{\contentsline {figure}{\numberline {37}{\ignorespaces Effect of varying the prior used in unfolding the JSR spectrum. The default unfolding uses a fit to the measured spectrum. As an alternate choice the truth spectrum was used. Since only one variation was done, we apply the difference as a symmetric error.\relax }}{28}{figure.caption.40}}
\newlabel{fig:syspriorjsr}{{37}{28}{Effect of varying the prior used in unfolding the JSR spectrum. The default unfolding uses a fit to the measured spectrum. As an alternate choice the truth spectrum was used. Since only one variation was done, we apply the difference as a symmetric error.\relax }{figure.caption.40}{}}
\citation{ppnote}
\@writefile{lof}{\contentsline {figure}{\numberline {38}{\ignorespaces Effect of varying the RM period on the R=0.4 Spectrum.\relax }}{29}{figure.caption.41}}
\newlabel{fig:sysRMR4}{{38}{29}{Effect of varying the RM period on the R=0.4 Spectrum.\relax }{figure.caption.41}{}}
\@writefile{lof}{\contentsline {figure}{\numberline {39}{\ignorespaces Effect of varying the RM period on the JSR.\relax }}{29}{figure.caption.42}}
\newlabel{fig:sysRMjsr}{{39}{29}{Effect of varying the RM period on the JSR.\relax }{figure.caption.42}{}}
\@writefile{toc}{\contentsline {subsection}{\numberline {8.5}Emcal Related Uncertainties}{29}{subsection.8.5}}
\@writefile{toc}{\contentsline {subsection}{\numberline {8.6}Summary of Systematic Uncertainties}{29}{subsection.8.6}}
\@writefile{lot}{\contentsline {table}{\numberline {3}{\ignorespaces Summary of systematic uncertainties due to the EMCal based on the studies in pp collisions at 2.76 TeV for the R=0.2 and R=0.4 jet spectra as well as the jet structure ratio.\relax }}{30}{table.caption.43}}
\newlabel{tab:sysunc}{{3}{30}{Summary of systematic uncertainties due to the EMCal based on the studies in pp collisions at 2.76 TeV for the R=0.2 and R=0.4 jet spectra as well as the jet structure ratio.\relax }{table.caption.43}{}}
\@writefile{lof}{\contentsline {figure}{\numberline {40}{\ignorespaces Total systematic uncertainty on the R=0.2 Jet Spectrum.\relax }}{30}{figure.caption.44}}
\newlabel{fig:totsyserrR2}{{40}{30}{Total systematic uncertainty on the R=0.2 Jet Spectrum.\relax }{figure.caption.44}{}}
\@writefile{lof}{\contentsline {figure}{\numberline {41}{\ignorespaces Total systematic uncertainty on the R=0.4 Jet Spectrum.\relax }}{31}{figure.caption.45}}
\newlabel{fig:totsyserrR4}{{41}{31}{Total systematic uncertainty on the R=0.4 Jet Spectrum.\relax }{figure.caption.45}{}}
\@writefile{lot}{\contentsline {table}{\numberline {4}{\ignorespaces Summary of systematic uncertainties on the R=0.2 and R=0.4 jet spectra as well as the jet structure ratio (JSR).\relax }}{31}{table.caption.46}}
\newlabel{tab:sysunc}{{4}{31}{Summary of systematic uncertainties on the R=0.2 and R=0.4 jet spectra as well as the jet structure ratio (JSR).\relax }{table.caption.46}{}}
\@writefile{toc}{\contentsline {section}{\numberline {9}Requested Plots QM14}{32}{section.9}}
\@writefile{toc}{\contentsline {subsection}{\numberline {9.1}Technical Preliminary}{32}{subsection.9.1}}
\@writefile{lof}{\contentsline {figure}{\numberline {42}{\ignorespaces Raw jet spectrum for R=0.2\relax }}{33}{figure.caption.47}}
\newlabel{fig:techprel1}{{42}{33}{Raw jet spectrum for R=0.2\relax }{figure.caption.47}{}}
\@writefile{lof}{\contentsline {figure}{\numberline {43}{\ignorespaces $\delta p_{T}$ for R=0.2\relax }}{34}{figure.caption.48}}
\newlabel{fig:techprel1}{{43}{34}{$\delta p_{T}$ for R=0.2\relax }{figure.caption.48}{}}
\@writefile{lof}{\contentsline {figure}{\numberline {44}{\ignorespaces Background density, $\rho $, for R=0.2\relax }}{35}{figure.caption.49}}
\newlabel{fig:techprel1}{{44}{35}{Background density, $\rho $, for R=0.2\relax }{figure.caption.49}{}}
\@writefile{lof}{\contentsline {figure}{\numberline {45}{\ignorespaces Background density, $\rho $, for R=0.2\relax }}{36}{figure.caption.50}}
\newlabel{fig:techprel1}{{45}{36}{Background density, $\rho $, for R=0.2\relax }{figure.caption.50}{}}
\@writefile{lof}{\contentsline {figure}{\numberline {46}{\ignorespaces raw jet spectrum for R=0.4\relax }}{37}{figure.caption.51}}
\newlabel{fig:techprel1}{{46}{37}{raw jet spectrum for R=0.4\relax }{figure.caption.51}{}}
\@writefile{lof}{\contentsline {figure}{\numberline {47}{\ignorespaces $\delta p_{T}$ for R=0.4\relax }}{38}{figure.caption.52}}
\newlabel{fig:techprel1}{{47}{38}{$\delta p_{T}$ for R=0.4\relax }{figure.caption.52}{}}
\@writefile{lof}{\contentsline {figure}{\numberline {48}{\ignorespaces Momentum shift for R=0.4\relax }}{39}{figure.caption.53}}
\newlabel{fig:techprel1}{{48}{39}{Momentum shift for R=0.4\relax }{figure.caption.53}{}}
\@writefile{lof}{\contentsline {figure}{\numberline {49}{\ignorespaces Momentum shift for R=0.4\relax }}{39}{figure.caption.54}}
\newlabel{fig:techprel1}{{49}{39}{Momentum shift for R=0.4\relax }{figure.caption.54}{}}
\@writefile{lof}{\contentsline {figure}{\numberline {50}{\ignorespaces Backgroung density $\rho $ for R=0.4\relax }}{40}{figure.caption.55}}
\newlabel{fig:techprel1}{{50}{40}{Backgroung density $\rho $ for R=0.4\relax }{figure.caption.55}{}}
\@writefile{lof}{\contentsline {figure}{\numberline {51}{\ignorespaces Backgroung density $\rho $ for R=0.4\relax }}{41}{figure.caption.56}}
\newlabel{fig:techprel1}{{51}{41}{Backgroung density $\rho $ for R=0.4\relax }{figure.caption.56}{}}
\@writefile{lof}{\contentsline {figure}{\numberline {52}{\ignorespaces Jet energy resolution for R=0.4\relax }}{41}{figure.caption.57}}
\newlabel{fig:techprel1}{{52}{41}{Jet energy resolution for R=0.4\relax }{figure.caption.57}{}}
\@writefile{toc}{\contentsline {subsection}{\numberline {9.2}Physics Preliminary}{42}{subsection.9.2}}
\@writefile{lof}{\contentsline {figure}{\numberline {53}{\ignorespaces Fully corrected p-Pb spectrum for R=0.2.\relax }}{42}{figure.caption.58}}
\newlabel{fig:physprel1}{{53}{42}{Fully corrected p-Pb spectrum for R=0.2.\relax }{figure.caption.58}{}}
\@writefile{lof}{\contentsline {figure}{\numberline {54}{\ignorespaces Fully corrected pPb spectrum for R=0.4.\relax }}{43}{figure.caption.59}}
\newlabel{fig:physprel2}{{54}{43}{Fully corrected pPb spectrum for R=0.4.\relax }{figure.caption.59}{}}
\@writefile{lof}{\contentsline {figure}{\numberline {55}{\ignorespaces Fully corrected p-Pb spectrum for R=0.2 scaled by $N_{coll}$ compared to Pythia and Powheg MC simulations at 5 TeV.\relax }}{44}{figure.caption.60}}
\newlabel{fig:physprel3}{{55}{44}{Fully corrected p-Pb spectrum for R=0.2 scaled by $N_{coll}$ compared to Pythia and Powheg MC simulations at 5 TeV.\relax }{figure.caption.60}{}}
\@writefile{lof}{\contentsline {figure}{\numberline {56}{\ignorespaces Fully corrected pPb spectrum for R=0.4 scaled by $N_{coll}$ compared to Pythia and Powheg MC simulations at 5 TeV.\relax }}{45}{figure.caption.61}}
\newlabel{fig:physprel4}{{56}{45}{Fully corrected pPb spectrum for R=0.4 scaled by $N_{coll}$ compared to Pythia and Powheg MC simulations at 5 TeV.\relax }{figure.caption.61}{}}
\@writefile{lof}{\contentsline {figure}{\numberline {57}{\ignorespaces Ratio of the spectra for R=0.2 over R=0.4 for at 5 TeV p-Pb collisions in red compared to the same ratio for 2.76 pp data.\relax }}{46}{figure.caption.62}}
\newlabel{fig:physprel5}{{57}{46}{Ratio of the spectra for R=0.2 over R=0.4 for at 5 TeV p-Pb collisions in red compared to the same ratio for 2.76 pp data.\relax }{figure.caption.62}{}}
\bibstyle{plain}
\bibdata{biblio}
\bibcite{Cacciari:2005hq}{1}
\bibcite{Cacciari:2011ma}{2}
\bibcite{basenote}{3}
\bibcite{ppnote}{4}
