%!PS-Adobe-2.0 EPSF-2.0
%%BoundingBox:  0 0 567 398
%%Title: /Users/cgy606/Documents/Train/LEGOTrain/020814/good/JetZMean_R2_good_100_200.eps: 
%%Creator: ROOT Version 5.34/09
%%CreationDate: Fri Mar 28 16:22:35 2014
%%EndComments
%%BeginProlog
80 dict begin
/s {stroke} def /l {lineto} def /m {moveto} def /t {translate} def
/r {rotate} def /rl {roll}  def /R {repeat} def
/d {rlineto} def /rm {rmoveto} def /gr {grestore} def /f {eofill} def
/c {setrgbcolor} def /black {0 setgray} def /sd {setdash} def
/cl {closepath} def /sf {scalefont setfont} def /lw {setlinewidth} def
/box {m dup 0 exch d exch 0 d 0 exch neg d cl} def
/NC{systemdict begin initclip end}def/C{NC box clip newpath}def
/bl {box s} def /bf {box f} def /Y { 0 exch d} def /X { 0 d} def 
/K {{pop pop 0 moveto} exch kshow} bind def
/ita {/ang 15 def gsave [1 0 ang dup sin exch cos div 1 0 0] concat} def 
/mp {newpath /y exch def /x exch def} def
/side {[w .77 mul w .23 mul] .385 w mul sd w 0 l currentpoint t -144 r} def
/mr {mp x y w2 0 360 arc} def /m24 {mr s} def /m20 {mr f} def
/mb {mp x y w2 add m w2 neg 0 d 0 w neg d w 0 d 0 w d cl} def
/mt {mp x y w2 add m w2 neg w neg d w 0 d cl} def
/m21 {mb f} def /m25 {mb s} def /m22 {mt f} def /m26{mt s} def
/m23 {mp x y w2 sub m w2 w d w neg 0 d cl f} def
/m27 {mp x y w2 add m w3 neg w2 neg d w3 w2 neg d w3 w2 d cl s} def
/m28 {mp x w2 sub y w2 sub w3 add m w3 0 d  0 w3 neg d w3 0 d 0 w3 d w3 0 d  0 w3 d w3 neg 0 d 0 w3 d w3 neg 0 d 0 w3 neg d w3 neg 0 d cl s } def
/m29 {mp gsave x w2 sub y w2 add w3 sub m currentpoint t 4 {side} repeat cl fill gr} def
/m30 {mp gsave x w2 sub y w2 add w3 sub m currentpoint t 4 {side} repeat cl s gr} def
/m31 {mp x y w2 sub m 0 w d x w2 sub y m w 0 d x w2 sub y w2 add m w w neg d x w2 sub y w2 sub m w w d s} def
/m32 {mp x y w2 sub m w2 w d w neg 0 d cl s} def
/m33 {mp x y w2 add m w3 neg w2 neg d w3 w2 neg d w3 w2 d cl f} def
/m34 {mp x w2 sub y w2 sub w3 add m w3 0 d  0 w3 neg d w3 0 d 0 w3 d w3 0 d  0 w3 d w3 neg 0 d 0 w3 d w3 neg 0 d 0 w3 neg d w3 neg 0 d cl f } def
/m2 {mp x y w2 sub m 0 w d x w2 sub y m w 0 d s} def
/m5 {mp x w2 sub y w2 sub m w w d x w2 sub y w2 add m w w neg d s} def
/reEncode {exch findfont dup length dict begin {1 index /FID eq  {pop pop} {def} ifelse } forall /Encoding exch def currentdict end dup /FontName get exch definefont pop } def [/Times-Bold /Times-Italic /Times-BoldItalic /Helvetica /Helvetica-Oblique
 /Helvetica-Bold /Helvetica-BoldOblique /Courier /Courier-Oblique /Courier-Bold /Courier-BoldOblique /Times-Roman /AvantGarde-Book /AvantGarde-BookOblique /AvantGarde-Demi /AvantGarde-DemiOblique /Bookman-Demi /Bookman-DemiItalic /Bookman-Light
 /Bookman-LightItalic /Helvetica-Narrow /Helvetica-Narrow-Bold /Helvetica-Narrow-BoldOblique /Helvetica-Narrow-Oblique /NewCenturySchlbk-Roman /NewCenturySchlbk-Bold /NewCenturySchlbk-BoldItalic /NewCenturySchlbk-Italic /Palatino-Bold
 /Palatino-BoldItalic /Palatino-Italic /Palatino-Roman ] {ISOLatin1Encoding reEncode } forall
%%EndProlog
%%BeginSetup
%%EndSetup
newpath  gsave  .25 .25 scale  gsave  0 0 t black[  ] 0 sd 3 lw 0.999 0.999 0.999 c 2268 1594 0 0 bf black 0.999 0.999 0.999 c 1814 1276 227 159 bf black 1814 1276 227 159 bl 0 0 1 c 1 1 1 c 0 0 1 c 227 1235 m 22 X s 265 1235 m 22 X s /w 16 def /w2
 {w 2 div} def /w3 {w 3 div} def 257 1235 m20 287 967 m 22 X s 326 967 m 22 X s 317 967 m20 348 829 m 22 X s 386 829 m 22 X s 378 829 m20 408 761 m 22 X s 447 761 m 22 X s 438 761 m20 469 702 m 22 X s 507 702 m 22 X s 499 702 m20 529 672 m 22 X s 568
 672 m 22 X s 559 672 m20 590 658 m 22 X s 628 658 m 22 X s 620 658 m20 650 635 m 22 X s 689 635 m 22 X s 680 635 m20 711 632 m 22 X s 749 632 m 22 X s 741 632 m20 771 629 m 22 X s 809 629 m 22 X s 801 629 m20 831 617 m 23 X s 870 617 m 22 X s 862
 617 m20 892 634 m 22 X s 930 634 m 22 X s 922 634 m20 952 612 m 22 X s 991 612 m 22 X s 983 612 m20 1013 616 m 22 X s 1051 616 m 22 X s 1043 616 m20 1073 616 m 22 X s 1112 616 m 22 X s 1104 616 m20 1134 613 m 22 X s 1172 613 m 22 X s 1164 613 m20
 1194 606 m 22 X s 1233 606 m 22 X s 1225 606 m20 1255 606 m 22 X s 1293 606 m 22 X s 1285 606 m20 1315 614 m 22 X s 1354 614 m 22 X s 1346 614 m20 1376 620 m 22 X s 1414 620 m 22 X s 1406 620 m20 1436 605 m 22 X s 1475 605 m 22 X s 1466 605 m20 1497
 614 m 22 X s 1535 614 m 22 X s 1527 614 m20 1557 612 m 22 X s 1596 612 m 22 X s 1587 612 m20 1618 602 m 22 X s 1656 602 m 22 X s 1648 602 m20 1678 617 m 22 X s 1717 617 m 22 X s 1708 617 m20 1739 614 m 22 X s 1777 614 m 22 X s 1769 614 m20 1799 609
 m 22 X s 1838 609 m 22 X s 1829 609 m20 1860 608 m 22 X s 1898 608 m 22 X s 1890 608 m20 1920 612 m 22 X s 1958 612 m 22 X s 1950 612 m20 1980 610 m 22 X s 2019 610 m 22 X s 2011 610 m20 black 227 159 m 1814 X s
 gsave  2268 1594 0 0 C 1891.82 47.2441 t 0 r /Helvetica findfont 51.3523 sf 0 0 m ( \(GeV\)) show NC gr 
 gsave  2268 1594 0 0 C 1787.06 67.785 t 0 r /Helvetica findfont 34.9195 sf 0 0 m (ch+em) show NC gr 
 gsave  2268 1594 0 0 C 1787.06 18.4868 t 0 r /Helvetica findfont 34.9195 sf 0 0 m (T,jet) show NC gr 
 gsave  2268 1594 0 0 C 1758.3 47.2441 t 0 r /Helvetica findfont 51.3523 sf 0 0 m (p) show NC gr  227 198 m -39 Y s 287 179 m -20 Y s 348 179 m -20 Y s 408 179 m -20 Y s 469 198 m -39 Y s 529 179 m -20 Y s 590 179 m -20 Y s 650 179 m -20 Y s 711 198
 m -39 Y s 771 179 m -20 Y s 831 179 m -20 Y s 892 179 m -20 Y s 952 198 m -39 Y s 1013 179 m -20 Y s 1073 179 m -20 Y s 1134 179 m -20 Y s 1194 198 m -39 Y s 1255 179 m -20 Y s 1315 179 m -20 Y s 1376 179 m -20 Y s 1436 198 m -39 Y s 1497 179 m -20
 Y s 1557 179 m -20 Y s 1618 179 m -20 Y s 1678 198 m -39 Y s 1739 179 m -20 Y s 1799 179 m -20 Y s 1860 179 m -20 Y s 1920 198 m -39 Y s 1920 198 m -39 Y s 1980 179 m -20 Y s 2041 179 m -20 Y s
 gsave  2268 1594 0 0 C 211.571 106.813 t 0 r /Helvetica findfont 51.3523 sf 0 0 m (0) show NC gr 
 gsave  2268 1594 0 0 C 439.576 106.813 t 0 r /Helvetica findfont 51.3523 sf 0 0 m (20) show NC gr 
 gsave  2268 1594 0 0 C 679.904 106.813 t 0 r /Helvetica findfont 51.3523 sf 0 0 m (40) show NC gr 
 gsave  2268 1594 0 0 C 922.287 106.813 t 0 r /Helvetica findfont 51.3523 sf 0 0 m (60) show NC gr 
 gsave  2268 1594 0 0 C 1164.67 106.813 t 0 r /Helvetica findfont 51.3523 sf 0 0 m (80) show NC gr 
 gsave  2268 1594 0 0 C 1392.67 106.813 t 0 r /Helvetica findfont 51.3523 sf 0 0 m (100) show NC gr 
 gsave  2268 1594 0 0 C 1633 106.813 t 0 r /Helvetica findfont 51.3523 sf 0 0 m (120) show NC gr 
 gsave  2268 1594 0 0 C 1875.39 106.813 t 0 r /Helvetica findfont 51.3523 sf 0 0 m (140) show NC gr  227 159 m 1276 Y s
 gsave  2268 1594 0 0 C 100.65 1407.05 t 90 r /Helvetica findfont 51.3523 sf 0 0 m (>) show NC gr 
 gsave  2268 1594 0 0 C 119.137 1296.13 t 90 r /Helvetica findfont 34.9195 sf 0 0 m (leading) show NC gr 
 gsave  2268 1594 0 0 C 100.65 1240.67 t 90 r /Helvetica findfont 51.3523 sf 0 0 m (<z) show NC gr  281 159 m -54 X s 254 185 m -27 X s 254 210 m -27 X s 254 236 m -27 X s 254 261 m -27 X s 281 287 m -54 X s 254 312 m -27 X s 254 338 m -27 X s 254
 363 m -27 X s 254 389 m -27 X s 281 414 m -54 X s 254 440 m -27 X s 254 465 m -27 X s 254 491 m -27 X s 254 516 m -27 X s 281 542 m -54 X s 254 567 m -27 X s 254 593 m -27 X s 254 618 m -27 X s 254 644 m -27 X s 281 669 m -54 X s 254 695 m -27 X s
 254 720 m -27 X s 254 746 m -27 X s 254 771 m -27 X s 281 797 m -54 X s 254 822 m -27 X s 254 848 m -27 X s 254 873 m -27 X s 254 899 m -27 X s 281 925 m -54 X s 254 950 m -27 X s 254 976 m -27 X s 254 1001 m -27 X s 254 1027 m -27 X s 281 1052 m
 -54 X s 254 1078 m -27 X s 254 1103 m -27 X s 254 1129 m -27 X s 254 1154 m -27 X s 281 1180 m -54 X s 254 1205 m -27 X s 254 1231 m -27 X s 254 1256 m -27 X s 254 1282 m -27 X s 281 1307 m -54 X s 254 1333 m -27 X s 254 1358 m -27 X s 254 1384 m
 -27 X s 254 1409 m -27 X s 281 1435 m -54 X s
 gsave  2268 1594 0 0 C 186.922 141.732 t 0 r /Helvetica findfont 51.3523 sf 0 0 m (0) show NC gr 
 gsave  2268 1594 0 0 C 152.003 269.086 t 0 r /Helvetica findfont 51.3523 sf 0 0 m (0.1) show NC gr 
 gsave  2268 1594 0 0 C 143.786 396.44 t 0 r /Helvetica findfont 51.3523 sf 0 0 m (0.2) show NC gr 
 gsave  2268 1594 0 0 C 143.786 523.793 t 0 r /Helvetica findfont 51.3523 sf 0 0 m (0.3) show NC gr 
 gsave  2268 1594 0 0 C 143.786 651.147 t 0 r /Helvetica findfont 51.3523 sf 0 0 m (0.4) show NC gr 
 gsave  2268 1594 0 0 C 143.786 778.5 t 0 r /Helvetica findfont 51.3523 sf 0 0 m (0.5) show NC gr 
 gsave  2268 1594 0 0 C 143.786 907.908 t 0 r /Helvetica findfont 51.3523 sf 0 0 m (0.6) show NC gr 
 gsave  2268 1594 0 0 C 143.786 1035.26 t 0 r /Helvetica findfont 51.3523 sf 0 0 m (0.7) show NC gr 
 gsave  2268 1594 0 0 C 143.786 1162.62 t 0 r /Helvetica findfont 51.3523 sf 0 0 m (0.8) show NC gr 
 gsave  2268 1594 0 0 C 143.786 1289.97 t 0 r /Helvetica findfont 51.3523 sf 0 0 m (0.9) show NC gr 
 gsave  2268 1594 0 0 C 195.139 1415.27 t 0 r /Helvetica findfont 51.3523 sf 0 0 m (1) show NC gr  1 1 1 c black 227 1178 m 22 X s 265 1178 m 22 X s 257 1178 m21 287 925 m 22 X s 326 925 m 22 X s 317 925 m21 348 801 m 22 X s 386 801 m 22 X s 378 801
 m21 408 727 m 22 X s 447 727 m 22 X s 438 727 m21 469 668 m 22 X s 507 668 m 22 X s 499 668 m21 529 637 m 22 X s 568 637 m 22 X s 559 637 m21 590 615 m 22 X s 628 615 m 22 X s 620 615 m21 650 617 m 22 X s 689 617 m 22 X s 680 617 m21 711 588 m 22 X
 s 749 588 m 22 X s 741 588 m21 771 572 m 22 X s 809 572 m 22 X s 801 572 m21 831 561 m 23 X s 870 561 m 22 X s 862 561 m21 892 557 m 22 X s 930 557 m 22 X s 922 557 m21 952 552 m 22 X s 991 552 m 22 X s 983 552 m21 1013 557 m 22 X s 1051 557 m 22 X
 s 1043 557 m21 1073 552 m 22 X s 1112 552 m 22 X s 1104 552 m21 1134 541 m 22 X s 1172 541 m 22 X s 1164 541 m21 1194 540 m 22 X s 1233 540 m 22 X s 1225 540 m21 1255 538 m 22 X s 1293 538 m 22 X s 1285 538 m21 1315 532 m 22 X s 1354 532 m 22 X s
 1346 532 m21 1376 530 m 22 X s 1414 530 m 22 X s 1406 530 m21 1436 523 m 22 X s 1475 523 m 22 X s 1466 523 m21 1497 516 m 22 X s 1535 516 m 22 X s 1527 516 m21 1557 521 m 22 X s 1596 521 m 22 X s 1587 521 m21 1618 513 m 22 X s 1656 513 m 22 X s 1648
 513 m21 1678 521 m 22 X s 1717 521 m 22 X s 1708 521 m21 1739 517 m 22 X s 1777 517 m 22 X s 1769 517 m21 1799 502 m 22 X s 1838 502 m 22 X s 1829 502 m21 1860 510 m 22 X s 1898 510 m 22 X s 1890 510 m21 1920 511 m 22 X s 1958 511 m 22 X s 1950 511
 m21 1980 508 m 22 X s 2019 508 m 22 X s 2011 508 m21 1 1 1 c 794 239 1134 877 bf black
 gsave  2268 1594 0 0 C 1331.05 1033.21 t 0 r /Helvetica-Bold findfont 65.7309 sf 0 0 m (Detector level) show NC gr  0 0 1 c 1233 1056 m20 black
 gsave  2268 1594 0 0 C 1331.05 912.016 t 0 r /Helvetica-Bold findfont 65.7309 sf 0 0 m (Particle level) show NC gr  1233 936 m21
 gsave  2268 1594 0 0 C 1756.25 1279.7 t 0 r /Helvetica-Bold findfont 36.9736 sf 0 0 m (T,jet) show NC gr 
 gsave  2268 1594 0 0 C 1598.08 1308.46 t 0 r /Helvetica-Bold findfont 55.4605 sf 0 0 m (> vs p) show NC gr 
 gsave  2268 1594 0 0 C 1470.73 1289.97 t 0 r /Helvetica-Bold findfont 36.9736 sf 0 0 m (leading) show NC gr 
 gsave  2268 1594 0 0 C 1314.62 1308.46 t 0 r /Helvetica-Bold findfont 55.4605 sf 0 0 m (<Jet z) show NC gr 
 gsave  2268 1594 0 0 C 1485.11 1181.1 t 0 r /Helvetica-Bold findfont 55.4605 sf 0 0 m ( R = 0.2) show NC gr 
 gsave  2268 1594 0 0 C 1462.51 1162.62 t 0 r /Helvetica-Bold findfont 36.9736 sf 0 0 m (T) show NC gr 
 gsave  2268 1594 0 0 C 1314.62 1181.1 t 0 r /Helvetica-Bold findfont 55.4605 sf 0 0 m (anti\255k) show NC gr 
 gr  gr showpage
end
%%EOF
