   MMGvolt  GEM1volt  GEM2volt    Edrift     Etran      Eind        GA      Eres       IBF     Anode   Cathode
       360       255       190     0.400     3.000     0.075  1874.000    10.500     0.700     0.000     0.000
       370       245       190     0.400     3.000     0.075  1905.000    10.900     0.550     0.000     0.000
       380       235       190     0.400     3.000     0.075  1926.000    11.400     0.480     0.000     0.000
       390       225       190     0.400     3.000     0.075  1958.000    11.900     0.390     0.000     0.000
       400       215       190     0.400     3.000     0.075  1984.000    12.500     0.320     0.000     0.000
       410       205       190     0.400     3.000     0.075  1905.000    13.100     0.280     0.000     0.000
       420       195       190     0.400     3.000     0.075  1941.000    13.900     0.230     0.000     0.000
       430       185       190     0.400     3.000     0.075  1953.000    15.000     0.200     0.000     0.000
       330       265       210     0.400     3.000     0.075  1990.000     9.600     1.210     0.000     0.000
       340       255       210     0.400     3.000     0.075  1993.000    10.050     0.970     0.000     0.000
       350       245       210     0.400     3.000     0.075  1995.000    10.300     0.790     0.000     0.000
       360       235       210     0.400     3.000     0.075  2005.000    10.800     0.640     0.000     0.000
       370       225       210     0.400     3.000     0.075  1921.000    11.300     0.530     0.000     0.000
       380       215       210     0.400     3.000     0.075  1905.000    12.050     0.420     0.000     0.000
       390       205       210     0.400     3.000     0.075  1937.000    12.400     0.350     0.000     0.000
       400       195       210     0.400     3.000     0.075  1958.000    13.200     0.290     0.000     0.000
       410       185       210     0.400     3.000     0.075  1974.000    13.900     0.250     0.000     0.000
       420       175       210     0.400     3.000     0.075  1995.000    14.800     0.210     0.000     0.000
       320       265       220     0.400     3.000     0.075  1856.000     9.500     1.450     0.000     0.000
       330       255       220     0.400     3.000     0.075  1860.000     9.750     1.180     0.000     0.000
       340       245       220     0.400     3.000     0.075  1869.000    10.100     0.960     0.000     0.000
       350       235       220     0.400     3.000     0.075  1877.000    10.500     0.780     0.000     0.000
       360       225       220     0.400     3.000     0.075  1888.000    11.000     0.615     0.000     0.000
       370       215       220     0.400     3.000     0.075  1899.000    11.400     0.510     0.000     0.000
       380       205       220     0.400     3.000     0.075  1940.000    12.000     0.420     0.000     0.000
       390       195       220     0.400     3.000     0.075  1971.000    12.600     0.350     0.000     0.000
       400       185       220     0.400     3.000     0.075  1985.000    13.400     0.290     0.000     0.000
       310       265       230     0.400     3.000     0.075  1966.000     9.400     1.780     0.000     0.000
       320       255       230     0.400     3.000     0.075  1976.000     9.650     1.430     0.000     0.000
       330       245       230     0.400     3.000     0.075  1983.000     9.950     1.160     0.000     0.000
       340       235       230     0.400     3.000     0.075  1897.000    10.300     0.940     0.000     0.000
       350       225       230     0.400     3.000     0.075  1903.000    10.800     0.750     0.000     0.000
       360       215       230     0.400     3.000     0.075  1909.000    11.300     0.600     0.000     0.000
       370       205       230     0.400     3.000     0.075  1995.000    11.800     0.500     0.000     0.000
       380       195       230     0.400     3.000     0.075  1997.000    12.700     0.410     0.000     0.000
       390       185       230     0.400     3.000     0.075  2008.000    13.300     0.325     0.000     0.000
