   MMGvolt  GEM1volt  GEM2volt    Edrift     Etran      Eind        GA      Eres       IBF     Anode   Cathode
       400       242       215     0.400     2.000     0.025     0.000    10.900     0.630     0.000     0.000
       400       242       195     0.400     2.000     0.050     0.000    10.700     0.470     0.000     0.000
       400       242       185     0.400     2.000     0.075     0.000    10.700     0.400     0.000     0.000
       400       242       171     0.400     2.000     0.125     0.000    11.200     0.350     0.000     0.000
       400       232       168     0.400     2.000     0.187     0.000    11.850     0.320     0.000     0.000
       400       220       168     0.400     2.000     0.250     0.000    12.300     0.320     0.000     0.000
