%!PS-Adobe-2.0 EPSF-2.0
%%BoundingBox:  0 0 567 367
%%Title: /global/project/projectdirs/alice/mconnors/JetUnfolding/JSR_redpoints_prelim.eps: 
%%Creator: ROOT Version 5.34/09
%%CreationDate: Sat May 10 07:50:49 2014
%%EndComments
%%BeginProlog
80 dict begin
/s {stroke} def /l {lineto} def /m {moveto} def /t {translate} def
/r {rotate} def /rl {roll}  def /R {repeat} def
/d {rlineto} def /rm {rmoveto} def /gr {grestore} def /f {eofill} def
/c {setrgbcolor} def /black {0 setgray} def /sd {setdash} def
/cl {closepath} def /sf {scalefont setfont} def /lw {setlinewidth} def
/box {m dup 0 exch d exch 0 d 0 exch neg d cl} def
/NC{systemdict begin initclip end}def/C{NC box clip newpath}def
/bl {box s} def /bf {box f} def /Y { 0 exch d} def /X { 0 d} def 
/K {{pop pop 0 moveto} exch kshow} bind def
/ita {/ang 15 def gsave [1 0 ang dup sin exch cos div 1 0 0] concat} def 
/mp {newpath /y exch def /x exch def} def
/side {[w .77 mul w .23 mul] .385 w mul sd w 0 l currentpoint t -144 r} def
/mr {mp x y w2 0 360 arc} def /m24 {mr s} def /m20 {mr f} def
/mb {mp x y w2 add m w2 neg 0 d 0 w neg d w 0 d 0 w d cl} def
/mt {mp x y w2 add m w2 neg w neg d w 0 d cl} def
/m21 {mb f} def /m25 {mb s} def /m22 {mt f} def /m26{mt s} def
/m23 {mp x y w2 sub m w2 w d w neg 0 d cl f} def
/m27 {mp x y w2 add m w3 neg w2 neg d w3 w2 neg d w3 w2 d cl s} def
/m28 {mp x w2 sub y w2 sub w3 add m w3 0 d  0 w3 neg d w3 0 d 0 w3 d w3 0 d  0 w3 d w3 neg 0 d 0 w3 d w3 neg 0 d 0 w3 neg d w3 neg 0 d cl s } def
/m29 {mp gsave x w2 sub y w2 add w3 sub m currentpoint t 4 {side} repeat cl fill gr} def
/m30 {mp gsave x w2 sub y w2 add w3 sub m currentpoint t 4 {side} repeat cl s gr} def
/m31 {mp x y w2 sub m 0 w d x w2 sub y m w 0 d x w2 sub y w2 add m w w neg d x w2 sub y w2 sub m w w d s} def
/m32 {mp x y w2 sub m w2 w d w neg 0 d cl s} def
/m33 {mp x y w2 add m w3 neg w2 neg d w3 w2 neg d w3 w2 d cl f} def
/m34 {mp x w2 sub y w2 sub w3 add m w3 0 d  0 w3 neg d w3 0 d 0 w3 d w3 0 d  0 w3 d w3 neg 0 d 0 w3 d w3 neg 0 d 0 w3 neg d w3 neg 0 d cl f } def
/m2 {mp x y w2 sub m 0 w d x w2 sub y m w 0 d s} def
/m5 {mp x w2 sub y w2 sub m w w d x w2 sub y w2 add m w w neg d s} def
/reEncode {exch findfont dup length dict begin {1 index /FID eq  {pop pop} {def} ifelse } forall /Encoding exch def currentdict end dup /FontName get exch definefont pop } def [/Times-Bold /Times-Italic /Times-BoldItalic /Helvetica /Helvetica-Oblique
 /Helvetica-Bold /Helvetica-BoldOblique /Courier /Courier-Oblique /Courier-Bold /Courier-BoldOblique /Times-Roman /AvantGarde-Book /AvantGarde-BookOblique /AvantGarde-Demi /AvantGarde-DemiOblique /Bookman-Demi /Bookman-DemiItalic /Bookman-Light
 /Bookman-LightItalic /Helvetica-Narrow /Helvetica-Narrow-Bold /Helvetica-Narrow-BoldOblique /Helvetica-Narrow-Oblique /NewCenturySchlbk-Roman /NewCenturySchlbk-Bold /NewCenturySchlbk-BoldItalic /NewCenturySchlbk-Italic /Palatino-Bold
 /Palatino-BoldItalic /Palatino-Italic /Palatino-Roman ] {ISOLatin1Encoding reEncode } forall
%%EndProlog
%%BeginSetup
%%EndSetup
newpath  gsave  .25 .25 scale  gsave  0 0 t black[  ] 0 sd 3 lw 1 1 1 c 2268 1468 0 0 bf black 1 1 1 c 1814 1173 241 171 bf black 1814 1173 241 171 bl 1 1 1 c 1814 1173 241 171 bf black 1814 1173 241 171 bl 1 0 0 c 9 lw 1 1 1 c 1 0 0 c 342 638 m 3 Y
 s 342 671 m 3 Y s 241 656 m 85 X s 357 656 m 85 X s 3 lw /w 30 def /w2 {w 2 div} def /w3 {w 3 div} def 342 656 m20 9 lw 543 595 m 17 Y s 543 642 m 17 Y s 442 627 m 86 X s 558 627 m 86 X s 3 lw 543 627 m20 9 lw 745 615 m 33 Y s 745 678 m 32 Y s 644
 663 m 86 X s 760 663 m 86 X s 3 lw 745 663 m20 9 lw 946 591 m 34 Y s 946 655 m 34 Y s 846 640 m 85 X s 962 640 m 85 X s 3 lw 946 640 m20 9 lw 1148 665 m 64 Y s 1148 760 m 64 Y s 1047 744 m 86 X s 1163 744 m 86 X s 3 lw 1148 744 m20 9 lw 1350 632 m
 119 Y s 1350 782 m 120 Y s 1249 767 m 86 X s 1365 767 m 86 X s 3 lw 1350 767 m20 9 lw 1551 614 m 158 Y s 1551 802 m 158 Y s 1451 787 m 85 X s 1566 787 m 86 X s 3 lw 1551 787 m20 9 lw black 3 lw 241 171 m 1814 X s
 gsave  2268 1468 0 0 C 2040.19 56.8825 t 0 r /Helvetica findfont 54.9864 sf 0 0 m (\)) show NC gr 
 gsave  2268 1468 0 0 C 2009.85 56.8825 t 0 r /Helvetica-Oblique findfont 54.9864 sf 0 0 m (c) show NC gr 
 gsave  2268 1468 0 0 C 1850.58 56.8825 t 0 r /Helvetica findfont 54.9864 sf 0 0 m ( \(GeV/) show NC gr 
 gsave  2268 1468 0 0 C 1780.42 26.5452 t 0 r /Helvetica findfont 36.0256 sf 0 0 m (T,jet) show NC gr 
 gsave  2268 1468 0 0 C 1746.29 56.8825 t 0 r /Helvetica-Oblique findfont 54.9864 sf 0 0 m (p) show NC gr  241 206 m -35 Y s 281 188 m -17 Y s 321 188 m -17 Y s 362 188 m -17 Y s 402 188 m -17 Y s 442 206 m -35 Y s 483 188 m -17 Y s 523 188 m -17 Y s
 563 188 m -17 Y s 604 188 m -17 Y s 644 206 m -35 Y s 684 188 m -17 Y s 725 188 m -17 Y s 765 188 m -17 Y s 805 188 m -17 Y s 846 206 m -35 Y s 886 188 m -17 Y s 926 188 m -17 Y s 967 188 m -17 Y s 1007 188 m -17 Y s 1047 206 m -35 Y s 1088 188 m
 -17 Y s 1128 188 m -17 Y s 1168 188 m -17 Y s 1209 188 m -17 Y s 1249 206 m -35 Y s 1289 188 m -17 Y s 1330 188 m -17 Y s 1370 188 m -17 Y s 1410 188 m -17 Y s 1451 206 m -35 Y s 1491 188 m -17 Y s 1531 188 m -17 Y s 1571 188 m -17 Y s 1612 188 m
 -17 Y s 1652 206 m -35 Y s 1692 188 m -17 Y s 1733 188 m -17 Y s 1773 188 m -17 Y s 1813 188 m -17 Y s 1854 206 m -35 Y s 1894 188 m -17 Y s 1934 188 m -17 Y s 1975 188 m -17 Y s 2015 188 m -17 Y s 2055 206 m -35 Y s
 gsave  2268 1468 0 0 C 214.257 123.245 t 0 r /Helvetica findfont 47.4021 sf 0 0 m (20) show NC gr 
 gsave  2268 1468 0 0 C 415.242 123.245 t 0 r /Helvetica findfont 47.4021 sf 0 0 m (30) show NC gr 
 gsave  2268 1468 0 0 C 616.227 123.245 t 0 r /Helvetica findfont 47.4021 sf 0 0 m (40) show NC gr 
 gsave  2268 1468 0 0 C 819.108 123.245 t 0 r /Helvetica findfont 47.4021 sf 0 0 m (50) show NC gr 
 gsave  2268 1468 0 0 C 1020.09 123.245 t 0 r /Helvetica findfont 47.4021 sf 0 0 m (60) show NC gr 
 gsave  2268 1468 0 0 C 1221.08 123.245 t 0 r /Helvetica findfont 47.4021 sf 0 0 m (70) show NC gr 
 gsave  2268 1468 0 0 C 1423.96 123.245 t 0 r /Helvetica findfont 47.4021 sf 0 0 m (80) show NC gr 
 gsave  2268 1468 0 0 C 1624.94 123.245 t 0 r /Helvetica findfont 47.4021 sf 0 0 m (90) show NC gr 
 gsave  2268 1468 0 0 C 1812.66 123.245 t 0 r /Helvetica findfont 47.4021 sf 0 0 m (100) show NC gr 
 gsave  2268 1468 0 0 C 2015.54 123.245 t 0 r /Helvetica findfont 47.4021 sf 0 0 m (110) show NC gr  241 1344 m 1814 X s 241 1309 m 35 Y s 281 1327 m 17 Y s 321 1327 m 17 Y s 362 1327 m 17 Y s 402 1327 m 17 Y s 442 1309 m 35 Y s 483 1327 m 17 Y s 523
 1327 m 17 Y s 563 1327 m 17 Y s 604 1327 m 17 Y s 644 1309 m 35 Y s 684 1327 m 17 Y s 725 1327 m 17 Y s 765 1327 m 17 Y s 805 1327 m 17 Y s 846 1309 m 35 Y s 886 1327 m 17 Y s 926 1327 m 17 Y s 967 1327 m 17 Y s 1007 1327 m 17 Y s 1047 1309 m 35 Y s
 1088 1327 m 17 Y s 1128 1327 m 17 Y s 1168 1327 m 17 Y s 1209 1327 m 17 Y s 1249 1309 m 35 Y s 1289 1327 m 17 Y s 1330 1327 m 17 Y s 1370 1327 m 17 Y s 1410 1327 m 17 Y s 1451 1309 m 35 Y s 1491 1327 m 17 Y s 1531 1327 m 17 Y s 1571 1327 m 17 Y s
 1612 1327 m 17 Y s 1652 1309 m 35 Y s 1692 1327 m 17 Y s 1733 1327 m 17 Y s 1773 1327 m 17 Y s 1813 1327 m 17 Y s 1854 1309 m 35 Y s 1894 1327 m 17 Y s 1934 1327 m 17 Y s 1975 1327 m 17 Y s 2015 1327 m 17 Y s 2055 1309 m 35 Y s 241 171 m 1173 Y s
 gsave  2268 1468 0 0 C 98.5964 902.536 t 90 r /Helvetica findfont 62.5708 sf 0 0 m (=0.4 Yield Ratio) show NC gr 
 gsave  2268 1468 0 0 C 98.5964 853.238 t 90 r /Helvetica-Oblique findfont 62.5708 sf 0 0 m (R) show NC gr 
 gsave  2268 1468 0 0 C 98.5964 711.031 t 90 r /Helvetica findfont 62.5708 sf 0 0 m (=0.2/) show NC gr 
 gsave  2268 1468 0 0 C 98.5964 661.733 t 90 r /Helvetica-Oblique findfont 62.5708 sf 0 0 m (R) show NC gr  295 171 m -54 X s 268 210 m -27 X s 268 249 m -27 X s 268 288 m -27 X s 295 327 m -54 X s 268 366 m -27 X s 268 405 m -27 X s 268 445 m -27 X
 s 295 484 m -54 X s 268 523 m -27 X s 268 562 m -27 X s 268 601 m -27 X s 295 640 m -54 X s 268 679 m -27 X s 268 718 m -27 X s 268 757 m -27 X s 295 797 m -54 X s 268 836 m -27 X s 268 875 m -27 X s 268 914 m -27 X s 295 953 m -54 X s 268 992 m -27
 X s 268 1031 m -27 X s 268 1070 m -27 X s 295 1110 m -54 X s 268 1149 m -27 X s 268 1188 m -27 X s 268 1227 m -27 X s 295 1266 m -54 X s 295 1266 m -54 X s 268 1305 m -27 X s
 gsave  2268 1468 0 0 C 204.777 153.583 t 0 r /Helvetica findfont 47.4021 sf 0 0 m (0) show NC gr 
 gsave  2268 1468 0 0 C 164.959 310.958 t 0 r /Helvetica findfont 47.4021 sf 0 0 m (0.2) show NC gr 
 gsave  2268 1468 0 0 C 164.959 468.333 t 0 r /Helvetica findfont 47.4021 sf 0 0 m (0.4) show NC gr 
 gsave  2268 1468 0 0 C 164.959 623.812 t 0 r /Helvetica findfont 47.4021 sf 0 0 m (0.6) show NC gr 
 gsave  2268 1468 0 0 C 164.959 781.187 t 0 r /Helvetica findfont 47.4021 sf 0 0 m (0.8) show NC gr 
 gsave  2268 1468 0 0 C 212.361 934.769 t 0 r /Helvetica findfont 47.4021 sf 0 0 m (1) show NC gr 
 gsave  2268 1468 0 0 C 164.959 1092.14 t 0 r /Helvetica findfont 47.4021 sf 0 0 m (1.2) show NC gr 
 gsave  2268 1468 0 0 C 164.959 1247.62 t 0 r /Helvetica findfont 47.4021 sf 0 0 m (1.4) show NC gr  2055 171 m 1173 Y s 2001 171 m 54 X s 2028 210 m 27 X s 2028 249 m 27 X s 2028 288 m 27 X s 2001 327 m 54 X s 2028 366 m 27 X s 2028 405 m 27 X s
 2028 445 m 27 X s 2001 484 m 54 X s 2028 523 m 27 X s 2028 562 m 27 X s 2028 601 m 27 X s 2001 640 m 54 X s 2028 679 m 27 X s 2028 718 m 27 X s 2028 757 m 27 X s 2001 797 m 54 X s 2028 836 m 27 X s 2028 875 m 27 X s 2028 914 m 27 X s 2001 953 m 54 X
 s 2028 992 m 27 X s 2028 1031 m 27 X s 2028 1070 m 27 X s 2001 1110 m 54 X s 2028 1149 m 27 X s 2028 1188 m 27 X s 2028 1227 m 27 X s 2001 1266 m 54 X s 2001 1266 m 54 X s 2028 1305 m 27 X s 0.8 0.8 0.8 c 201 271 241 514 bf black 0.8 0.8 0.8 c 202
 256 442 507 bf black 0.8 0.8 0.8 c 202 187 644 578 bf black 0.8 0.8 0.8 c 201 147 846 570 bf black 0.8 0.8 0.8 c 202 241 1047 666 bf black 0.8 0.8 0.8 c 202 203 1249 640 bf black 0.8 0.8 0.8 c 201 220 1451 668 bf black 0.8 0.8 0.8 c black 1 0 0 c 9
 lw 1 1 1 c 1 0 0 c 342 638 m 3 Y s 342 671 m 3 Y s 241 656 m 85 X s 357 656 m 85 X s 3 lw 342 656 m20 9 lw 543 595 m 17 Y s 543 642 m 17 Y s 442 627 m 86 X s 558 627 m 86 X s 3 lw 543 627 m20 9 lw 745 615 m 33 Y s 745 678 m 32 Y s 644 663 m 86 X s
 760 663 m 86 X s 3 lw 745 663 m20 9 lw 946 591 m 34 Y s 946 655 m 34 Y s 846 640 m 85 X s 962 640 m 85 X s 3 lw 946 640 m20 9 lw 1148 665 m 64 Y s 1148 760 m 64 Y s 1047 744 m 86 X s 1163 744 m 86 X s 3 lw 1148 744 m20 9 lw 1350 632 m 119 Y s 1350
 782 m 120 Y s 1249 767 m 86 X s 1365 767 m 86 X s 3 lw 1350 767 m20 9 lw 1551 614 m 158 Y s 1551 802 m 158 Y s 1451 787 m 85 X s 1566 787 m 86 X s 3 lw 1551 787 m20 9 lw black
 gsave  2268 1468 0 0 C 441.788 1577.54 t 0 r /Helvetica-Bold findfont 51.1943 sf 0 0 m (ALICE Preliminary) show NC gr  6 lw 1 1 1 c black 101 70 241 567 bl 1 1 1 c black 100 56 342 505 bl 1 1 1 c black 101 70 442 557 bl 1 1 1 c black 101 62 543 526
 bl 1 1 1 c black 202 71 644 539 bl 1 1 1 c black 201 76 846 571 bl 1 1 1 c black 202 84 1047 614 bl 1 1 1 c black 302 63 1249 504 bl 1 1 1 c black 404 87 1551 632 bl 1 1 1 c black 291 617 m 47 Y s 287 664 m 8 X s 291 587 m -47 Y s 287 540 m 8 X s
 392 548 m 64 Y s 388 612 m 8 X s 392 518 m -65 Y s 388 453 m 8 X s 493 607 m 22 Y s 489 629 m 8 X s 493 577 m -22 Y s 489 555 m 8 X s 594 572 m 25 Y s 590 597 m 7 X s 594 542 m -24 Y s 590 518 m 7 X s 745 590 m 28 Y s 741 618 m 8 X s 745 559 m -28 Y
 s 741 531 m 8 X s 946 624 m 63 Y s 943 687 m 7 X s 946 594 m -63 Y s 943 531 m 7 X s 1148 672 m 115 Y s 1144 787 m 8 X s 1148 641 m -115 Y s 1144 526 m 8 X s 1400 551 m 103 Y s 1396 654 m 8 X s 1400 520 m -103 Y s 1396 417 m 8 X s 1753 691 m 226 Y s
 1749 917 m 8 X s 1753 661 m -226 Y s 1749 435 m 8 X s 1 1 1 c black 3 lw 291 602 392 533 493 592 594 557 745 575 946 609 1148 656 1400 535 1753 676 9 { m21} R 6 lw 3 lw 1 1 1 c 680 367 340 954 bf black
 gsave  2268 1468 0 0 C 752.745 1245.73 t 0 r /Helvetica findfont 54.9864 sf 0 0 m ( = 5.02 TeV) show NC gr 
 gsave  2268 1468 0 0 C 703.447 1228.66 t 0 r /Helvetica findfont 36.0256 sf 0 0 m (NN) show NC gr 
 gsave  2268 1468 0 0 C 673.11 1245.73 t 0 r /Helvetica-Oblique findfont 54.9864 sf 0 0 m (s) show NC gr  6 lw 652 1276 m 8 -47 d s 3 lw 660 1229 m 7 62 d s 667 1291 m 86 X s
 gsave  2268 1468 0 0 C 510.047 1245.73 t 0 r /Helvetica findfont 54.9864 sf 0 0 m (p\255Pb ) show NC gr  1 0 0 c 425 1260 m20 black
 gsave  2268 1468 0 0 C 510.047 1124.38 t 0 r /Helvetica findfont 54.9864 sf 0 0 m (syst error) show NC gr  0.8 0.8 0.8 c 366 1095 m 119 X 85 Y -119 X f black 366 1180 m 119 X s 366 1095 m 119 X s 485 1095 m 85 Y s 366 1095 m 85 Y s
 gsave  2268 1468 0 0 C 648.461 999.236 t 0 r /Helvetica findfont 54.9864 sf 0 0 m ( = 2.76 TeV) show NC gr 
 gsave  2268 1468 0 0 C 618.123 999.236 t 0 r /Helvetica-Oblique findfont 54.9864 sf 0 0 m (s) show NC gr  6 lw 601 1030 m 6 -33 d s 0 lw 607 997 m 5 48 d s 612 1045 m 36 X s
 gsave  2268 1468 0 0 C 510.047 999.236 t 0 r /Helvetica findfont 54.9864 sf 0 0 m (pp ) show NC gr  3 lw 425 1015 m21 0 lw
 gsave  2268 1468 0 0 C 1336.74 1188.84 t 0 r /Helvetica findfont 68.259 sf 0 0 m (ALICE Preliminary) show NC gr 
 gr  gr showpage
end
%%EOF
