%!PS-Adobe-2.0 EPSF-2.0
%%BoundingBox:  0 0 567 367
%%Title: /global/project/projectdirs/alice/mconnors/JetUnfolding/R2_spectrum_prelim1.eps: 
%%Creator: ROOT Version 5.34/09
%%CreationDate: Mon May 12 13:30:01 2014
%%EndComments
%%BeginProlog
80 dict begin
/s {stroke} def /l {lineto} def /m {moveto} def /t {translate} def
/r {rotate} def /rl {roll}  def /R {repeat} def
/d {rlineto} def /rm {rmoveto} def /gr {grestore} def /f {eofill} def
/c {setrgbcolor} def /black {0 setgray} def /sd {setdash} def
/cl {closepath} def /sf {scalefont setfont} def /lw {setlinewidth} def
/box {m dup 0 exch d exch 0 d 0 exch neg d cl} def
/NC{systemdict begin initclip end}def/C{NC box clip newpath}def
/bl {box s} def /bf {box f} def /Y { 0 exch d} def /X { 0 d} def 
/K {{pop pop 0 moveto} exch kshow} bind def
/ita {/ang 15 def gsave [1 0 ang dup sin exch cos div 1 0 0] concat} def 
/mp {newpath /y exch def /x exch def} def
/side {[w .77 mul w .23 mul] .385 w mul sd w 0 l currentpoint t -144 r} def
/mr {mp x y w2 0 360 arc} def /m24 {mr s} def /m20 {mr f} def
/mb {mp x y w2 add m w2 neg 0 d 0 w neg d w 0 d 0 w d cl} def
/mt {mp x y w2 add m w2 neg w neg d w 0 d cl} def
/m21 {mb f} def /m25 {mb s} def /m22 {mt f} def /m26{mt s} def
/m23 {mp x y w2 sub m w2 w d w neg 0 d cl f} def
/m27 {mp x y w2 add m w3 neg w2 neg d w3 w2 neg d w3 w2 d cl s} def
/m28 {mp x w2 sub y w2 sub w3 add m w3 0 d  0 w3 neg d w3 0 d 0 w3 d w3 0 d  0 w3 d w3 neg 0 d 0 w3 d w3 neg 0 d 0 w3 neg d w3 neg 0 d cl s } def
/m29 {mp gsave x w2 sub y w2 add w3 sub m currentpoint t 4 {side} repeat cl fill gr} def
/m30 {mp gsave x w2 sub y w2 add w3 sub m currentpoint t 4 {side} repeat cl s gr} def
/m31 {mp x y w2 sub m 0 w d x w2 sub y m w 0 d x w2 sub y w2 add m w w neg d x w2 sub y w2 sub m w w d s} def
/m32 {mp x y w2 sub m w2 w d w neg 0 d cl s} def
/m33 {mp x y w2 add m w3 neg w2 neg d w3 w2 neg d w3 w2 d cl f} def
/m34 {mp x w2 sub y w2 sub w3 add m w3 0 d  0 w3 neg d w3 0 d 0 w3 d w3 0 d  0 w3 d w3 neg 0 d 0 w3 d w3 neg 0 d 0 w3 neg d w3 neg 0 d cl f } def
/m2 {mp x y w2 sub m 0 w d x w2 sub y m w 0 d s} def
/m5 {mp x w2 sub y w2 sub m w w d x w2 sub y w2 add m w w neg d s} def
/reEncode {exch findfont dup length dict begin {1 index /FID eq  {pop pop} {def} ifelse } forall /Encoding exch def currentdict end dup /FontName get exch definefont pop } def [/Times-Bold /Times-Italic /Times-BoldItalic /Helvetica /Helvetica-Oblique
 /Helvetica-Bold /Helvetica-BoldOblique /Courier /Courier-Oblique /Courier-Bold /Courier-BoldOblique /Times-Roman /AvantGarde-Book /AvantGarde-BookOblique /AvantGarde-Demi /AvantGarde-DemiOblique /Bookman-Demi /Bookman-DemiItalic /Bookman-Light
 /Bookman-LightItalic /Helvetica-Narrow /Helvetica-Narrow-Bold /Helvetica-Narrow-BoldOblique /Helvetica-Narrow-Oblique /NewCenturySchlbk-Roman /NewCenturySchlbk-Bold /NewCenturySchlbk-BoldItalic /NewCenturySchlbk-Italic /Palatino-Bold
 /Palatino-BoldItalic /Palatino-Italic /Palatino-Roman ] {ISOLatin1Encoding reEncode } forall
%%EndProlog
%%BeginSetup
%%EndSetup
newpath  gsave  .25 .25 scale  gsave  0 0 t black[  ] 0 sd 3 lw 1 1 1 c 2268 1468 0 0 bf black 1 1 1 c 1814 1174 227 147 bf black 1814 1174 227 147 bl 1 1 1 c 1814 1174 227 147 bf black 1814 1174 227 147 bl 1 0 0 c 1 1 1 c 1 0 0 c 227 1213 m 118 X s
 368 1213 m 118 X s /w 23 def /w2 {w 2 div} def /w3 {w 3 div} def 356 1213 m20 486 966 m 118 X s 627 966 m 118 X s 616 966 m20 745 792 m 118 X s 886 792 m 118 X s 875 792 m20 1004 618 m 118 X s 1145 618 m 118 X s 1134 618 m20 1263 482 m 119 X s 1404
 482 m 119 X s 1393 482 m20 1523 371 m 118 X s 1664 371 m 118 X s 1652 371 m20 1782 270 m 118 X s 1923 270 m 118 X s 1911 270 m20 black 227 147 m 1814 X s
 gsave  2268 1468 0 0 C 2026.91 47.4021 t 0 r /Helvetica findfont 47.4021 sf 0 0 m (\)) show NC gr 
 gsave  2268 1468 0 0 C 2000.37 47.4021 t 0 r /Helvetica-Oblique findfont 47.4021 sf 0 0 m (c) show NC gr 
 gsave  2268 1468 0 0 C 1861.95 47.4021 t 0 r /Helvetica findfont 47.4021 sf 0 0 m ( \(GeV/) show NC gr 
 gsave  2268 1468 0 0 C 1799.38 20.8569 t 0 r /Helvetica findfont 32.2334 sf 0 0 m (T,jet) show NC gr 
 gsave  2268 1468 0 0 C 1770.94 47.4021 t 0 r /Helvetica-Oblique findfont 47.4021 sf 0 0 m (p) show NC gr  227 182 m -35 Y s 279 164 m -17 Y s 330 164 m -17 Y s 382 164 m -17 Y s 434 164 m -17 Y s 486 182 m -35 Y s 538 164 m -17 Y s 590 164 m -17 Y s
 641 164 m -17 Y s 693 164 m -17 Y s 745 182 m -35 Y s 797 164 m -17 Y s 849 164 m -17 Y s 901 164 m -17 Y s 952 164 m -17 Y s 1004 182 m -35 Y s 1056 164 m -17 Y s 1108 164 m -17 Y s 1160 164 m -17 Y s 1212 164 m -17 Y s 1263 182 m -35 Y s 1315 164
 m -17 Y s 1367 164 m -17 Y s 1419 164 m -17 Y s 1471 164 m -17 Y s 1523 182 m -35 Y s 1574 164 m -17 Y s 1626 164 m -17 Y s 1678 164 m -17 Y s 1730 164 m -17 Y s 1782 182 m -35 Y s 1834 164 m -17 Y s 1885 164 m -17 Y s 1937 164 m -17 Y s 1989 164 m
 -17 Y s 2041 182 m -35 Y s
 gsave  2268 1468 0 0 C 199.089 98.5964 t 0 r /Helvetica findfont 47.4021 sf 0 0 m (20) show NC gr 
 gsave  2268 1468 0 0 C 458.852 98.5964 t 0 r /Helvetica findfont 47.4021 sf 0 0 m (30) show NC gr 
 gsave  2268 1468 0 0 C 716.72 98.5964 t 0 r /Helvetica findfont 47.4021 sf 0 0 m (40) show NC gr 
 gsave  2268 1468 0 0 C 976.483 98.5964 t 0 r /Helvetica findfont 47.4021 sf 0 0 m (50) show NC gr 
 gsave  2268 1468 0 0 C 1236.25 98.5964 t 0 r /Helvetica findfont 47.4021 sf 0 0 m (60) show NC gr 
 gsave  2268 1468 0 0 C 1496.01 98.5964 t 0 r /Helvetica findfont 47.4021 sf 0 0 m (70) show NC gr 
 gsave  2268 1468 0 0 C 1753.88 98.5964 t 0 r /Helvetica findfont 47.4021 sf 0 0 m (80) show NC gr 
 gsave  2268 1468 0 0 C 2013.64 98.5964 t 0 r /Helvetica findfont 47.4021 sf 0 0 m (90) show NC gr  227 1321 m 1814 X s 227 1286 m 35 Y s 279 1303 m 18 Y s 330 1303 m 18 Y s 382 1303 m 18 Y s 434 1303 m 18 Y s 486 1286 m 35 Y s 538 1303 m 18 Y s 590
 1303 m 18 Y s 641 1303 m 18 Y s 693 1303 m 18 Y s 745 1286 m 35 Y s 797 1303 m 18 Y s 849 1303 m 18 Y s 901 1303 m 18 Y s 952 1303 m 18 Y s 1004 1286 m 35 Y s 1056 1303 m 18 Y s 1108 1303 m 18 Y s 1160 1303 m 18 Y s 1212 1303 m 18 Y s 1263 1286 m 35
 Y s 1315 1303 m 18 Y s 1367 1303 m 18 Y s 1419 1303 m 18 Y s 1471 1303 m 18 Y s 1523 1286 m 35 Y s 1574 1303 m 18 Y s 1626 1303 m 18 Y s 1678 1303 m 18 Y s 1730 1303 m 18 Y s 1782 1286 m 35 Y s 1834 1303 m 18 Y s 1885 1303 m 18 Y s 1937 1303 m 18 Y
 s 1989 1303 m 18 Y s 2041 1286 m 35 Y s 227 147 m 1174 Y s
 gsave  2268 1468 0 0 C 58.7786 1298.82 t 90 r /Helvetica findfont 32.2334 sf 0 0 m (\2551) show NC gr 
 gsave  2268 1468 0 0 C 81.5316 1285.55 t 90 r /Helvetica findfont 47.4021 sf 0 0 m (\)) show NC gr 
 gsave  2268 1468 0 0 C 81.5316 1259 t 90 r /Helvetica-Oblique findfont 47.4021 sf 0 0 m (c) show NC gr 
 gsave  2268 1468 0 0 C 81.5316 1120.59 t 90 r /Helvetica findfont 47.4021 sf 0 0 m ( \(GeV/) show NC gr 
 gsave  2268 1468 0 0 C 109.973 1090.25 t 90 r /Symbol findfont 47.4021 sf 0 0 m ita (h) show gr NC gr 
 gsave  2268 1468 0 0 C 109.973 1065.6 t 90 r /Helvetica findfont 47.4021 sf 0 0 m (d) show NC gr 
 gsave  2268 1468 0 0 C 136.518 1044.74 t 90 r /Helvetica findfont 32.2334 sf 0 0 m (T) show NC gr 
 gsave  2268 1468 0 0 C 109.973 1016.3 t 90 r /Helvetica-Oblique findfont 47.4021 sf 0 0 m (p) show NC gr 
 gsave  2268 1468 0 0 C 109.973 991.652 t 90 r /Helvetica findfont 47.4021 sf 0 0 m (d) show NC gr 
 gsave  2268 1468 0 0 C 58.7786 1058.01 t 90 r /Helvetica-Oblique findfont 47.4021 sf 0 0 m (N) show NC gr 
 gsave  2268 1468 0 0 C 37.9217 1040.95 t 90 r /Helvetica findfont 32.2334 sf 0 0 m (2) show NC gr 
 gsave  2268 1468 0 0 C 58.7786 1016.3 t 90 r /Helvetica findfont 47.4021 sf 0 0 m (d) show NC gr  6 lw 68 992 m 129 Y s
 gsave  2268 1468 0 0 C 81.5316 976.483 t 90 r /Helvetica findfont 47.4021 sf 0 0 m ( ) show NC gr 
 gsave  2268 1468 0 0 C 123.245 932.873 t 90 r /Helvetica findfont 32.2334 sf 0 0 m (evt) show NC gr 
 gsave  2268 1468 0 0 C 109.973 893.056 t 90 r /Helvetica-Oblique findfont 47.4021 sf 0 0 m (N) show NC gr 
 gsave  2268 1468 0 0 C 60.6747 927.185 t 90 r /Helvetica findfont 47.4021 sf 0 0 m (1) show NC gr  68 893 m 83 Y s 3 lw 254 203 m -27 X s 254 250 m -27 X s 254 287 m -27 X s 254 317 m -27 X s 254 343 m -27 X s 254 365 m -27 X s 254 385 m -27 X s 281
 402 m -54 X s
 gsave  2268 1468 0 0 C 180.128 403.866 t 0 r /Helvetica findfont 32.2334 sf 0 0 m (\2556) show NC gr 
 gsave  2268 1468 0 0 C 128.934 381.113 t 0 r /Helvetica findfont 47.4021 sf 0 0 m (10) show NC gr  254 517 m -27 X s 254 584 m -27 X s 254 632 m -27 X s 254 669 m -27 X s 254 699 m -27 X s 254 724 m -27 X s 254 747 m -27 X s 254 766 m -27 X s 281
 784 m -54 X s
 gsave  2268 1468 0 0 C 180.128 784.979 t 0 r /Helvetica findfont 32.2334 sf 0 0 m (\2555) show NC gr 
 gsave  2268 1468 0 0 C 128.934 762.226 t 0 r /Helvetica findfont 47.4021 sf 0 0 m (10) show NC gr  254 898 m -27 X s 254 966 m -27 X s 254 1013 m -27 X s 254 1050 m -27 X s 254 1080 m -27 X s 254 1106 m -27 X s 254 1128 m -27 X s 254 1148 m -27 X s
 281 1165 m -54 X s
 gsave  2268 1468 0 0 C 180.128 1164.2 t 0 r /Helvetica findfont 32.2334 sf 0 0 m (\2554) show NC gr 
 gsave  2268 1468 0 0 C 128.934 1143.34 t 0 r /Helvetica findfont 47.4021 sf 0 0 m (10) show NC gr  254 1280 m -27 X s 2041 147 m 1174 Y s 2014 203 m 27 X s 2014 250 m 27 X s 2014 287 m 27 X s 2014 317 m 27 X s 2014 343 m 27 X s 2014 365 m 27 X s
 2014 385 m 27 X s 1987 402 m 54 X s 2014 517 m 27 X s 2014 584 m 27 X s 2014 632 m 27 X s 2014 669 m 27 X s 2014 699 m 27 X s 2014 724 m 27 X s 2014 747 m 27 X s 2014 766 m 27 X s 1987 784 m 54 X s 2014 898 m 27 X s 2014 966 m 27 X s 2014 1013 m 27
 X s 2014 1050 m 27 X s 2014 1080 m 27 X s 2014 1106 m 27 X s 2014 1128 m 27 X s 2014 1148 m 27 X s 1987 1165 m 54 X s 2014 1280 m 27 X s 1 1 1 c 0.8 0.8 0.8 c 259 67 227 1176 bf 1 1 1 c 0.8 0.8 0.8 c 259 48 486 941 bf 1 1 1 c 0.8 0.8 0.8 c 259 52
 745 764 bf 1 1 1 c 0.8 0.8 0.8 c 259 45 1004 594 bf 1 1 1 c 0.8 0.8 0.8 c 260 45 1263 458 bf 1 1 1 c 0.8 0.8 0.8 c 259 43 1523 347 bf 1 1 1 c 0.8 0.8 0.8 c 259 43 1782 247 bf 1 1 1 c 0.8 0.8 0.8 c black 1 0 0 c 1 1 1 c 1 0 0 c 227 1213 m 118 X s 368
 1213 m 118 X s 356 1213 m20 486 966 m 118 X s 627 966 m 118 X s 616 966 m20 745 792 m 118 X s 886 792 m 118 X s 875 792 m20 1004 618 m 118 X s 1145 618 m 118 X s 1134 618 m20 1263 482 m 119 X s 1404 482 m 119 X s 1393 482 m20 1523 371 m 118 X s 1664
 371 m 118 X s 1652 371 m20 1782 270 m 118 X s 1923 270 m 118 X s 1911 270 m20 black
 gsave  2268 1468 0 0 C 1359.49 1219.18 t 0 r /Helvetica findfont 68.259 sf 0 0 m (ALICE Preliminary) show NC gr 
 gsave  2268 1468 0 0 C 912.016 1274.17 t 0 r /Helvetica findfont 36.0256 sf 0 0 m (\2551) show NC gr 
 gsave  2268 1468 0 0 C 881.679 1247.62 t 0 r /Helvetica findfont 54.9864 sf 0 0 m (b) show NC gr 
 gsave  2268 1468 0 0 C 849.446 1247.62 t 0 r /Symbol findfont 54.9864 sf 0 0 m (m) show NC gr 
 gsave  2268 1468 0 0 C 747.057 1247.62 t 0 r /Helvetica findfont 54.9864 sf 0 0 m (=51 ) show NC gr 
 gsave  2268 1468 0 0 C 709.135 1232.45 t 0 r /Helvetica findfont 36.0256 sf 0 0 m (int) show NC gr 
 gsave  2268 1468 0 0 C 678.798 1247.62 t 0 r /Helvetica-Oblique findfont 54.9864 sf 0 0 m (L) show NC gr  1 1 1 c 794 322 1246 808 bf black
 gsave  2268 1468 0 0 C 1685.62 1035.26 t 0 r /Helvetica findfont 54.9864 sf 0 0 m ( = 5.02 TeV) show NC gr 
 gsave  2268 1468 0 0 C 1636.32 1018.2 t 0 r /Helvetica findfont 36.0256 sf 0 0 m (NN) show NC gr 
 gsave  2268 1468 0 0 C 1605.98 1035.26 t 0 r /Helvetica-Oblique findfont 54.9864 sf 0 0 m (s) show NC gr  6 lw 1585 1066 m 8 -48 d s 3 lw 1593 1018 m 7 63 d s 1600 1081 m 86 X s
 gsave  2268 1468 0 0 C 1442.92 1035.26 t 0 r /Helvetica findfont 54.9864 sf 0 0 m (p\255Pb ) show NC gr  1 0 0 c 1345 1049 m20 black
 gsave  2268 1468 0 0 C 1442.92 875.991 t 0 r /Helvetica findfont 54.9864 sf 0 0 m (syst error) show NC gr  0.8 0.8 0.8 c 1276 832 m 139 X 113 Y -139 X f 1 1 1 c 1276 945 m 139 X s 1276 832 m 139 X s 1415 832 m 113 Y s 1276 832 m 113 Y s black
 gsave  2268 1468 0 0 C 1818.34 1131.96 t 0 r /Helvetica findfont 54.9864 sf 0 0 m (|< 0.5) show NC gr 
 gsave  2268 1468 0 0 C 1778.53 1103.52 t 0 r /Helvetica findfont 36.0256 sf 0 0 m (jet) show NC gr 
 gsave  2268 1468 0 0 C 1744.4 1131.96 t 0 r /Symbol findfont 54.9864 sf 0 0 m ita (h) show gr NC gr 
 gsave  2268 1468 0 0 C 1579.44 1131.96 t 0 r /Helvetica findfont 54.9864 sf 0 0 m ( = 0.2 |) show NC gr 
 gsave  2268 1468 0 0 C 1535.83 1131.96 t 0 r /Helvetica-Oblique findfont 54.9864 sf 0 0 m (R) show NC gr 
 gsave  2268 1468 0 0 C 1516.87 1131.96 t 0 r /Helvetica findfont 54.9864 sf 0 0 m ( ) show NC gr 
 gsave  2268 1468 0 0 C 1494.11 1116.79 t 0 r /Helvetica findfont 36.0256 sf 0 0 m (T) show NC gr 
 gsave  2268 1468 0 0 C 1461.88 1131.96 t 0 r /Helvetica-Oblique findfont 54.9864 sf 0 0 m (k) show NC gr 
 gsave  2268 1468 0 0 C 1355.7 1131.96 t 0 r /Helvetica findfont 54.9864 sf 0 0 m (anti\255) show NC gr  227 147 m 1814 X s 227 182 m -35 Y s 279 164 m -17 Y s 330 164 m -17 Y s 382 164 m -17 Y s 434 164 m -17 Y s 486 182 m -35 Y s 538 164 m -17 Y s
 590 164 m -17 Y s 641 164 m -17 Y s 693 164 m -17 Y s 745 182 m -35 Y s 797 164 m -17 Y s 849 164 m -17 Y s 901 164 m -17 Y s 952 164 m -17 Y s 1004 182 m -35 Y s 1056 164 m -17 Y s 1108 164 m -17 Y s 1160 164 m -17 Y s 1212 164 m -17 Y s 1263 182 m
 -35 Y s 1315 164 m -17 Y s 1367 164 m -17 Y s 1419 164 m -17 Y s 1471 164 m -17 Y s 1523 182 m -35 Y s 1574 164 m -17 Y s 1626 164 m -17 Y s 1678 164 m -17 Y s 1730 164 m -17 Y s 1782 182 m -35 Y s 1834 164 m -17 Y s 1885 164 m -17 Y s 1937 164 m
 -17 Y s 1989 164 m -17 Y s 2041 182 m -35 Y s 227 1321 m 1814 X s 227 1286 m 35 Y s 279 1303 m 18 Y s 330 1303 m 18 Y s 382 1303 m 18 Y s 434 1303 m 18 Y s 486 1286 m 35 Y s 538 1303 m 18 Y s 590 1303 m 18 Y s 641 1303 m 18 Y s 693 1303 m 18 Y s 745
 1286 m 35 Y s 797 1303 m 18 Y s 849 1303 m 18 Y s 901 1303 m 18 Y s 952 1303 m 18 Y s 1004 1286 m 35 Y s 1056 1303 m 18 Y s 1108 1303 m 18 Y s 1160 1303 m 18 Y s 1212 1303 m 18 Y s 1263 1286 m 35 Y s 1315 1303 m 18 Y s 1367 1303 m 18 Y s 1419 1303 m
 18 Y s 1471 1303 m 18 Y s 1523 1286 m 35 Y s 1574 1303 m 18 Y s 1626 1303 m 18 Y s 1678 1303 m 18 Y s 1730 1303 m 18 Y s 1782 1286 m 35 Y s 1834 1303 m 18 Y s 1885 1303 m 18 Y s 1937 1303 m 18 Y s 1989 1303 m 18 Y s 2041 1286 m 35 Y s 227 147 m 1174
 Y s 254 203 m -27 X s 254 250 m -27 X s 254 287 m -27 X s 254 317 m -27 X s 254 343 m -27 X s 254 365 m -27 X s 254 385 m -27 X s 281 402 m -54 X s 254 517 m -27 X s 254 584 m -27 X s 254 632 m -27 X s 254 669 m -27 X s 254 699 m -27 X s 254 724 m
 -27 X s 254 747 m -27 X s 254 766 m -27 X s 281 784 m -54 X s 254 898 m -27 X s 254 966 m -27 X s 254 1013 m -27 X s 254 1050 m -27 X s 254 1080 m -27 X s 254 1106 m -27 X s 254 1128 m -27 X s 254 1148 m -27 X s 281 1165 m -54 X s 254 1280 m -27 X s
 2041 147 m 1174 Y s 2014 203 m 27 X s 2014 250 m 27 X s 2014 287 m 27 X s 2014 317 m 27 X s 2014 343 m 27 X s 2014 365 m 27 X s 2014 385 m 27 X s 1987 402 m 54 X s 2014 517 m 27 X s 2014 584 m 27 X s 2014 632 m 27 X s 2014 669 m 27 X s 2014 699 m 27
 X s 2014 724 m 27 X s 2014 747 m 27 X s 2014 766 m 27 X s 1987 784 m 54 X s 2014 898 m 27 X s 2014 966 m 27 X s 2014 1013 m 27 X s 2014 1050 m 27 X s 2014 1080 m 27 X s 2014 1106 m 27 X s 2014 1128 m 27 X s 2014 1148 m 27 X s 1987 1165 m 54 X s 2014
 1280 m 27 X s
 gr  gr showpage
end
%%EOF
