%!PS-Adobe-2.0 EPSF-2.0
%%BoundingBox:  0 0 567 398
%%Title: /Users/cgy606/Documents/Train/LEGOTrain/020814/lhc13c/lhc13c_JetZMean_lhc13c.eps: 
%%Creator: ROOT Version 5.34/09
%%CreationDate: Fri Mar 28 16:17:06 2014
%%EndComments
%%BeginProlog
80 dict begin
/s {stroke} def /l {lineto} def /m {moveto} def /t {translate} def
/r {rotate} def /rl {roll}  def /R {repeat} def
/d {rlineto} def /rm {rmoveto} def /gr {grestore} def /f {eofill} def
/c {setrgbcolor} def /black {0 setgray} def /sd {setdash} def
/cl {closepath} def /sf {scalefont setfont} def /lw {setlinewidth} def
/box {m dup 0 exch d exch 0 d 0 exch neg d cl} def
/NC{systemdict begin initclip end}def/C{NC box clip newpath}def
/bl {box s} def /bf {box f} def /Y { 0 exch d} def /X { 0 d} def 
/K {{pop pop 0 moveto} exch kshow} bind def
/ita {/ang 15 def gsave [1 0 ang dup sin exch cos div 1 0 0] concat} def 
/mp {newpath /y exch def /x exch def} def
/side {[w .77 mul w .23 mul] .385 w mul sd w 0 l currentpoint t -144 r} def
/mr {mp x y w2 0 360 arc} def /m24 {mr s} def /m20 {mr f} def
/mb {mp x y w2 add m w2 neg 0 d 0 w neg d w 0 d 0 w d cl} def
/mt {mp x y w2 add m w2 neg w neg d w 0 d cl} def
/m21 {mb f} def /m25 {mb s} def /m22 {mt f} def /m26{mt s} def
/m23 {mp x y w2 sub m w2 w d w neg 0 d cl f} def
/m27 {mp x y w2 add m w3 neg w2 neg d w3 w2 neg d w3 w2 d cl s} def
/m28 {mp x w2 sub y w2 sub w3 add m w3 0 d  0 w3 neg d w3 0 d 0 w3 d w3 0 d  0 w3 d w3 neg 0 d 0 w3 d w3 neg 0 d 0 w3 neg d w3 neg 0 d cl s } def
/m29 {mp gsave x w2 sub y w2 add w3 sub m currentpoint t 4 {side} repeat cl fill gr} def
/m30 {mp gsave x w2 sub y w2 add w3 sub m currentpoint t 4 {side} repeat cl s gr} def
/m31 {mp x y w2 sub m 0 w d x w2 sub y m w 0 d x w2 sub y w2 add m w w neg d x w2 sub y w2 sub m w w d s} def
/m32 {mp x y w2 sub m w2 w d w neg 0 d cl s} def
/m33 {mp x y w2 add m w3 neg w2 neg d w3 w2 neg d w3 w2 d cl f} def
/m34 {mp x w2 sub y w2 sub w3 add m w3 0 d  0 w3 neg d w3 0 d 0 w3 d w3 0 d  0 w3 d w3 neg 0 d 0 w3 d w3 neg 0 d 0 w3 neg d w3 neg 0 d cl f } def
/m2 {mp x y w2 sub m 0 w d x w2 sub y m w 0 d s} def
/m5 {mp x w2 sub y w2 sub m w w d x w2 sub y w2 add m w w neg d s} def
/reEncode {exch findfont dup length dict begin {1 index /FID eq  {pop pop} {def} ifelse } forall /Encoding exch def currentdict end dup /FontName get exch definefont pop } def [/Times-Bold /Times-Italic /Times-BoldItalic /Helvetica /Helvetica-Oblique
 /Helvetica-Bold /Helvetica-BoldOblique /Courier /Courier-Oblique /Courier-Bold /Courier-BoldOblique /Times-Roman /AvantGarde-Book /AvantGarde-BookOblique /AvantGarde-Demi /AvantGarde-DemiOblique /Bookman-Demi /Bookman-DemiItalic /Bookman-Light
 /Bookman-LightItalic /Helvetica-Narrow /Helvetica-Narrow-Bold /Helvetica-Narrow-BoldOblique /Helvetica-Narrow-Oblique /NewCenturySchlbk-Roman /NewCenturySchlbk-Bold /NewCenturySchlbk-BoldItalic /NewCenturySchlbk-Italic /Palatino-Bold
 /Palatino-BoldItalic /Palatino-Italic /Palatino-Roman ] {ISOLatin1Encoding reEncode } forall
%%EndProlog
%%BeginSetup
%%EndSetup
newpath  gsave  .25 .25 scale  gsave  0 0 t black[  ] 0 sd 3 lw 0.999 0.999 0.999 c 2268 1594 0 0 bf black 0.999 0.999 0.999 c 1814 1276 227 159 bf black 1814 1276 227 159 bl 0 0 1 c 1 1 1 c 0 0 1 c 287 864 m 22 X s 326 864 m 22 X s /w 16 def /w2 {w
 2 div} def /w3 {w 3 div} def 317 864 m20 348 793 m 22 X s 386 793 m 22 X s 378 793 m20 408 737 m 22 X s 447 737 m 22 X s 438 737 m20 469 703 m 22 X s 507 703 m 22 X s 499 703 m20 529 678 m 22 X s 568 678 m 22 X s 559 678 m20 590 664 m 22 X s 628 664
 m 22 X s 620 664 m20 650 654 m 22 X s 689 654 m 22 X s 680 654 m20 741 626 m 1 Y s 741 644 m 1 Y s 711 635 m 22 X s 749 635 m 22 X s 741 635 m20 801 621 m 5 Y s 801 642 m 5 Y s 771 634 m 22 X s 809 634 m 22 X s 801 634 m20 862 617 m 7 Y s 862 640 m
 7 Y s 831 632 m 23 X s 870 632 m 22 X s 862 632 m20 922 636 m 12 Y s 922 664 m 12 Y s 892 656 m 22 X s 930 656 m 22 X s 922 656 m20 983 614 m 17 Y s 983 648 m 17 Y s 952 639 m 22 X s 991 639 m 22 X s 983 639 m20 1043 621 m 28 Y s 1043 666 m 28 Y s
 1013 658 m 22 X s 1051 658 m 22 X s 1043 658 m20 1104 537 m 17 Y s 1104 570 m 17 Y s 1073 562 m 22 X s 1112 562 m 22 X s 1104 562 m20 1164 618 m 47 Y s 1164 682 m 47 Y s 1134 674 m 22 X s 1172 674 m 22 X s 1164 674 m20 1225 580 m 35 Y s 1225 631 m
 35 Y s 1194 623 m 22 X s 1233 623 m 22 X s 1225 623 m20 1285 524 m 51 Y s 1285 591 m 51 Y s 1255 583 m 22 X s 1293 583 m 22 X s 1285 583 m20 1346 577 m 38 Y s 1346 632 m 38 Y s 1315 623 m 22 X s 1354 623 m 22 X s 1346 623 m20 1406 427 m 55 Y s 1406
 498 m 55 Y s 1376 490 m 22 X s 1414 490 m 22 X s 1406 490 m20 1466 444 m 75 Y s 1466 535 m 75 Y s 1436 527 m 22 X s 1475 527 m 22 X s 1466 527 m20 1527 558 m 156 Y s 1527 731 m 156 Y s 1497 723 m 22 X s 1535 723 m 22 X s 1527 723 m20 1587 520 m 114
 Y s 1587 651 m 114 Y s 1557 643 m 22 X s 1596 643 m 22 X s 1587 643 m20 1648 570 m 15 Y s 1648 601 m 15 Y s 1618 593 m 22 X s 1656 593 m 22 X s 1648 593 m20 1708 377 m 10 Y s 1708 404 m 9 Y s 1678 395 m 22 X s 1717 395 m 22 X s 1708 395 m20 1769 568
 m 138 Y s 1769 722 m 138 Y s 1739 714 m 22 X s 1777 714 m 22 X s 1769 714 m20 1799 1288 m 22 X s 1838 1288 m 22 X s 1829 1288 m20 1890 1028 m 73 Y s 1890 1118 m 73 Y s 1860 1109 m 22 X s 1898 1109 m 22 X s 1890 1109 m20 1920 663 m 22 X s 1958 663 m
 22 X s 1950 663 m20 black 227 159 m 1814 X s
 gsave  2268 1594 0 0 C 1891.82 65.7309 t 0 r /Helvetica findfont 51.3523 sf 0 0 m ( \(GeV\)) show NC gr 
 gsave  2268 1594 0 0 C 1787.06 86.2718 t 0 r /Helvetica findfont 34.9195 sf 0 0 m (ch+em) show NC gr 
 gsave  2268 1594 0 0 C 1787.06 36.9736 t 0 r /Helvetica findfont 34.9195 sf 0 0 m (T,jet) show NC gr 
 gsave  2268 1594 0 0 C 1758.3 65.7309 t 0 r /Helvetica findfont 51.3523 sf 0 0 m (p) show NC gr  227 198 m -39 Y s 287 179 m -20 Y s 348 179 m -20 Y s 408 179 m -20 Y s 469 198 m -39 Y s 529 179 m -20 Y s 590 179 m -20 Y s 650 179 m -20 Y s 711 198
 m -39 Y s 771 179 m -20 Y s 831 179 m -20 Y s 892 179 m -20 Y s 952 198 m -39 Y s 1013 179 m -20 Y s 1073 179 m -20 Y s 1134 179 m -20 Y s 1194 198 m -39 Y s 1255 179 m -20 Y s 1315 179 m -20 Y s 1376 179 m -20 Y s 1436 198 m -39 Y s 1497 179 m -20
 Y s 1557 179 m -20 Y s 1618 179 m -20 Y s 1678 198 m -39 Y s 1739 179 m -20 Y s 1799 179 m -20 Y s 1860 179 m -20 Y s 1920 198 m -39 Y s 1920 198 m -39 Y s 1980 179 m -20 Y s 2041 179 m -20 Y s
 gsave  2268 1594 0 0 C 211.571 106.813 t 0 r /Helvetica findfont 51.3523 sf 0 0 m (0) show NC gr 
 gsave  2268 1594 0 0 C 439.576 106.813 t 0 r /Helvetica findfont 51.3523 sf 0 0 m (20) show NC gr 
 gsave  2268 1594 0 0 C 679.904 106.813 t 0 r /Helvetica findfont 51.3523 sf 0 0 m (40) show NC gr 
 gsave  2268 1594 0 0 C 922.287 106.813 t 0 r /Helvetica findfont 51.3523 sf 0 0 m (60) show NC gr 
 gsave  2268 1594 0 0 C 1164.67 106.813 t 0 r /Helvetica findfont 51.3523 sf 0 0 m (80) show NC gr 
 gsave  2268 1594 0 0 C 1392.67 106.813 t 0 r /Helvetica findfont 51.3523 sf 0 0 m (100) show NC gr 
 gsave  2268 1594 0 0 C 1633 106.813 t 0 r /Helvetica findfont 51.3523 sf 0 0 m (120) show NC gr 
 gsave  2268 1594 0 0 C 1875.39 106.813 t 0 r /Helvetica findfont 51.3523 sf 0 0 m (140) show NC gr  227 159 m 1276 Y s
 gsave  2268 1594 0 0 C 100.65 1407.05 t 90 r /Helvetica findfont 51.3523 sf 0 0 m (>) show NC gr 
 gsave  2268 1594 0 0 C 119.137 1296.13 t 90 r /Helvetica findfont 34.9195 sf 0 0 m (leading) show NC gr 
 gsave  2268 1594 0 0 C 100.65 1240.67 t 90 r /Helvetica findfont 51.3523 sf 0 0 m (<z) show NC gr  281 159 m -54 X s 254 185 m -27 X s 254 210 m -27 X s 254 236 m -27 X s 254 261 m -27 X s 281 287 m -54 X s 254 312 m -27 X s 254 338 m -27 X s 254
 363 m -27 X s 254 389 m -27 X s 281 414 m -54 X s 254 440 m -27 X s 254 465 m -27 X s 254 491 m -27 X s 254 516 m -27 X s 281 542 m -54 X s 254 567 m -27 X s 254 593 m -27 X s 254 618 m -27 X s 254 644 m -27 X s 281 669 m -54 X s 254 695 m -27 X s
 254 720 m -27 X s 254 746 m -27 X s 254 771 m -27 X s 281 797 m -54 X s 254 822 m -27 X s 254 848 m -27 X s 254 873 m -27 X s 254 899 m -27 X s 281 925 m -54 X s 254 950 m -27 X s 254 976 m -27 X s 254 1001 m -27 X s 254 1027 m -27 X s 281 1052 m
 -54 X s 254 1078 m -27 X s 254 1103 m -27 X s 254 1129 m -27 X s 254 1154 m -27 X s 281 1180 m -54 X s 254 1205 m -27 X s 254 1231 m -27 X s 254 1256 m -27 X s 254 1282 m -27 X s 281 1307 m -54 X s 254 1333 m -27 X s 254 1358 m -27 X s 254 1384 m
 -27 X s 254 1409 m -27 X s 281 1435 m -54 X s
 gsave  2268 1594 0 0 C 186.922 141.732 t 0 r /Helvetica findfont 51.3523 sf 0 0 m (0) show NC gr 
 gsave  2268 1594 0 0 C 152.003 269.086 t 0 r /Helvetica findfont 51.3523 sf 0 0 m (0.1) show NC gr 
 gsave  2268 1594 0 0 C 143.786 396.44 t 0 r /Helvetica findfont 51.3523 sf 0 0 m (0.2) show NC gr 
 gsave  2268 1594 0 0 C 143.786 523.793 t 0 r /Helvetica findfont 51.3523 sf 0 0 m (0.3) show NC gr 
 gsave  2268 1594 0 0 C 143.786 651.147 t 0 r /Helvetica findfont 51.3523 sf 0 0 m (0.4) show NC gr 
 gsave  2268 1594 0 0 C 143.786 778.5 t 0 r /Helvetica findfont 51.3523 sf 0 0 m (0.5) show NC gr 
 gsave  2268 1594 0 0 C 143.786 907.908 t 0 r /Helvetica findfont 51.3523 sf 0 0 m (0.6) show NC gr 
 gsave  2268 1594 0 0 C 143.786 1035.26 t 0 r /Helvetica findfont 51.3523 sf 0 0 m (0.7) show NC gr 
 gsave  2268 1594 0 0 C 143.786 1162.62 t 0 r /Helvetica findfont 51.3523 sf 0 0 m (0.8) show NC gr 
 gsave  2268 1594 0 0 C 143.786 1289.97 t 0 r /Helvetica findfont 51.3523 sf 0 0 m (0.9) show NC gr 
 gsave  2268 1594 0 0 C 195.139 1415.27 t 0 r /Helvetica findfont 51.3523 sf 0 0 m (1) show NC gr  1 1 1 c black 287 648 m 22 X s 326 648 m 22 X s 317 648 m21 348 577 m 22 X s 386 577 m 22 X s 378 577 m21 408 566 m 22 X s 447 566 m 22 X s 438 566 m21
 469 566 m 22 X s 507 566 m 22 X s 499 566 m21 529 569 m 22 X s 568 569 m 22 X s 559 569 m21 590 566 m 22 X s 628 566 m 22 X s 620 566 m21 650 572 m 22 X s 689 572 m 22 X s 680 572 m21 741 556 m 2 Y s 741 575 m 2 Y s 711 567 m 22 X s 749 567 m 22 X s
 741 567 m21 801 548 m 5 Y s 801 569 m 5 Y s 771 561 m 22 X s 809 561 m 22 X s 801 561 m21 862 556 m 8 Y s 862 581 m 8 Y s 831 572 m 23 X s 870 572 m 22 X s 862 572 m21 922 552 m 13 Y s 922 582 m 13 Y s 892 573 m 22 X s 930 573 m 22 X s 922 573 m21
 983 553 m 26 Y s 983 596 m 26 Y s 952 588 m 22 X s 991 588 m 22 X s 983 588 m21 1043 549 m 22 Y s 1043 588 m 22 Y s 1013 580 m 22 X s 1051 580 m 22 X s 1043 580 m21 1104 506 m 21 Y s 1104 544 m 21 Y s 1073 536 m 22 X s 1112 536 m 22 X s 1104 536 m21
 1164 553 m 37 Y s 1164 607 m 37 Y s 1134 598 m 22 X s 1172 598 m 22 X s 1164 598 m21 1225 616 m 64 Y s 1225 697 m 64 Y s 1194 689 m 22 X s 1233 689 m 22 X s 1225 689 m21 1285 424 m 63 Y s 1285 504 m 63 Y s 1255 495 m 22 X s 1293 495 m 22 X s 1285
 495 m21 1346 408 m 78 Y s 1346 502 m 78 Y s 1315 494 m 22 X s 1354 494 m 22 X s 1346 494 m21 1406 487 m 59 Y s 1406 563 m 59 Y s 1376 555 m 22 X s 1414 555 m 22 X s 1406 555 m21 1466 408 m 73 Y s 1466 497 m 73 Y s 1436 489 m 22 X s 1475 489 m 22 X s
 1466 489 m21 1527 299 m 37 Y s 1527 353 m 36 Y s 1497 344 m 22 X s 1535 344 m 22 X s 1527 344 m21 1587 710 m 187 Y s 1587 914 m 187 Y s 1557 905 m 22 X s 1596 905 m 22 X s 1587 905 m21 1618 357 m 22 X s 1656 357 m 22 X s 1648 357 m21 1708 318 m 114
 Y s 1708 448 m 114 Y s 1678 440 m 22 X s 1717 440 m 22 X s 1708 440 m21 1769 353 m 13 Y s 1769 382 m 13 Y s 1739 374 m 22 X s 1777 374 m 22 X s 1769 374 m21 1829 608 m 257 Y s 1829 882 m 257 Y s 1799 873 m 22 X s 1838 873 m 22 X s 1829 873 m21 1920
 1173 m 22 X s 1958 1173 m 22 X s 1950 1173 m21
 gsave  2268 1594 0 0 C 996.234 1308.46 t 0 r /Helvetica-Bold findfont 55.4605 sf 0 0 m ( for lhc13c merged output) show NC gr 
 gsave  2268 1594 0 0 C 868.88 1289.97 t 0 r /Helvetica-Bold findfont 36.9736 sf 0 0 m (leading) show NC gr 
 gsave  2268 1594 0 0 C 589.524 1308.46 t 0 r /Helvetica-Bold findfont 55.4605 sf 0 0 m (Mean Jet z) show NC gr  1 1 1 c 680 239 454 877 bf black
 gsave  2268 1594 0 0 C 622.39 1031.15 t 0 r /Helvetica-Bold findfont 71.8932 sf 0 0 m (R=0.2) show NC gr  0 0 1 c 539 1056 m20 black
 gsave  2268 1594 0 0 C 622.39 909.962 t 0 r /Helvetica-Bold findfont 71.8932 sf 0 0 m (R=0.4) show NC gr  539 936 m21
 gr  gr showpage
end
%%EOF
