%!PS-Adobe-2.0 EPSF-2.0
%%BoundingBox:  0 0 567 398
%%Title: /Users/cgy606/Documents/Train/LEGOTrain/020814/lhc13c/lhc13c_JetPhiR4.eps: 
%%Creator: ROOT Version 5.34/09
%%CreationDate: Fri Mar 28 14:55:20 2014
%%EndComments
%%BeginProlog
80 dict begin
/s {stroke} def /l {lineto} def /m {moveto} def /t {translate} def
/r {rotate} def /rl {roll}  def /R {repeat} def
/d {rlineto} def /rm {rmoveto} def /gr {grestore} def /f {eofill} def
/c {setrgbcolor} def /black {0 setgray} def /sd {setdash} def
/cl {closepath} def /sf {scalefont setfont} def /lw {setlinewidth} def
/box {m dup 0 exch d exch 0 d 0 exch neg d cl} def
/NC{systemdict begin initclip end}def/C{NC box clip newpath}def
/bl {box s} def /bf {box f} def /Y { 0 exch d} def /X { 0 d} def 
/K {{pop pop 0 moveto} exch kshow} bind def
/ita {/ang 15 def gsave [1 0 ang dup sin exch cos div 1 0 0] concat} def 
/mp {newpath /y exch def /x exch def} def
/side {[w .77 mul w .23 mul] .385 w mul sd w 0 l currentpoint t -144 r} def
/mr {mp x y w2 0 360 arc} def /m24 {mr s} def /m20 {mr f} def
/mb {mp x y w2 add m w2 neg 0 d 0 w neg d w 0 d 0 w d cl} def
/mt {mp x y w2 add m w2 neg w neg d w 0 d cl} def
/m21 {mb f} def /m25 {mb s} def /m22 {mt f} def /m26{mt s} def
/m23 {mp x y w2 sub m w2 w d w neg 0 d cl f} def
/m27 {mp x y w2 add m w3 neg w2 neg d w3 w2 neg d w3 w2 d cl s} def
/m28 {mp x w2 sub y w2 sub w3 add m w3 0 d  0 w3 neg d w3 0 d 0 w3 d w3 0 d  0 w3 d w3 neg 0 d 0 w3 d w3 neg 0 d 0 w3 neg d w3 neg 0 d cl s } def
/m29 {mp gsave x w2 sub y w2 add w3 sub m currentpoint t 4 {side} repeat cl fill gr} def
/m30 {mp gsave x w2 sub y w2 add w3 sub m currentpoint t 4 {side} repeat cl s gr} def
/m31 {mp x y w2 sub m 0 w d x w2 sub y m w 0 d x w2 sub y w2 add m w w neg d x w2 sub y w2 sub m w w d s} def
/m32 {mp x y w2 sub m w2 w d w neg 0 d cl s} def
/m33 {mp x y w2 add m w3 neg w2 neg d w3 w2 neg d w3 w2 d cl f} def
/m34 {mp x w2 sub y w2 sub w3 add m w3 0 d  0 w3 neg d w3 0 d 0 w3 d w3 0 d  0 w3 d w3 neg 0 d 0 w3 d w3 neg 0 d 0 w3 neg d w3 neg 0 d cl f } def
/m2 {mp x y w2 sub m 0 w d x w2 sub y m w 0 d s} def
/m5 {mp x w2 sub y w2 sub m w w d x w2 sub y w2 add m w w neg d s} def
/reEncode {exch findfont dup length dict begin {1 index /FID eq  {pop pop} {def} ifelse } forall /Encoding exch def currentdict end dup /FontName get exch definefont pop } def [/Times-Bold /Times-Italic /Times-BoldItalic /Helvetica /Helvetica-Oblique
 /Helvetica-Bold /Helvetica-BoldOblique /Courier /Courier-Oblique /Courier-Bold /Courier-BoldOblique /Times-Roman /AvantGarde-Book /AvantGarde-BookOblique /AvantGarde-Demi /AvantGarde-DemiOblique /Bookman-Demi /Bookman-DemiItalic /Bookman-Light
 /Bookman-LightItalic /Helvetica-Narrow /Helvetica-Narrow-Bold /Helvetica-Narrow-BoldOblique /Helvetica-Narrow-Oblique /NewCenturySchlbk-Roman /NewCenturySchlbk-Bold /NewCenturySchlbk-BoldItalic /NewCenturySchlbk-Italic /Palatino-Bold
 /Palatino-BoldItalic /Palatino-Italic /Palatino-Roman ] {ISOLatin1Encoding reEncode } forall
%%EndProlog
%%BeginSetup
%%EndSetup
newpath  gsave  .25 .25 scale  gsave  0 0 t black[  ] 0 sd 3 lw 0.999 0.999 0.999 c 2268 1594 0 0 bf black 0.999 0.999 0.999 c 1814 1276 227 159 bf black 1814 1276 227 159 bl 0 0 1 c 1 1 1 c 0 0 1 c 227 690 m 8 X s 251 690 m 9 X s /w 16 def /w2 {w 2
 div} def /w3 {w 3 div} def 243 690 m20 260 1072 m 8 X s 284 1072 m 9 X s 276 1072 m20 293 1078 m 8 X s 317 1078 m 9 X s 309 1078 m20 326 1084 m 8 X s 350 1084 m 9 X s 342 1084 m20 359 1085 m 8 X s 383 1085 m 9 X s 375 1085 m20 392 1081 m 8 X s 416
 1081 m 9 X s 408 1081 m20 425 1086 m 8 X s 449 1086 m 9 X s 441 1086 m20 458 1095 m 8 X s 482 1095 m 9 X s 474 1095 m20 491 1088 m 8 X s 515 1088 m 9 X s 507 1088 m20 524 1083 m 8 X s 548 1083 m 9 X s 540 1083 m20 557 1083 m 8 X s 581 1083 m 9 X s
 573 1083 m20 590 1082 m 8 X s 614 1082 m 9 X s 606 1082 m20 623 1079 m 8 X s 647 1079 m 9 X s 639 1079 m20 656 1070 m 8 X s 680 1070 m 9 X s 672 1070 m20 689 1073 m 8 X s 713 1073 m 9 X s 705 1073 m20 722 1083 m 8 X s 746 1083 m 9 X s 738 1083 m20
 755 1082 m 8 X s 779 1082 m 9 X s 771 1082 m20 788 1084 m 8 X s 812 1084 m 9 X s 804 1084 m20 821 1084 m 8 X s 845 1084 m 8 X s 837 1084 m20 853 1089 m 9 X s 878 1089 m 8 X s 870 1089 m20 886 1089 m 9 X s 911 1089 m 8 X s 903 1089 m20 919 1093 m 9 X
 s 944 1093 m 8 X s 936 1093 m20 952 1093 m 9 X s 977 1093 m 8 X s 969 1093 m20 985 1107 m 9 X s 1010 1107 m 8 X s 1002 1107 m20 1018 1102 m 9 X s 1043 1102 m 8 X s 1035 1102 m20 1051 1110 m 9 X s 1076 1110 m 8 X s 1068 1110 m20 1084 1097 m 9 X s
 1109 1097 m 8 X s 1101 1097 m20 1117 1095 m 9 X s 1142 1095 m 8 X s 1134 1095 m20 1150 1083 m 9 X s 1175 1083 m 8 X s 1167 1083 m20 1183 1061 m 9 X s 1208 1061 m 8 X s 1200 1061 m20 1216 1063 m 9 X s 1241 1063 m 8 X s 1233 1063 m20 1249 1054 m 9 X s
 1274 1054 m 8 X s 1266 1054 m20 1282 1038 m 9 X s 1307 1038 m 8 X s 1299 1038 m20 1315 1035 m 9 X s 1340 1035 m 8 X s 1332 1035 m20 1348 1045 m 9 X s 1373 1045 m 8 X s 1365 1045 m20 1381 1037 m 9 X s 1406 1037 m 8 X s 1398 1037 m20 1414 1048 m 9 X s
 1439 1048 m 8 X s 1431 1048 m20 1447 1055 m 8 X s 1472 1055 m 8 X s 1464 1055 m20 1480 1047 m 8 X s 1505 1047 m 8 X s 1497 1047 m20 1513 1046 m 8 X s 1538 1046 m 8 X s 1530 1046 m20 1546 1070 m 8 X s 1571 1070 m 8 X s 1563 1070 m20 1579 1064 m 8 X s
 1604 1064 m 8 X s 1596 1064 m20 1612 1074 m 8 X s 1637 1074 m 8 X s 1629 1074 m20 1645 1085 m 8 X s 1670 1085 m 8 X s 1662 1085 m20 1678 1087 m 8 X s 1703 1087 m 8 X s 1695 1087 m20 1711 1080 m 8 X s 1736 1080 m 8 X s 1728 1080 m20 1744 1082 m 8 X s
 1769 1082 m 8 X s 1761 1082 m20 1777 1070 m 8 X s 1802 1070 m 8 X s 1794 1070 m20 1810 1073 m 8 X s 1835 1073 m 8 X s 1827 1073 m20 1843 1066 m 8 X s 1868 1066 m 8 X s 1860 1066 m20 1876 1062 m 8 X s 1901 1062 m 8 X s 1893 1062 m20 1909 1056 m 8 X s
 1934 1056 m 8 X s 1925 1056 m20 1942 1062 m 8 X s 1967 1062 m 8 X s 1958 1062 m20 1975 1061 m 8 X s 2000 1061 m 8 X s 1991 1061 m20 2008 1070 m 8 X s 2033 1070 m 8 X s 2024 1070 m20 black 227 159 m 1814 X s
 gsave  2268 1594 0 0 C 2008.9 63.6768 t 0 r /Symbol findfont 51.3523 sf 0 0 m (j) show NC gr  247 198 m -39 Y s 336 179 m -20 Y s 424 179 m -20 Y s 512 179 m -20 Y s 600 198 m -39 Y s 689 179 m -20 Y s 777 179 m -20 Y s 865 179 m -20 Y s 954 198 m
 -39 Y s 1042 179 m -20 Y s 1130 179 m -20 Y s 1219 179 m -20 Y s 1307 198 m -39 Y s 1395 179 m -20 Y s 1484 179 m -20 Y s 1572 179 m -20 Y s 1660 198 m -39 Y s 1749 179 m -20 Y s 1837 179 m -20 Y s 1925 179 m -20 Y s 2013 198 m -39 Y s 247 198 m -39
 Y s 2013 198 m -39 Y s
 gsave  2268 1594 0 0 C 211.571 106.813 t 0 r /Helvetica findfont 51.3523 sf 0 0 m (1.8) show NC gr 
 gsave  2268 1594 0 0 C 585.416 106.813 t 0 r /Helvetica findfont 51.3523 sf 0 0 m (2) show NC gr 
 gsave  2268 1594 0 0 C 918.179 106.813 t 0 r /Helvetica findfont 51.3523 sf 0 0 m (2.2) show NC gr 
 gsave  2268 1594 0 0 C 1271.48 106.813 t 0 r /Helvetica findfont 51.3523 sf 0 0 m (2.4) show NC gr 
 gsave  2268 1594 0 0 C 1624.79 106.813 t 0 r /Helvetica findfont 51.3523 sf 0 0 m (2.6) show NC gr 
 gsave  2268 1594 0 0 C 1978.09 106.813 t 0 r /Helvetica findfont 51.3523 sf 0 0 m (2.8) show NC gr  227 159 m 1276 Y s
 gsave  2268 1594 0 0 C 106.813 1405 t 90 r /Symbol findfont 51.3523 sf 0 0 m (j) show NC gr 
 gsave  2268 1594 0 0 C 106.813 1361.86 t 90 r /Helvetica findfont 51.3523 sf 0 0 m (/d) show NC gr 
 gsave  2268 1594 0 0 C 123.245 1322.83 t 90 r /Helvetica findfont 34.9195 sf 0 0 m (jet) show NC gr 
 gsave  2268 1594 0 0 C 106.813 1244.78 t 90 r /Helvetica findfont 51.3523 sf 0 0 m ( dN) show NC gr 
 gsave  2268 1594 0 0 C 123.245 1158.51 t 90 r /Helvetica findfont 34.9195 sf 0 0 m (event) show NC gr 
 gsave  2268 1594 0 0 C 106.813 1080.45 t 90 r /Helvetica findfont 51.3523 sf 0 0 m (1/N) show NC gr  281 159 m -54 X s 254 202 m -27 X s 254 244 m -27 X s 254 287 m -27 X s 254 329 m -27 X s 281 372 m -54 X s 254 414 m -27 X s 254 457 m -27 X s 254
 499 m -27 X s 254 542 m -27 X s 281 584 m -54 X s 254 627 m -27 X s 254 669 m -27 X s 254 712 m -27 X s 254 754 m -27 X s 281 797 m -54 X s 254 839 m -27 X s 254 882 m -27 X s 254 925 m -27 X s 254 967 m -27 X s 281 1010 m -54 X s 254 1052 m -27 X s
 254 1095 m -27 X s 254 1137 m -27 X s 254 1180 m -27 X s 281 1222 m -54 X s 254 1265 m -27 X s 254 1307 m -27 X s 254 1350 m -27 X s 254 1392 m -27 X s 281 1435 m -54 X s
 gsave  2268 1594 0 0 C 186.922 141.732 t 0 r /Helvetica findfont 51.3523 sf 0 0 m (0) show NC gr 
 gsave  2268 1594 0 0 C 143.786 355.358 t 0 r /Helvetica findfont 51.3523 sf 0 0 m (0.5) show NC gr 
 gsave  2268 1594 0 0 C 195.139 564.875 t 0 r /Helvetica findfont 51.3523 sf 0 0 m (1) show NC gr 
 gsave  2268 1594 0 0 C 143.786 778.5 t 0 r /Helvetica findfont 51.3523 sf 0 0 m (1.5) show NC gr 
 gsave  2268 1594 0 0 C 186.922 990.072 t 0 r /Helvetica findfont 51.3523 sf 0 0 m (2) show NC gr 
 gsave  2268 1594 0 0 C 143.786 1203.7 t 0 r /Helvetica findfont 51.3523 sf 0 0 m (2.5) show NC gr 
 gsave  2268 1594 0 0 C 186.922 1417.32 t 0 r /Helvetica findfont 51.3523 sf 0 0 m (3) show NC gr 
 gsave  2268 1594 0 0 C 499.144 1329 t 0 r /Helvetica-Bold findfont 55.4605 sf 0 0 m ( distribution of R = 0.4 jets for lhc13c merged output) show NC gr 
 gsave  2268 1594 0 0 C 466.279 1329 t 0 r /Symbol findfont 55.4605 sf 0 0 m (j) show NC gr 
 gr  gr showpage
end
%%EOF
