%!PS-Adobe-2.0 EPSF-2.0
%%BoundingBox:  0 0 567 398
%%Title: /Users/cgy606/Documents/Train/LEGOTrain/020814/lhc13c/lhc13c_JetPhiR2.eps: 
%%Creator: ROOT Version 5.34/09
%%CreationDate: Fri Mar 28 14:55:20 2014
%%EndComments
%%BeginProlog
80 dict begin
/s {stroke} def /l {lineto} def /m {moveto} def /t {translate} def
/r {rotate} def /rl {roll}  def /R {repeat} def
/d {rlineto} def /rm {rmoveto} def /gr {grestore} def /f {eofill} def
/c {setrgbcolor} def /black {0 setgray} def /sd {setdash} def
/cl {closepath} def /sf {scalefont setfont} def /lw {setlinewidth} def
/box {m dup 0 exch d exch 0 d 0 exch neg d cl} def
/NC{systemdict begin initclip end}def/C{NC box clip newpath}def
/bl {box s} def /bf {box f} def /Y { 0 exch d} def /X { 0 d} def 
/K {{pop pop 0 moveto} exch kshow} bind def
/ita {/ang 15 def gsave [1 0 ang dup sin exch cos div 1 0 0] concat} def 
/mp {newpath /y exch def /x exch def} def
/side {[w .77 mul w .23 mul] .385 w mul sd w 0 l currentpoint t -144 r} def
/mr {mp x y w2 0 360 arc} def /m24 {mr s} def /m20 {mr f} def
/mb {mp x y w2 add m w2 neg 0 d 0 w neg d w 0 d 0 w d cl} def
/mt {mp x y w2 add m w2 neg w neg d w 0 d cl} def
/m21 {mb f} def /m25 {mb s} def /m22 {mt f} def /m26{mt s} def
/m23 {mp x y w2 sub m w2 w d w neg 0 d cl f} def
/m27 {mp x y w2 add m w3 neg w2 neg d w3 w2 neg d w3 w2 d cl s} def
/m28 {mp x w2 sub y w2 sub w3 add m w3 0 d  0 w3 neg d w3 0 d 0 w3 d w3 0 d  0 w3 d w3 neg 0 d 0 w3 d w3 neg 0 d 0 w3 neg d w3 neg 0 d cl s } def
/m29 {mp gsave x w2 sub y w2 add w3 sub m currentpoint t 4 {side} repeat cl fill gr} def
/m30 {mp gsave x w2 sub y w2 add w3 sub m currentpoint t 4 {side} repeat cl s gr} def
/m31 {mp x y w2 sub m 0 w d x w2 sub y m w 0 d x w2 sub y w2 add m w w neg d x w2 sub y w2 sub m w w d s} def
/m32 {mp x y w2 sub m w2 w d w neg 0 d cl s} def
/m33 {mp x y w2 add m w3 neg w2 neg d w3 w2 neg d w3 w2 d cl f} def
/m34 {mp x w2 sub y w2 sub w3 add m w3 0 d  0 w3 neg d w3 0 d 0 w3 d w3 0 d  0 w3 d w3 neg 0 d 0 w3 d w3 neg 0 d 0 w3 neg d w3 neg 0 d cl f } def
/m2 {mp x y w2 sub m 0 w d x w2 sub y m w 0 d s} def
/m5 {mp x w2 sub y w2 sub m w w d x w2 sub y w2 add m w w neg d s} def
/reEncode {exch findfont dup length dict begin {1 index /FID eq  {pop pop} {def} ifelse } forall /Encoding exch def currentdict end dup /FontName get exch definefont pop } def [/Times-Bold /Times-Italic /Times-BoldItalic /Helvetica /Helvetica-Oblique
 /Helvetica-Bold /Helvetica-BoldOblique /Courier /Courier-Oblique /Courier-Bold /Courier-BoldOblique /Times-Roman /AvantGarde-Book /AvantGarde-BookOblique /AvantGarde-Demi /AvantGarde-DemiOblique /Bookman-Demi /Bookman-DemiItalic /Bookman-Light
 /Bookman-LightItalic /Helvetica-Narrow /Helvetica-Narrow-Bold /Helvetica-Narrow-BoldOblique /Helvetica-Narrow-Oblique /NewCenturySchlbk-Roman /NewCenturySchlbk-Bold /NewCenturySchlbk-BoldItalic /NewCenturySchlbk-Italic /Palatino-Bold
 /Palatino-BoldItalic /Palatino-Italic /Palatino-Roman ] {ISOLatin1Encoding reEncode } forall
%%EndProlog
%%BeginSetup
%%EndSetup
newpath  gsave  .25 .25 scale  gsave  0 0 t black[  ] 0 sd 3 lw 0.999 0.999 0.999 c 2268 1594 0 0 bf black 0.999 0.999 0.999 c 1814 1276 227 159 bf black 1814 1276 227 159 bl 0 0 1 c 1 1 1 c 0 0 1 c 227 278 m 3 X s 247 278 m 4 X s /w 16 def /w2 {w 2
 div} def /w3 {w 3 div} def 239 278 m20 251 566 m 3 X s 271 566 m 4 X s 263 566 m20 275 558 m 3 X s 295 558 m 3 X s 286 558 m20 298 550 m 4 X s 319 550 m 3 X s 310 550 m20 322 535 m 4 X s 342 535 m 4 X s 334 535 m20 346 519 m 4 X s 366 519 m 4 X s
 358 519 m20 370 498 m 4 X s 390 498 m 4 X s 382 498 m20 394 469 m 4 X s 414 469 m 4 X s 406 469 m20 418 464 m 3 X s 438 464 m 4 X s 430 464 m20 442 463 m 3 X s 462 463 m 3 X s 454 463 m20 465 485 m 4 X s 486 485 m 3 X s 477 485 m20 489 504 m 4 X s
 510 504 m 3 X s 501 504 m20 513 518 m 4 X s 533 518 m 4 X s 525 518 m20 537 541 m 4 X s 557 541 m 4 X s 549 541 m20 561 547 m 4 X s 581 547 m 4 X s 573 547 m20 585 559 m 4 X s 605 559 m 4 X s 597 559 m20 609 564 m 3 X s 629 564 m 4 X s 621 564 m20
 633 575 m 3 X s 653 575 m 3 X s 645 575 m20 656 570 m 4 X s 677 570 m 3 X s 668 570 m20 680 565 m 4 X s 700 565 m 4 X s 692 565 m20 704 560 m 4 X s 724 560 m 4 X s 716 560 m20 728 556 m 4 X s 748 556 m 4 X s 740 556 m20 752 549 m 4 X s 772 549 m 4 X
 s 764 549 m20 776 533 m 4 X s 796 533 m 4 X s 788 533 m20 800 516 m 3 X s 820 516 m 4 X s 812 516 m20 824 493 m 3 X s 844 493 m 3 X s 835 493 m20 847 467 m 4 X s 868 467 m 3 X s 859 467 m20 871 470 m 4 X s 891 470 m 4 X s 883 470 m20 895 477 m 4 X s
 915 477 m 4 X s 907 477 m20 919 504 m 4 X s 939 504 m 4 X s 931 504 m20 943 530 m 4 X s 963 530 m 4 X s 955 530 m20 967 540 m 3 X s 987 540 m 4 X s 979 540 m20 991 559 m 3 X s 1011 559 m 4 X s 1003 559 m20 1015 569 m 3 X s 1035 569 m 3 X s 1026 569
 m20 1038 587 m 4 X s 1059 587 m 3 X s 1050 587 m20 1062 586 m 4 X s 1082 586 m 4 X s 1074 586 m20 1086 597 m 4 X s 1106 597 m 4 X s 1098 597 m20 1110 593 m 4 X s 1130 593 m 4 X s 1122 593 m20 1134 586 m 4 X s 1154 586 m 4 X s 1146 586 m20 1158 572 m
 3 X s 1178 572 m 4 X s 1170 572 m20 1182 558 m 3 X s 1202 558 m 3 X s 1194 558 m20 1205 547 m 4 X s 1226 547 m 3 X s 1217 547 m20 1229 527 m 4 X s 1249 527 m 4 X s 1241 527 m20 1253 507 m 4 X s 1273 507 m 4 X s 1265 507 m20 1277 471 m 4 X s 1297 471
 m 4 X s 1289 471 m20 1301 452 m 4 X s 1321 452 m 4 X s 1313 452 m20 1325 457 m 4 X s 1345 457 m 4 X s 1337 457 m20 1349 465 m 3 X s 1369 465 m 4 X s 1361 465 m20 1373 497 m 3 X s 1393 497 m 3 X s 1385 497 m20 1396 517 m 4 X s 1417 517 m 3 X s 1408
 517 m20 1420 535 m 4 X s 1440 535 m 4 X s 1432 535 m20 1444 548 m 4 X s 1464 548 m 4 X s 1456 548 m20 1468 569 m 4 X s 1488 569 m 4 X s 1480 569 m20 1492 578 m 4 X s 1512 578 m 4 X s 1504 578 m20 1516 600 m 4 X s 1536 600 m 4 X s 1528 600 m20 1540
 600 m 3 X s 1560 600 m 4 X s 1552 600 m20 1564 595 m 3 X s 1584 595 m 3 X s 1575 595 m20 1587 583 m 4 X s 1608 583 m 3 X s 1599 583 m20 1611 572 m 4 X s 1631 572 m 4 X s 1623 572 m20 1635 561 m 4 X s 1655 561 m 4 X s 1647 561 m20 1659 549 m 4 X s
 1679 549 m 4 X s 1671 549 m20 1683 526 m 4 X s 1703 526 m 4 X s 1695 526 m20 1707 496 m 3 X s 1727 496 m 4 X s 1719 496 m20 1731 462 m 3 X s 1751 462 m 3 X s 1743 462 m20 1754 452 m 4 X s 1775 452 m 3 X s 1766 452 m20 1778 451 m 4 X s 1799 451 m 3 X
 s 1790 451 m20 1802 476 m 4 X s 1822 476 m 4 X s 1814 476 m20 1826 498 m 4 X s 1846 498 m 4 X s 1838 498 m20 1850 511 m 4 X s 1870 511 m 4 X s 1862 511 m20 1874 530 m 4 X s 1894 530 m 4 X s 1886 530 m20 1898 545 m 3 X s 1918 545 m 4 X s 1910 545 m20
 1922 564 m 3 X s 1942 564 m 3 X s 1934 564 m20 1945 575 m 4 X s 1966 575 m 3 X s 1957 575 m20 1969 592 m 4 X s 1989 592 m 4 X s 1981 592 m20 1993 594 m 4 X s 2013 594 m 4 X s 2005 594 m20 2017 593 m 4 X s 2037 593 m 4 X s 2029 593 m20 black 227 159
 m 1814 X s
 gsave  2268 1594 0 0 C 2008.9 63.6768 t 0 r /Symbol findfont 51.3523 sf 0 0 m (j) show NC gr  248 198 m -39 Y s 312 179 m -20 Y s 376 179 m -20 Y s 440 179 m -20 Y s 504 198 m -39 Y s 568 179 m -20 Y s 632 179 m -20 Y s 696 179 m -20 Y s 760 198 m
 -39 Y s 824 179 m -20 Y s 888 179 m -20 Y s 952 179 m -20 Y s 1015 198 m -39 Y s 1079 179 m -20 Y s 1143 179 m -20 Y s 1207 179 m -20 Y s 1271 198 m -39 Y s 1335 179 m -20 Y s 1399 179 m -20 Y s 1463 179 m -20 Y s 1527 198 m -39 Y s 1591 179 m -20 Y
 s 1655 179 m -20 Y s 1718 179 m -20 Y s 1782 198 m -39 Y s 1846 179 m -20 Y s 1910 179 m -20 Y s 1974 179 m -20 Y s 2038 198 m -39 Y s 248 198 m -39 Y s 2038 198 m -39 Y s
 gsave  2268 1594 0 0 C 211.571 106.813 t 0 r /Helvetica findfont 51.3523 sf 0 0 m (1.6) show NC gr 
 gsave  2268 1594 0 0 C 468.333 106.813 t 0 r /Helvetica findfont 51.3523 sf 0 0 m (1.8) show NC gr 
 gsave  2268 1594 0 0 C 743.581 106.813 t 0 r /Helvetica findfont 51.3523 sf 0 0 m (2) show NC gr 
 gsave  2268 1594 0 0 C 979.801 106.813 t 0 r /Helvetica findfont 51.3523 sf 0 0 m (2.2) show NC gr 
 gsave  2268 1594 0 0 C 1234.51 106.813 t 0 r /Helvetica findfont 51.3523 sf 0 0 m (2.4) show NC gr 
 gsave  2268 1594 0 0 C 1491.27 106.813 t 0 r /Helvetica findfont 51.3523 sf 0 0 m (2.6) show NC gr 
 gsave  2268 1594 0 0 C 1745.98 106.813 t 0 r /Helvetica findfont 51.3523 sf 0 0 m (2.8) show NC gr 
 gsave  2268 1594 0 0 C 2023.28 106.813 t 0 r /Helvetica findfont 51.3523 sf 0 0 m (3) show NC gr  227 159 m 1276 Y s
 gsave  2268 1594 0 0 C 106.813 1405 t 90 r /Symbol findfont 51.3523 sf 0 0 m (j) show NC gr 
 gsave  2268 1594 0 0 C 106.813 1361.86 t 90 r /Helvetica findfont 51.3523 sf 0 0 m (/d) show NC gr 
 gsave  2268 1594 0 0 C 123.245 1322.83 t 90 r /Helvetica findfont 34.9195 sf 0 0 m (jet) show NC gr 
 gsave  2268 1594 0 0 C 106.813 1244.78 t 90 r /Helvetica findfont 51.3523 sf 0 0 m ( dN) show NC gr 
 gsave  2268 1594 0 0 C 123.245 1158.51 t 90 r /Helvetica findfont 34.9195 sf 0 0 m (event) show NC gr 
 gsave  2268 1594 0 0 C 106.813 1080.45 t 90 r /Helvetica findfont 51.3523 sf 0 0 m (1/N) show NC gr  281 159 m -54 X s 254 202 m -27 X s 254 244 m -27 X s 254 287 m -27 X s 254 329 m -27 X s 281 372 m -54 X s 254 414 m -27 X s 254 457 m -27 X s 254
 499 m -27 X s 254 542 m -27 X s 281 584 m -54 X s 254 627 m -27 X s 254 669 m -27 X s 254 712 m -27 X s 254 754 m -27 X s 281 797 m -54 X s 254 839 m -27 X s 254 882 m -27 X s 254 925 m -27 X s 254 967 m -27 X s 281 1010 m -54 X s 254 1052 m -27 X s
 254 1095 m -27 X s 254 1137 m -27 X s 254 1180 m -27 X s 281 1222 m -54 X s 254 1265 m -27 X s 254 1307 m -27 X s 254 1350 m -27 X s 254 1392 m -27 X s 281 1435 m -54 X s
 gsave  2268 1594 0 0 C 186.922 141.732 t 0 r /Helvetica findfont 51.3523 sf 0 0 m (0) show NC gr 
 gsave  2268 1594 0 0 C 143.786 355.358 t 0 r /Helvetica findfont 51.3523 sf 0 0 m (0.5) show NC gr 
 gsave  2268 1594 0 0 C 195.139 564.875 t 0 r /Helvetica findfont 51.3523 sf 0 0 m (1) show NC gr 
 gsave  2268 1594 0 0 C 143.786 778.5 t 0 r /Helvetica findfont 51.3523 sf 0 0 m (1.5) show NC gr 
 gsave  2268 1594 0 0 C 186.922 990.072 t 0 r /Helvetica findfont 51.3523 sf 0 0 m (2) show NC gr 
 gsave  2268 1594 0 0 C 143.786 1203.7 t 0 r /Helvetica findfont 51.3523 sf 0 0 m (2.5) show NC gr 
 gsave  2268 1594 0 0 C 186.922 1417.32 t 0 r /Helvetica findfont 51.3523 sf 0 0 m (3) show NC gr 
 gsave  2268 1594 0 0 C 503.252 1329 t 0 r /Helvetica-Bold findfont 55.4605 sf 0 0 m ( distribution of R = 0.2 jets for lhc13c merged output) show NC gr 
 gsave  2268 1594 0 0 C 470.387 1329 t 0 r /Symbol findfont 55.4605 sf 0 0 m (j) show NC gr 
 gr  gr showpage
end
%%EOF
