%!PS-Adobe-2.0 EPSF-2.0
%%BoundingBox:  0 0 567 398
%%Title: /Users/cgy606/Documents/Train/LEGOTrain/020814/lhc13b/lhc13b_TrackEta.eps: 
%%Creator: ROOT Version 5.34/09
%%CreationDate: Fri Mar 28 14:54:15 2014
%%EndComments
%%BeginProlog
80 dict begin
/s {stroke} def /l {lineto} def /m {moveto} def /t {translate} def
/r {rotate} def /rl {roll}  def /R {repeat} def
/d {rlineto} def /rm {rmoveto} def /gr {grestore} def /f {eofill} def
/c {setrgbcolor} def /black {0 setgray} def /sd {setdash} def
/cl {closepath} def /sf {scalefont setfont} def /lw {setlinewidth} def
/box {m dup 0 exch d exch 0 d 0 exch neg d cl} def
/NC{systemdict begin initclip end}def/C{NC box clip newpath}def
/bl {box s} def /bf {box f} def /Y { 0 exch d} def /X { 0 d} def 
/K {{pop pop 0 moveto} exch kshow} bind def
/ita {/ang 15 def gsave [1 0 ang dup sin exch cos div 1 0 0] concat} def 
/mp {newpath /y exch def /x exch def} def
/side {[w .77 mul w .23 mul] .385 w mul sd w 0 l currentpoint t -144 r} def
/mr {mp x y w2 0 360 arc} def /m24 {mr s} def /m20 {mr f} def
/mb {mp x y w2 add m w2 neg 0 d 0 w neg d w 0 d 0 w d cl} def
/mt {mp x y w2 add m w2 neg w neg d w 0 d cl} def
/m21 {mb f} def /m25 {mb s} def /m22 {mt f} def /m26{mt s} def
/m23 {mp x y w2 sub m w2 w d w neg 0 d cl f} def
/m27 {mp x y w2 add m w3 neg w2 neg d w3 w2 neg d w3 w2 d cl s} def
/m28 {mp x w2 sub y w2 sub w3 add m w3 0 d  0 w3 neg d w3 0 d 0 w3 d w3 0 d  0 w3 d w3 neg 0 d 0 w3 d w3 neg 0 d 0 w3 neg d w3 neg 0 d cl s } def
/m29 {mp gsave x w2 sub y w2 add w3 sub m currentpoint t 4 {side} repeat cl fill gr} def
/m30 {mp gsave x w2 sub y w2 add w3 sub m currentpoint t 4 {side} repeat cl s gr} def
/m31 {mp x y w2 sub m 0 w d x w2 sub y m w 0 d x w2 sub y w2 add m w w neg d x w2 sub y w2 sub m w w d s} def
/m32 {mp x y w2 sub m w2 w d w neg 0 d cl s} def
/m33 {mp x y w2 add m w3 neg w2 neg d w3 w2 neg d w3 w2 d cl f} def
/m34 {mp x w2 sub y w2 sub w3 add m w3 0 d  0 w3 neg d w3 0 d 0 w3 d w3 0 d  0 w3 d w3 neg 0 d 0 w3 d w3 neg 0 d 0 w3 neg d w3 neg 0 d cl f } def
/m2 {mp x y w2 sub m 0 w d x w2 sub y m w 0 d s} def
/m5 {mp x w2 sub y w2 sub m w w d x w2 sub y w2 add m w w neg d s} def
/reEncode {exch findfont dup length dict begin {1 index /FID eq  {pop pop} {def} ifelse } forall /Encoding exch def currentdict end dup /FontName get exch definefont pop } def [/Times-Bold /Times-Italic /Times-BoldItalic /Helvetica /Helvetica-Oblique
 /Helvetica-Bold /Helvetica-BoldOblique /Courier /Courier-Oblique /Courier-Bold /Courier-BoldOblique /Times-Roman /AvantGarde-Book /AvantGarde-BookOblique /AvantGarde-Demi /AvantGarde-DemiOblique /Bookman-Demi /Bookman-DemiItalic /Bookman-Light
 /Bookman-LightItalic /Helvetica-Narrow /Helvetica-Narrow-Bold /Helvetica-Narrow-BoldOblique /Helvetica-Narrow-Oblique /NewCenturySchlbk-Roman /NewCenturySchlbk-Bold /NewCenturySchlbk-BoldItalic /NewCenturySchlbk-Italic /Palatino-Bold
 /Palatino-BoldItalic /Palatino-Italic /Palatino-Roman ] {ISOLatin1Encoding reEncode } forall
%%EndProlog
%%BeginSetup
%%EndSetup
newpath  gsave  .25 .25 scale  gsave  0 0 t black[  ] 0 sd 3 lw 0.999 0.999 0.999 c 2268 1594 0 0 bf black 0.999 0.999 0.999 c 1814 1276 227 159 bf black 1814 1276 227 159 bl 0 0 1 c 1 1 1 c 0 0 1 c 245 816 m s 262 816 m s /w 16 def /w2 {w 2 div} def
 /w3 {w 3 div} def 253 816 m20 262 837 m 1 X s 279 837 m 1 X s 271 837 m20 280 856 m 1 X s 297 856 m 1 X s 289 856 m20 298 876 m 1 X s 315 876 m 1 X s 307 876 m20 316 895 m s 333 895 m s 325 895 m20 333 912 m 1 X s 351 912 m s 342 912 m20 351 923 m 1
 X s 368 923 m 1 X s 360 923 m20 369 930 m 1 X s 386 930 m 1 X s 378 930 m20 387 936 m 1 X s 404 936 m 1 X s 396 936 m20 405 942 m s 422 942 m s 414 942 m20 422 945 m 1 X s 440 945 m s 431 945 m20 440 949 m 1 X s 457 949 m 1 X s 449 949 m20 458 952 m
 1 X s 475 952 m 1 X s 467 952 m20 476 954 m s 493 954 m 1 X s 485 954 m20 494 956 m s 511 956 m s 502 956 m20 511 958 m 1 X s 528 958 m 1 X s 520 958 m20 529 959 m 1 X s 546 959 m 1 X s 538 959 m20 547 961 m 1 X s 564 961 m 1 X s 556 961 m20 565 962
 m s 582 962 m s 574 962 m20 582 963 m 1 X s 600 963 m s 591 963 m20 600 964 m 1 X s 617 964 m 1 X s 609 964 m20 618 965 m 1 X s 635 965 m 1 X s 627 965 m20 636 965 m 1 X s 653 965 m 1 X s 645 965 m20 654 967 m s 671 967 m s 663 967 m20 671 968 m 1 X
 s 689 968 m s 680 968 m20 689 968 m 1 X s 706 968 m 1 X s 698 968 m20 707 970 m 1 X s 724 970 m 1 X s 716 970 m20 725 971 m s 742 971 m 1 X s 734 971 m20 743 973 m s 760 973 m s 751 973 m20 760 973 m 1 X s 777 973 m 1 X s 769 973 m20 778 975 m 1 X s
 795 975 m 1 X s 787 975 m20 796 976 m 1 X s 813 976 m 1 X s 805 976 m20 814 976 m s 831 976 m s 823 976 m20 831 977 m 1 X s 849 977 m s 840 977 m20 849 978 m 1 X s 866 978 m 1 X s 858 978 m20 867 979 m 1 X s 884 979 m 1 X s 876 979 m20 885 979 m 1 X
 s 902 979 m 1 X s 894 979 m20 903 980 m s 920 980 m s 912 980 m20 920 980 m 1 X s 938 980 m s 929 980 m20 938 981 m 1 X s 955 981 m 1 X s 947 981 m20 956 980 m 1 X s 973 980 m 1 X s 965 980 m20 974 981 m s 991 981 m 1 X s 983 981 m20 992 978 m s
 1009 978 m s 1000 978 m20 1009 979 m 1 X s 1026 979 m 1 X s 1018 979 m20 1027 976 m 1 X s 1044 976 m 1 X s 1036 976 m20 1045 970 m 1 X s 1062 970 m 1 X s 1054 970 m20 1063 966 m s 1080 966 m 1 X s 1072 966 m20 1081 961 m s 1098 961 m s 1089 961 m20
 1098 958 m 1 X s 1115 958 m 1 X s 1107 958 m20 1116 963 m 1 X s 1133 963 m 1 X s 1125 963 m20 1134 973 m 1 X s 1151 973 m 1 X s 1143 973 m20 1152 954 m s 1169 954 m s 1161 954 m20 1169 960 m 1 X s 1187 960 m s 1178 960 m20 1187 968 m 1 X s 1204 968
 m 1 X s 1196 968 m20 1205 972 m 1 X s 1222 972 m 1 X s 1214 972 m20 1223 980 m s 1240 980 m 1 X s 1232 980 m20 1241 986 m s 1258 986 m s 1249 986 m20 1258 987 m 1 X s 1275 987 m 1 X s 1267 987 m20 1276 992 m 1 X s 1293 992 m 1 X s 1285 992 m20 1294
 992 m 1 X s 1311 992 m 1 X s 1303 992 m20 1312 994 m s 1329 994 m 1 X s 1321 994 m20 1330 994 m s 1347 994 m s 1338 994 m20 1347 995 m 1 X s 1364 995 m 1 X s 1356 995 m20 1365 996 m 1 X s 1382 996 m 1 X s 1374 996 m20 1383 997 m 1 X s 1400 997 m 1 X
 s 1392 997 m20 1401 997 m s 1418 997 m s 1410 997 m20 1418 998 m 1 X s 1436 998 m s 1427 998 m20 1436 998 m 1 X s 1453 998 m 1 X s 1445 998 m20 1454 998 m 1 X s 1471 998 m 1 X s 1463 998 m20 1472 999 m s 1489 999 m 1 X s 1481 999 m20 1490 999 m s
 1507 999 m s 1498 999 m20 1507 999 m 1 X s 1524 999 m 1 X s 1516 999 m20 1525 999 m 1 X s 1542 999 m 1 X s 1534 999 m20 1543 999 m 1 X s 1560 999 m 1 X s 1552 999 m20 1561 999 m s 1578 999 m 1 X s 1570 999 m20 1579 999 m s 1596 999 m s 1587 999 m20
 1596 1001 m 1 X s 1613 1001 m 1 X s 1605 1001 m20 1614 1000 m 1 X s 1631 1000 m 1 X s 1623 1000 m20 1632 1000 m 1 X s 1649 1000 m 1 X s 1641 1000 m20 1650 1000 m s 1667 1000 m s 1659 1000 m20 1667 1001 m 1 X s 1685 1001 m s 1676 1001 m20 1685 1001 m
 1 X s 1702 1001 m 1 X s 1694 1001 m20 1703 1002 m 1 X s 1720 1002 m 1 X s 1712 1002 m20 1721 1002 m s 1738 1002 m 1 X s 1730 1002 m20 1739 1002 m s 1756 1002 m s 1747 1002 m20 1756 1002 m 1 X s 1773 1002 m 1 X s 1765 1002 m20 1774 1002 m 1 X s 1791
 1002 m 1 X s 1783 1002 m20 1792 1001 m 1 X s 1809 1001 m 1 X s 1801 1001 m20 1810 1000 m s 1827 1000 m 1 X s 1819 1000 m20 1828 999 m s 1845 999 m s 1836 999 m20 1845 997 m 1 X s 1862 997 m 1 X s 1854 997 m20 1863 994 m 1 X s 1880 994 m 1 X s 1872
 994 m20 1881 991 m 1 X s 1898 991 m 1 X s 1890 991 m20 1899 984 m s 1916 984 m s 1908 984 m20 1916 973 m 1 X s 1934 973 m s 1925 973 m20 1934 956 m 1 X s 1951 956 m 1 X s 1943 956 m20 1952 939 m 1 X s 1969 939 m 1 X s 1961 939 m20 1970 923 m s 1987
 923 m 1 X s 1979 923 m20 1988 907 m s 2005 907 m s 1996 907 m20 2005 890 m 1 X s 2022 890 m 1 X s 2014 890 m20 black 227 159 m 1814 X s
 gsave  2268 1594 0 0 C 2010.96 63.6768 t 0 r /Symbol findfont 51.3523 sf 0 0 m (h) show NC gr  343 198 m -39 Y s 393 179 m -20 Y s 442 179 m -20 Y s 492 179 m -20 Y s 541 198 m -39 Y s 590 179 m -20 Y s 640 179 m -20 Y s 689 179 m -20 Y s 739 198 m
 -39 Y s 788 179 m -20 Y s 837 179 m -20 Y s 887 179 m -20 Y s 936 198 m -39 Y s 986 179 m -20 Y s 1035 179 m -20 Y s 1084 179 m -20 Y s 1134 198 m -39 Y s 1183 179 m -20 Y s 1233 179 m -20 Y s 1282 179 m -20 Y s 1331 198 m -39 Y s 1381 179 m -20 Y s
 1430 179 m -20 Y s 1480 179 m -20 Y s 1529 198 m -39 Y s 1579 179 m -20 Y s 1628 179 m -20 Y s 1677 179 m -20 Y s 1727 198 m -39 Y s 1776 179 m -20 Y s 1826 179 m -20 Y s 1875 179 m -20 Y s 1924 198 m -39 Y s 343 198 m -39 Y s 294 179 m -20 Y s 245
 179 m -20 Y s 1924 198 m -39 Y s 1974 179 m -20 Y s 2023 179 m -20 Y s
 gsave  2268 1594 0 0 C 297.843 106.813 t 0 r /Helvetica findfont 51.3523 sf 0 0 m (\2550.8) show NC gr 
 gsave  2268 1594 0 0 C 495.036 106.813 t 0 r /Helvetica findfont 51.3523 sf 0 0 m (\2550.6) show NC gr 
 gsave  2268 1594 0 0 C 692.229 106.813 t 0 r /Helvetica findfont 51.3523 sf 0 0 m (\2550.4) show NC gr 
 gsave  2268 1594 0 0 C 891.476 106.813 t 0 r /Helvetica findfont 51.3523 sf 0 0 m (\2550.2) show NC gr 
 gsave  2268 1594 0 0 C 1119.48 106.813 t 0 r /Helvetica findfont 51.3523 sf 0 0 m (0) show NC gr 
 gsave  2268 1594 0 0 C 1296.13 106.813 t 0 r /Helvetica findfont 51.3523 sf 0 0 m (0.2) show NC gr 
 gsave  2268 1594 0 0 C 1493.32 106.813 t 0 r /Helvetica findfont 51.3523 sf 0 0 m (0.4) show NC gr 
 gsave  2268 1594 0 0 C 1690.52 106.813 t 0 r /Helvetica findfont 51.3523 sf 0 0 m (0.6) show NC gr 
 gsave  2268 1594 0 0 C 1887.71 106.813 t 0 r /Helvetica findfont 51.3523 sf 0 0 m (0.8) show NC gr  227 159 m 1276 Y s
 gsave  2268 1594 0 0 C 108.867 1407.05 t 90 r /Symbol findfont 51.3523 sf 0 0 m (h) show NC gr 
 gsave  2268 1594 0 0 C 108.867 1285.86 t 90 r /Helvetica findfont 51.3523 sf 0 0 m ( dN/d) show NC gr 
 gsave  2268 1594 0 0 C 127.354 1179.05 t 90 r /Helvetica findfont 34.9195 sf 0 0 m (Events) show NC gr 
 gsave  2268 1594 0 0 C 108.867 1100.99 t 90 r /Helvetica findfont 51.3523 sf 0 0 m (1/N) show NC gr  281 159 m -54 X s 254 191 m -27 X s 254 223 m -27 X s 254 255 m -27 X s 281 287 m -54 X s 254 319 m -27 X s 254 351 m -27 X s 254 383 m -27 X s 281
 414 m -54 X s 254 446 m -27 X s 254 478 m -27 X s 254 510 m -27 X s 281 542 m -54 X s 254 574 m -27 X s 254 606 m -27 X s 254 638 m -27 X s 281 669 m -54 X s 254 701 m -27 X s 254 733 m -27 X s 254 765 m -27 X s 281 797 m -54 X s 254 829 m -27 X s
 254 861 m -27 X s 254 893 m -27 X s 281 925 m -54 X s 254 956 m -27 X s 254 988 m -27 X s 254 1020 m -27 X s 281 1052 m -54 X s 254 1084 m -27 X s 254 1116 m -27 X s 254 1148 m -27 X s 281 1180 m -54 X s 254 1211 m -27 X s 254 1243 m -27 X s 254
 1275 m -27 X s 281 1307 m -54 X s 254 1339 m -27 X s 254 1371 m -27 X s 254 1403 m -27 X s 281 1435 m -54 X s
 gsave  2268 1594 0 0 C 186.922 141.732 t 0 r /Helvetica findfont 51.3523 sf 0 0 m (0) show NC gr 
 gsave  2268 1594 0 0 C 186.922 267.032 t 0 r /Helvetica findfont 51.3523 sf 0 0 m (2) show NC gr 
 gsave  2268 1594 0 0 C 186.922 394.385 t 0 r /Helvetica findfont 51.3523 sf 0 0 m (4) show NC gr 
 gsave  2268 1594 0 0 C 186.922 523.793 t 0 r /Helvetica findfont 51.3523 sf 0 0 m (6) show NC gr 
 gsave  2268 1594 0 0 C 186.922 651.147 t 0 r /Helvetica findfont 51.3523 sf 0 0 m (8) show NC gr 
 gsave  2268 1594 0 0 C 158.165 778.5 t 0 r /Helvetica findfont 51.3523 sf 0 0 m (10) show NC gr 
 gsave  2268 1594 0 0 C 158.165 905.854 t 0 r /Helvetica findfont 51.3523 sf 0 0 m (12) show NC gr 
 gsave  2268 1594 0 0 C 158.165 1033.21 t 0 r /Helvetica findfont 51.3523 sf 0 0 m (14) show NC gr 
 gsave  2268 1594 0 0 C 158.165 1162.62 t 0 r /Helvetica findfont 51.3523 sf 0 0 m (16) show NC gr 
 gsave  2268 1594 0 0 C 158.165 1289.97 t 0 r /Helvetica findfont 51.3523 sf 0 0 m (18) show NC gr 
 gsave  2268 1594 0 0 C 158.165 1417.32 t 0 r /Helvetica findfont 51.3523 sf 0 0 m (20) show NC gr  1 1 1 c black 245 790 m s 262 790 m s 253 790 m21 262 809 m 1 X s 279 809 m 1 X s 271 809 m21 280 826 m 1 X s 297 826 m 1 X s 289 826 m21 298 845 m 1
 X s 315 845 m 1 X s 307 845 m21 316 862 m s 333 862 m s 325 862 m21 333 878 m 1 X s 351 878 m s 342 878 m21 351 887 m 1 X s 368 887 m 1 X s 360 887 m21 369 893 m 1 X s 386 893 m 1 X s 378 893 m21 387 897 m 1 X s 404 897 m 1 X s 396 897 m21 405 901 m
 s 422 901 m s 414 901 m21 422 904 m 1 X s 440 904 m s 431 904 m21 440 908 m 1 X s 457 908 m 1 X s 449 908 m21 458 910 m 1 X s 475 910 m 1 X s 467 910 m21 476 912 m s 493 912 m 1 X s 485 912 m21 494 914 m s 511 914 m s 502 914 m21 511 916 m 1 X s 528
 916 m 1 X s 520 916 m21 529 918 m 1 X s 546 918 m 1 X s 538 918 m21 547 920 m 1 X s 564 920 m 1 X s 556 920 m21 565 922 m s 582 922 m s 574 922 m21 582 924 m 1 X s 600 924 m s 591 924 m21 600 925 m 1 X s 617 925 m 1 X s 609 925 m21 618 926 m 1 X s
 635 926 m 1 X s 627 926 m21 636 927 m 1 X s 653 927 m 1 X s 645 927 m21 654 929 m s 671 929 m s 663 929 m21 671 930 m 1 X s 689 930 m s 680 930 m21 689 931 m 1 X s 706 931 m 1 X s 698 931 m21 707 934 m 1 X s 724 934 m 1 X s 716 934 m21 725 935 m s
 742 935 m 1 X s 734 935 m21 743 937 m s 760 937 m s 751 937 m21 760 938 m 1 X s 777 938 m 1 X s 769 938 m21 778 940 m 1 X s 795 940 m 1 X s 787 940 m21 796 942 m 1 X s 813 942 m 1 X s 805 942 m21 814 942 m s 831 942 m s 823 942 m21 831 944 m 1 X s
 849 944 m s 840 944 m21 849 945 m 1 X s 866 945 m 1 X s 858 945 m21 867 946 m 1 X s 884 946 m 1 X s 876 946 m21 885 947 m 1 X s 902 947 m 1 X s 894 947 m21 903 948 m s 920 948 m s 912 948 m21 920 949 m 1 X s 938 949 m s 929 949 m21 938 950 m 1 X s
 955 950 m 1 X s 947 950 m21 956 949 m 1 X s 973 949 m 1 X s 965 949 m21 974 950 m s 991 950 m 1 X s 983 950 m21 992 947 m s 1009 947 m s 1000 947 m21 1009 948 m 1 X s 1026 948 m 1 X s 1018 948 m21 1027 943 m 1 X s 1044 943 m 1 X s 1036 943 m21 1045
 937 m 1 X s 1062 937 m 1 X s 1054 937 m21 1063 932 m s 1080 932 m 1 X s 1072 932 m21 1081 924 m s 1098 924 m s 1089 924 m21 1098 918 m 1 X s 1115 918 m 1 X s 1107 918 m21 1116 919 m 1 X s 1133 919 m 1 X s 1125 919 m21 1134 928 m 1 X s 1151 928 m 1 X
 s 1143 928 m21 1152 914 m s 1169 914 m s 1161 914 m21 1169 926 m 1 X s 1187 926 m s 1178 926 m21 1187 937 m 1 X s 1204 937 m 1 X s 1196 937 m21 1205 943 m 1 X s 1222 943 m 1 X s 1214 943 m21 1223 952 m s 1240 952 m 1 X s 1232 952 m21 1241 959 m s
 1258 959 m s 1249 959 m21 1258 961 m 1 X s 1275 961 m 1 X s 1267 961 m21 1276 966 m 1 X s 1293 966 m 1 X s 1285 966 m21 1294 967 m 1 X s 1311 967 m 1 X s 1303 967 m21 1312 969 m s 1329 969 m 1 X s 1321 969 m21 1330 969 m s 1347 969 m s 1338 969 m21
 1347 971 m 1 X s 1364 971 m 1 X s 1356 971 m21 1365 971 m 1 X s 1382 971 m 1 X s 1374 971 m21 1383 972 m 1 X s 1400 972 m 1 X s 1392 972 m21 1401 973 m s 1418 973 m s 1410 973 m21 1418 973 m 1 X s 1436 973 m s 1427 973 m21 1436 973 m 1 X s 1453 973
 m 1 X s 1445 973 m21 1454 973 m 1 X s 1471 973 m 1 X s 1463 973 m21 1472 974 m s 1489 974 m 1 X s 1481 974 m21 1490 974 m s 1507 974 m s 1498 974 m21 1507 974 m 1 X s 1524 974 m 1 X s 1516 974 m21 1525 974 m 1 X s 1542 974 m 1 X s 1534 974 m21 1543
 973 m 1 X s 1560 973 m 1 X s 1552 973 m21 1561 973 m s 1578 973 m 1 X s 1570 973 m21 1579 973 m s 1596 973 m s 1587 973 m21 1596 975 m 1 X s 1613 975 m 1 X s 1605 975 m21 1614 974 m 1 X s 1631 974 m 1 X s 1623 974 m21 1632 974 m 1 X s 1649 974 m 1 X
 s 1641 974 m21 1650 974 m s 1667 974 m s 1659 974 m21 1667 975 m 1 X s 1685 975 m s 1676 975 m21 1685 975 m 1 X s 1702 975 m 1 X s 1694 975 m21 1703 975 m 1 X s 1720 975 m 1 X s 1712 975 m21 1721 975 m s 1738 975 m 1 X s 1730 975 m21 1739 975 m s
 1756 975 m s 1747 975 m21 1756 975 m 1 X s 1773 975 m 1 X s 1765 975 m21 1774 974 m 1 X s 1791 974 m 1 X s 1783 974 m21 1792 974 m 1 X s 1809 974 m 1 X s 1801 974 m21 1810 972 m s 1827 972 m 1 X s 1819 972 m21 1828 971 m s 1845 971 m s 1836 971 m21
 1845 970 m 1 X s 1862 970 m 1 X s 1854 970 m21 1863 967 m 1 X s 1880 967 m 1 X s 1872 967 m21 1881 964 m 1 X s 1898 964 m 1 X s 1890 964 m21 1899 958 m s 1916 958 m s 1908 958 m21 1916 948 m 1 X s 1934 948 m s 1925 948 m21 1934 933 m 1 X s 1951 933
 m 1 X s 1943 933 m21 1952 917 m 1 X s 1969 917 m 1 X s 1961 917 m21 1970 902 m s 1987 902 m 1 X s 1979 902 m21 1988 887 m s 2005 887 m s 1996 887 m21 2005 870 m 1 X s 2022 870 m 1 X s 2014 870 m21 1 0 0 c 1 1 1 c 1 0 0 c 227 325 m s 244 325 m 1 X s
 236 325 m24 245 186 m s 262 186 m s 253 186 m24 262 187 m 1 X s 279 187 m 1 X s 271 187 m24 280 189 m 1 X s 297 189 m 1 X s 289 189 m24 298 190 m 1 X s 315 190 m 1 X s 307 190 m24 316 192 m s 333 192 m s 325 192 m24 333 194 m 1 X s 351 194 m s 342
 194 m24 351 195 m 1 X s 368 195 m 1 X s 360 195 m24 369 197 m 1 X s 386 197 m 1 X s 378 197 m24 387 199 m 1 X s 404 199 m 1 X s 396 199 m24 405 199 m s 422 199 m s 414 199 m24 422 200 m 1 X s 440 200 m s 431 200 m24 440 200 m 1 X s 457 200 m 1 X s
 449 200 m24 458 201 m 1 X s 475 201 m 1 X s 467 201 m24 476 201 m s 493 201 m 1 X s 485 201 m24 494 201 m s 511 201 m s 502 201 m24 511 201 m 1 X s 528 201 m 1 X s 520 201 m24 529 200 m 1 X s 546 200 m 1 X s 538 200 m24 547 200 m 1 X s 564 200 m 1 X
 s 556 200 m24 565 199 m s 582 199 m s 574 199 m24 582 199 m 1 X s 600 199 m s 591 199 m24 600 198 m 1 X s 617 198 m 1 X s 609 198 m24 618 198 m 1 X s 635 198 m 1 X s 627 198 m24 636 198 m 1 X s 653 198 m 1 X s 645 198 m24 654 197 m s 671 197 m s 663
 197 m24 671 197 m 1 X s 689 197 m s 680 197 m24 689 196 m 1 X s 706 196 m 1 X s 698 196 m24 707 196 m 1 X s 724 196 m 1 X s 716 196 m24 725 196 m s 742 196 m 1 X s 734 196 m24 743 195 m s 760 195 m s 751 195 m24 760 194 m 1 X s 777 194 m 1 X s 769
 194 m24 778 194 m 1 X s 795 194 m 1 X s 787 194 m24 796 194 m 1 X s 813 194 m 1 X s 805 194 m24 814 193 m s 831 193 m s 823 193 m24 831 193 m 1 X s 849 193 m s 840 193 m24 849 192 m 1 X s 866 192 m 1 X s 858 192 m24 867 192 m 1 X s 884 192 m 1 X s
 876 192 m24 885 191 m 1 X s 902 191 m 1 X s 894 191 m24 903 191 m s 920 191 m s 912 191 m24 920 191 m 1 X s 938 191 m s 929 191 m24 938 191 m 1 X s 955 191 m 1 X s 947 191 m24 956 191 m 1 X s 973 191 m 1 X s 965 191 m24 974 191 m s 991 191 m 1 X s
 983 191 m24 992 191 m s 1009 191 m s 1000 191 m24 1009 191 m 1 X s 1026 191 m 1 X s 1018 191 m24 1027 191 m 1 X s 1044 191 m 1 X s 1036 191 m24 1045 192 m 1 X s 1062 192 m 1 X s 1054 192 m24 1063 194 m s 1080 194 m 1 X s 1072 194 m24 1081 196 m s
 1098 196 m s 1089 196 m24 1098 200 m 1 X s 1115 200 m 1 X s 1107 200 m24 1116 203 m 1 X s 1133 203 m 1 X s 1125 203 m24 1134 204 m 1 X s 1151 204 m 1 X s 1143 204 m24 1152 199 m s 1169 199 m s 1161 199 m24 1169 194 m 1 X s 1187 194 m s 1178 194 m24
 1187 191 m 1 X s 1204 191 m 1 X s 1196 191 m24 1205 188 m 1 X s 1222 188 m 1 X s 1214 188 m24 1223 187 m s 1240 187 m 1 X s 1232 187 m24 1241 186 m s 1258 186 m s 1249 186 m24 1258 185 m 1 X s 1275 185 m 1 X s 1267 185 m24 1276 185 m 1 X s 1293 185
 m 1 X s 1285 185 m24 1294 185 m 1 X s 1311 185 m 1 X s 1303 185 m24 1312 184 m s 1329 184 m 1 X s 1321 184 m24 1330 184 m s 1347 184 m s 1338 184 m24 1347 184 m 1 X s 1364 184 m 1 X s 1356 184 m24 1365 184 m 1 X s 1382 184 m 1 X s 1374 184 m24 1383
 184 m 1 X s 1400 184 m 1 X s 1392 184 m24 1401 184 m s 1418 184 m s 1410 184 m24 1418 184 m 1 X s 1436 184 m s 1427 184 m24 1436 184 m 1 X s 1453 184 m 1 X s 1445 184 m24 1454 184 m 1 X s 1471 184 m 1 X s 1463 184 m24 1472 184 m s 1489 184 m 1 X s
 1481 184 m24 1490 185 m s 1507 185 m s 1498 185 m24 1507 185 m 1 X s 1524 185 m 1 X s 1516 185 m24 1525 185 m 1 X s 1542 185 m 1 X s 1534 185 m24 1543 185 m 1 X s 1560 185 m 1 X s 1552 185 m24 1561 185 m s 1578 185 m 1 X s 1570 185 m24 1579 185 m s
 1596 185 m s 1587 185 m24 1596 185 m 1 X s 1613 185 m 1 X s 1605 185 m24 1614 185 m 1 X s 1631 185 m 1 X s 1623 185 m24 1632 185 m 1 X s 1649 185 m 1 X s 1641 185 m24 1650 185 m s 1667 185 m s 1659 185 m24 1667 185 m 1 X s 1685 185 m s 1676 185 m24
 1685 186 m 1 X s 1702 186 m 1 X s 1694 186 m24 1703 186 m 1 X s 1720 186 m 1 X s 1712 186 m24 1721 186 m s 1738 186 m 1 X s 1730 186 m24 1739 186 m s 1756 186 m s 1747 186 m24 1756 187 m 1 X s 1773 187 m 1 X s 1765 187 m24 1774 187 m 1 X s 1791 187
 m 1 X s 1783 187 m24 1792 187 m 1 X s 1809 187 m 1 X s 1801 187 m24 1810 187 m s 1827 187 m 1 X s 1819 187 m24 1828 187 m s 1845 187 m s 1836 187 m24 1845 187 m 1 X s 1862 187 m 1 X s 1854 187 m24 1863 187 m 1 X s 1880 187 m 1 X s 1872 187 m24 1881
 186 m 1 X s 1898 186 m 1 X s 1890 186 m24 1899 185 m s 1916 185 m s 1908 185 m24 1916 184 m 1 X s 1934 184 m s 1925 184 m24 1934 183 m 1 X s 1951 183 m 1 X s 1943 183 m24 1952 181 m 1 X s 1969 181 m 1 X s 1961 181 m24 1970 180 m s 1987 180 m 1 X s
 1979 180 m24 1988 179 m s 2005 179 m s 1996 179 m24 2005 179 m 1 X s 2022 179 m 1 X s 2014 179 m24 2023 290 m 1 X s 2040 290 m 1 X s 2032 290 m24 black 1 1 1 c 567 239 907 558 bf black
 gsave  2268 1594 0 0 C 1047.59 743.581 t 0 r /Helvetica-Bold findfont 36.9736 sf 0 0 m (Sum) show NC gr  0 0 1 c 978 757 m20 black
 gsave  2268 1594 0 0 C 1047.59 663.471 t 0 r /Helvetica-Bold findfont 36.9736 sf 0 0 m (w/SPD & ITSrefit) show NC gr  978 677 m21
 gsave  2268 1594 0 0 C 1047.59 583.362 t 0 r /Helvetica-Bold findfont 36.9736 sf 0 0 m (w/o SPD & ITSrefit) show NC gr  1 0 0 c 978 598 m24 black
 gsave  2268 1594 0 0 C 472.441 1308.46 t 0 r /Helvetica-Bold findfont 55.4605 sf 0 0 m ( distribution of tracks for lhc13b merged output) show NC gr 
 gsave  2268 1594 0 0 C 441.63 1308.46 t 0 r /Symbol findfont 55.4605 sf 0 0 m (h) show NC gr 
 gr  gr showpage
end
%%EOF
