%!PS-Adobe-2.0 EPSF-2.0
%%BoundingBox:  0 0 567 398
%%Title: /Users/cgy606/Documents/Train/LEGOTrain/020814/lhc13b/lhc13b_JetZCut_R4_98.eps: 
%%Creator: ROOT Version 5.34/09
%%CreationDate: Fri Mar 28 16:17:51 2014
%%EndComments
%%BeginProlog
80 dict begin
/s {stroke} def /l {lineto} def /m {moveto} def /t {translate} def
/r {rotate} def /rl {roll}  def /R {repeat} def
/d {rlineto} def /rm {rmoveto} def /gr {grestore} def /f {eofill} def
/c {setrgbcolor} def /black {0 setgray} def /sd {setdash} def
/cl {closepath} def /sf {scalefont setfont} def /lw {setlinewidth} def
/box {m dup 0 exch d exch 0 d 0 exch neg d cl} def
/NC{systemdict begin initclip end}def/C{NC box clip newpath}def
/bl {box s} def /bf {box f} def /Y { 0 exch d} def /X { 0 d} def 
/K {{pop pop 0 moveto} exch kshow} bind def
/ita {/ang 15 def gsave [1 0 ang dup sin exch cos div 1 0 0] concat} def 
/mp {newpath /y exch def /x exch def} def
/side {[w .77 mul w .23 mul] .385 w mul sd w 0 l currentpoint t -144 r} def
/mr {mp x y w2 0 360 arc} def /m24 {mr s} def /m20 {mr f} def
/mb {mp x y w2 add m w2 neg 0 d 0 w neg d w 0 d 0 w d cl} def
/mt {mp x y w2 add m w2 neg w neg d w 0 d cl} def
/m21 {mb f} def /m25 {mb s} def /m22 {mt f} def /m26{mt s} def
/m23 {mp x y w2 sub m w2 w d w neg 0 d cl f} def
/m27 {mp x y w2 add m w3 neg w2 neg d w3 w2 neg d w3 w2 d cl s} def
/m28 {mp x w2 sub y w2 sub w3 add m w3 0 d  0 w3 neg d w3 0 d 0 w3 d w3 0 d  0 w3 d w3 neg 0 d 0 w3 d w3 neg 0 d 0 w3 neg d w3 neg 0 d cl s } def
/m29 {mp gsave x w2 sub y w2 add w3 sub m currentpoint t 4 {side} repeat cl fill gr} def
/m30 {mp gsave x w2 sub y w2 add w3 sub m currentpoint t 4 {side} repeat cl s gr} def
/m31 {mp x y w2 sub m 0 w d x w2 sub y m w 0 d x w2 sub y w2 add m w w neg d x w2 sub y w2 sub m w w d s} def
/m32 {mp x y w2 sub m w2 w d w neg 0 d cl s} def
/m33 {mp x y w2 add m w3 neg w2 neg d w3 w2 neg d w3 w2 d cl f} def
/m34 {mp x w2 sub y w2 sub w3 add m w3 0 d  0 w3 neg d w3 0 d 0 w3 d w3 0 d  0 w3 d w3 neg 0 d 0 w3 d w3 neg 0 d 0 w3 neg d w3 neg 0 d cl f } def
/m2 {mp x y w2 sub m 0 w d x w2 sub y m w 0 d s} def
/m5 {mp x w2 sub y w2 sub m w w d x w2 sub y w2 add m w w neg d s} def
/reEncode {exch findfont dup length dict begin {1 index /FID eq  {pop pop} {def} ifelse } forall /Encoding exch def currentdict end dup /FontName get exch definefont pop } def [/Times-Bold /Times-Italic /Times-BoldItalic /Helvetica /Helvetica-Oblique
 /Helvetica-Bold /Helvetica-BoldOblique /Courier /Courier-Oblique /Courier-Bold /Courier-BoldOblique /Times-Roman /AvantGarde-Book /AvantGarde-BookOblique /AvantGarde-Demi /AvantGarde-DemiOblique /Bookman-Demi /Bookman-DemiItalic /Bookman-Light
 /Bookman-LightItalic /Helvetica-Narrow /Helvetica-Narrow-Bold /Helvetica-Narrow-BoldOblique /Helvetica-Narrow-Oblique /NewCenturySchlbk-Roman /NewCenturySchlbk-Bold /NewCenturySchlbk-BoldItalic /NewCenturySchlbk-Italic /Palatino-Bold
 /Palatino-BoldItalic /Palatino-Italic /Palatino-Roman ] {ISOLatin1Encoding reEncode } forall
%%EndProlog
%%BeginSetup
%%EndSetup
newpath  gsave  .25 .25 scale  gsave  0 0 t black[  ] 0 sd 3 lw 0.999 0.999 0.999 c 2268 1594 0 0 bf black 0.999 0.999 0.999 c 1814 1276 227 159 bf black 1814 1276 227 159 bl 1 1 1 c black 287 1316 m 22 X s 326 1316 m 22 X s /w 16 def /w2 {w 2 div}
 def /w3 {w 3 div} def 317 1316 m21 348 1152 m 22 X s 386 1152 m 22 X s 378 1152 m21 408 1029 m 22 X s 447 1029 m 22 X s 438 1029 m21 469 935 m 22 X s 507 935 m 22 X s 499 935 m21 529 867 m 22 X s 568 867 m 22 X s 559 867 m21 590 804 m 22 X s 628 804
 m 22 X s 620 804 m21 650 757 m 22 X s 689 757 m 22 X s 680 757 m21 711 719 m 22 X s 749 719 m 22 X s 741 719 m21 801 652 m 2 Y s 801 670 m 1 Y s 771 662 m 22 X s 809 662 m 22 X s 801 662 m21 862 645 m 2 Y s 862 664 m 1 Y s 831 656 m 23 X s 870 656 m
 22 X s 862 656 m21 922 569 m 10 Y s 922 595 m 6 Y s 892 587 m 22 X s 930 587 m 22 X s 922 587 m21 983 538 m 15 Y s 983 569 m 9 Y s 952 561 m 22 X s 991 561 m 22 X s 983 561 m21 1043 524 m 17 Y s 1043 558 m 10 Y s 1013 549 m 22 X s 1051 549 m 22 X s
 1043 549 m21 1104 485 m 25 Y s 1104 526 m 14 Y s 1073 518 m 22 X s 1112 518 m 22 X s 1104 518 m21 1164 516 m 19 Y s 1164 551 m 11 Y s 1134 543 m 22 X s 1172 543 m 22 X s 1164 543 m21 1225 497 m 22 Y s 1225 535 m 13 Y s 1194 527 m 22 X s 1233 527 m
 22 X s 1225 527 m21 1346 400 m 51 Y s 1346 468 m 23 Y s 1315 459 m 22 X s 1354 459 m 22 X s 1346 459 m21 1406 159 m 216 Y s 1406 392 m 39 Y s 1376 383 m 22 X s 1414 383 m 22 X s 1406 383 m21 1527 159 m 216 Y s 1527 392 m 39 Y s 1497 383 m 22 X s
 1535 383 m 22 X s 1527 383 m21 1587 159 m 216 Y s 1587 392 m 39 Y s 1557 383 m 22 X s 1596 383 m 22 X s 1587 383 m21 1648 159 m 216 Y s 1648 392 m 39 Y s 1618 383 m 22 X s 1656 383 m 22 X s 1648 383 m21 227 159 m 1814 X s
 gsave  2268 1594 0 0 C 1891.82 47.2441 t 0 r /Helvetica findfont 51.3523 sf 0 0 m ( \(GeV\)) show NC gr 
 gsave  2268 1594 0 0 C 1787.06 67.785 t 0 r /Helvetica findfont 34.9195 sf 0 0 m (ch+em) show NC gr 
 gsave  2268 1594 0 0 C 1787.06 18.4868 t 0 r /Helvetica findfont 34.9195 sf 0 0 m (T,jet) show NC gr 
 gsave  2268 1594 0 0 C 1758.3 47.2441 t 0 r /Helvetica findfont 51.3523 sf 0 0 m (p) show NC gr  227 198 m -39 Y s 287 179 m -20 Y s 348 179 m -20 Y s 408 179 m -20 Y s 469 198 m -39 Y s 529 179 m -20 Y s 590 179 m -20 Y s 650 179 m -20 Y s 711 198
 m -39 Y s 771 179 m -20 Y s 831 179 m -20 Y s 892 179 m -20 Y s 952 198 m -39 Y s 1013 179 m -20 Y s 1073 179 m -20 Y s 1134 179 m -20 Y s 1194 198 m -39 Y s 1255 179 m -20 Y s 1315 179 m -20 Y s 1376 179 m -20 Y s 1436 198 m -39 Y s 1497 179 m -20
 Y s 1557 179 m -20 Y s 1618 179 m -20 Y s 1678 198 m -39 Y s 1739 179 m -20 Y s 1799 179 m -20 Y s 1860 179 m -20 Y s 1920 198 m -39 Y s 1920 198 m -39 Y s 1980 179 m -20 Y s 2041 179 m -20 Y s
 gsave  2268 1594 0 0 C 211.571 106.813 t 0 r /Helvetica findfont 51.3523 sf 0 0 m (0) show NC gr 
 gsave  2268 1594 0 0 C 439.576 106.813 t 0 r /Helvetica findfont 51.3523 sf 0 0 m (20) show NC gr 
 gsave  2268 1594 0 0 C 679.904 106.813 t 0 r /Helvetica findfont 51.3523 sf 0 0 m (40) show NC gr 
 gsave  2268 1594 0 0 C 922.287 106.813 t 0 r /Helvetica findfont 51.3523 sf 0 0 m (60) show NC gr 
 gsave  2268 1594 0 0 C 1164.67 106.813 t 0 r /Helvetica findfont 51.3523 sf 0 0 m (80) show NC gr 
 gsave  2268 1594 0 0 C 1392.67 106.813 t 0 r /Helvetica findfont 51.3523 sf 0 0 m (100) show NC gr 
 gsave  2268 1594 0 0 C 1633 106.813 t 0 r /Helvetica findfont 51.3523 sf 0 0 m (120) show NC gr 
 gsave  2268 1594 0 0 C 1875.39 106.813 t 0 r /Helvetica findfont 51.3523 sf 0 0 m (140) show NC gr  227 159 m 1276 Y s
 gsave  2268 1594 0 0 C 80.1096 1405 t 90 r /Symbol findfont 51.3523 sf 0 0 m (j) show NC gr 
 gsave  2268 1594 0 0 C 80.1096 1378.3 t 90 r /Helvetica findfont 51.3523 sf 0 0 m (d) show NC gr 
 gsave  2268 1594 0 0 C 80.1096 1349.54 t 90 r /Symbol findfont 51.3523 sf 0 0 m (h) show NC gr 
 gsave  2268 1594 0 0 C 80.1096 1322.83 t 90 r /Helvetica findfont 51.3523 sf 0 0 m (d) show NC gr 
 gsave  2268 1594 0 0 C 108.867 1300.24 t 90 r /Helvetica findfont 34.9195 sf 0 0 m (T) show NC gr 
 gsave  2268 1594 0 0 C 80.1096 1226.29 t 90 r /Helvetica findfont 51.3523 sf 0 0 m (/dp) show NC gr 
 gsave  2268 1594 0 0 C 98.5964 1187.26 t 90 r /Helvetica findfont 34.9195 sf 0 0 m (jet) show NC gr 
 gsave  2268 1594 0 0 C 80.1096 1109.21 t 90 r /Helvetica findfont 51.3523 sf 0 0 m ( dN) show NC gr 
 gsave  2268 1594 0 0 C 96.5423 1022.94 t 90 r /Helvetica findfont 34.9195 sf 0 0 m (event) show NC gr 
 gsave  2268 1594 0 0 C 80.1096 944.882 t 90 r /Helvetica findfont 51.3523 sf 0 0 m (1/N) show NC gr  281 159 m -54 X s
 gsave  2268 1594 0 0 C 162.273 158.165 t 0 r /Helvetica findfont 34.9195 sf 0 0 m (\25511) show NC gr 
 gsave  2268 1594 0 0 C 106.813 135.57 t 0 r /Helvetica findfont 51.3523 sf 0 0 m (10) show NC gr  254 207 m -27 X s 254 235 m -27 X s 254 255 m -27 X s 254 271 m -27 X s 254 283 m -27 X s 254 294 m -27 X s 254 303 m -27 X s 254 312 m -27 X s 281 319
 m -54 X s
 gsave  2268 1594 0 0 C 158.165 320.438 t 0 r /Helvetica findfont 34.9195 sf 0 0 m (\25510) show NC gr 
 gsave  2268 1594 0 0 C 102.705 295.789 t 0 r /Helvetica findfont 51.3523 sf 0 0 m (10) show NC gr  254 367 m -27 X s 254 395 m -27 X s 254 415 m -27 X s 254 430 m -27 X s 254 443 m -27 X s 254 454 m -27 X s 254 463 m -27 X s 254 471 m -27 X s 281
 478 m -54 X s
 gsave  2268 1594 0 0 C 176.652 478.603 t 0 r /Helvetica findfont 34.9195 sf 0 0 m (\2559) show NC gr 
 gsave  2268 1594 0 0 C 121.191 453.954 t 0 r /Helvetica findfont 51.3523 sf 0 0 m (10) show NC gr  254 526 m -27 X s 254 554 m -27 X s 254 574 m -27 X s 254 590 m -27 X s 254 602 m -27 X s 254 613 m -27 X s 254 622 m -27 X s 254 630 m -27 X s 281
 638 m -54 X s
 gsave  2268 1594 0 0 C 176.652 638.822 t 0 r /Helvetica findfont 34.9195 sf 0 0 m (\2558) show NC gr 
 gsave  2268 1594 0 0 C 121.191 614.173 t 0 r /Helvetica findfont 51.3523 sf 0 0 m (10) show NC gr  254 686 m -27 X s 254 714 m -27 X s 254 734 m -27 X s 254 749 m -27 X s 254 762 m -27 X s 254 772 m -27 X s 254 782 m -27 X s 254 790 m -27 X s 281
 797 m -54 X s
 gsave  2268 1594 0 0 C 176.652 794.933 t 0 r /Helvetica findfont 34.9195 sf 0 0 m (\2557) show NC gr 
 gsave  2268 1594 0 0 C 121.191 772.338 t 0 r /Helvetica findfont 51.3523 sf 0 0 m (10) show NC gr  254 845 m -27 X s 254 873 m -27 X s 254 893 m -27 X s 254 908 m -27 X s 254 921 m -27 X s 254 932 m -27 X s 254 941 m -27 X s 254 949 m -27 X s 281
 956 m -54 X s
 gsave  2268 1594 0 0 C 176.652 957.206 t 0 r /Helvetica findfont 34.9195 sf 0 0 m (\2556) show NC gr 
 gsave  2268 1594 0 0 C 121.191 932.557 t 0 r /Helvetica findfont 51.3523 sf 0 0 m (10) show NC gr  254 1004 m -27 X s 254 1032 m -27 X s 254 1052 m -27 X s 254 1068 m -27 X s 254 1080 m -27 X s 254 1091 m -27 X s 254 1100 m -27 X s 254 1108 m -27 X
 s 281 1116 m -54 X s
 gsave  2268 1594 0 0 C 176.652 1117.43 t 0 r /Helvetica findfont 34.9195 sf 0 0 m (\2555) show NC gr 
 gsave  2268 1594 0 0 C 121.191 1092.78 t 0 r /Helvetica findfont 51.3523 sf 0 0 m (10) show NC gr  254 1164 m -27 X s 254 1192 m -27 X s 254 1212 m -27 X s 254 1227 m -27 X s 254 1240 m -27 X s 254 1250 m -27 X s 254 1260 m -27 X s 254 1268 m -27 X
 s 281 1275 m -54 X s
 gsave  2268 1594 0 0 C 176.652 1273.54 t 0 r /Helvetica findfont 34.9195 sf 0 0 m (\2554) show NC gr 
 gsave  2268 1594 0 0 C 121.191 1250.94 t 0 r /Helvetica findfont 51.3523 sf 0 0 m (10) show NC gr  254 1323 m -27 X s 254 1351 m -27 X s 254 1371 m -27 X s 254 1387 m -27 X s 254 1399 m -27 X s 254 1410 m -27 X s 254 1419 m -27 X s 254 1427 m -27 X
 s 281 1435 m -54 X s
 gsave  2268 1594 0 0 C 176.652 1435.81 t 0 r /Helvetica findfont 34.9195 sf 0 0 m (\2553) show NC gr 
 gsave  2268 1594 0 0 C 121.191 1411.16 t 0 r /Helvetica findfont 51.3523 sf 0 0 m (10) show NC gr  0 0 1 c 1 1 1 c 0 0 1 c 287 1316 m 22 X s 326 1316 m 22 X s 317 1316 m20 348 1152 m 22 X s 386 1152 m 22 X s 378 1152 m20 408 1029 m 22 X s 447 1029 m
 22 X s 438 1029 m20 469 935 m 22 X s 507 935 m 22 X s 499 935 m20 529 867 m 22 X s 568 867 m 22 X s 559 867 m20 590 804 m 22 X s 628 804 m 22 X s 620 804 m20 650 757 m 22 X s 689 757 m 22 X s 680 757 m20 711 719 m 22 X s 749 719 m 22 X s 741 719 m20
 801 652 m 2 Y s 801 670 m 1 Y s 771 662 m 22 X s 809 662 m 22 X s 801 662 m20 862 645 m 2 Y s 862 664 m 1 Y s 831 656 m 23 X s 870 656 m 22 X s 862 656 m20 922 569 m 10 Y s 922 595 m 6 Y s 892 587 m 22 X s 930 587 m 22 X s 922 587 m20 983 538 m 15 Y
 s 983 569 m 9 Y s 952 561 m 22 X s 991 561 m 22 X s 983 561 m20 1043 524 m 17 Y s 1043 558 m 10 Y s 1013 549 m 22 X s 1051 549 m 22 X s 1043 549 m20 1104 485 m 25 Y s 1104 526 m 14 Y s 1073 518 m 22 X s 1112 518 m 22 X s 1104 518 m20 1164 516 m 19 Y
 s 1164 551 m 11 Y s 1134 543 m 22 X s 1172 543 m 22 X s 1164 543 m20 1225 497 m 22 Y s 1225 535 m 13 Y s 1194 527 m 22 X s 1233 527 m 22 X s 1225 527 m20 1346 400 m 51 Y s 1346 468 m 23 Y s 1315 459 m 22 X s 1354 459 m 22 X s 1346 459 m20 1406 159 m
 216 Y s 1406 392 m 39 Y s 1376 383 m 22 X s 1414 383 m 22 X s 1406 383 m20 1527 159 m 216 Y s 1527 392 m 39 Y s 1497 383 m 22 X s 1535 383 m 22 X s 1527 383 m20 1587 159 m 216 Y s 1587 392 m 39 Y s 1557 383 m 22 X s 1596 383 m 22 X s 1587 383 m20
 1648 159 m 216 Y s 1648 392 m 39 Y s 1618 383 m 22 X s 1656 383 m 22 X s 1648 383 m20 black 1 1 1 c 453 319 1361 956 bf black
 gsave  2268 1594 0 0 C 1717.22 1187.26 t 0 r /Helvetica-Bold findfont 55.4605 sf 0 0 m ( cut) show NC gr 
 gsave  2268 1594 0 0 C 1589.87 1168.78 t 0 r /Helvetica-Bold findfont 36.9736 sf 0 0 m (leading) show NC gr 
 gsave  2268 1594 0 0 C 1472.78 1187.26 t 0 r /Helvetica-Bold findfont 55.4605 sf 0 0 m (No z) show NC gr  1417 1195 m21
 gsave  2268 1594 0 0 C 1626.84 1029.1 t 0 r /Helvetica-Bold findfont 55.4605 sf 0 0 m ( < 0.98) show NC gr 
 gsave  2268 1594 0 0 C 1499.49 1010.61 t 0 r /Helvetica-Bold findfont 36.9736 sf 0 0 m (leading) show NC gr 
 gsave  2268 1594 0 0 C 1472.78 1029.1 t 0 r /Helvetica-Bold findfont 55.4605 sf 0 0 m (z) show NC gr  0 0 1 c 1417 1036 m20 black
 gsave  2268 1594 0 0 C 1606.3 909.962 t 0 r /Helvetica-Bold findfont 55.4605 sf 0 0 m ( R = 0.4) show NC gr 
 gsave  2268 1594 0 0 C 1583.7 891.476 t 0 r /Helvetica-Bold findfont 36.9736 sf 0 0 m (T) show NC gr 
 gsave  2268 1594 0 0 C 1435.81 909.962 t 0 r /Helvetica-Bold findfont 55.4605 sf 0 0 m (anti\255k) show NC gr 
 gsave  2268 1594 0 0 C 1454.3 1351.59 t 0 r /Helvetica-Bold findfont 55.4605 sf 0 0 m (=5.02 TeV) show NC gr 
 gsave  2268 1594 0 0 C 1423.49 1351.59 t 0 r /Helvetica-Bold findfont 55.4605 sf 0 0 m (s) show NC gr  6 lw 1405 1382 m 6 -32 d s 0 lw 1411 1350 m 6 49 d s 1417 1399 m 37 X s
 gsave  2268 1594 0 0 C 468.333 1351.59 t 0 r /Helvetica-Bold findfont 55.4605 sf 0 0 m (p\255Pb Uncorrected Jet Spectrum @ ) show NC gr 
 gr  gr showpage
end
%%EOF
