%!PS-Adobe-2.0 EPSF-2.0
%%BoundingBox:  0 0 567 367
%%Title: WorkDir/lego383_lhc13/_R2_XSec_TotalSys.eps: 
%%Creator: ROOT Version 5.34/09
%%CreationDate: Wed Apr 30 12:27:18 2014
%%EndComments
%%BeginProlog
80 dict begin
/s {stroke} def /l {lineto} def /m {moveto} def /t {translate} def
/r {rotate} def /rl {roll}  def /R {repeat} def
/d {rlineto} def /rm {rmoveto} def /gr {grestore} def /f {eofill} def
/c {setrgbcolor} def /black {0 setgray} def /sd {setdash} def
/cl {closepath} def /sf {scalefont setfont} def /lw {setlinewidth} def
/box {m dup 0 exch d exch 0 d 0 exch neg d cl} def
/NC{systemdict begin initclip end}def/C{NC box clip newpath}def
/bl {box s} def /bf {box f} def /Y { 0 exch d} def /X { 0 d} def 
/K {{pop pop 0 moveto} exch kshow} bind def
/ita {/ang 15 def gsave [1 0 ang dup sin exch cos div 1 0 0] concat} def 
/mp {newpath /y exch def /x exch def} def
/side {[w .77 mul w .23 mul] .385 w mul sd w 0 l currentpoint t -144 r} def
/mr {mp x y w2 0 360 arc} def /m24 {mr s} def /m20 {mr f} def
/mb {mp x y w2 add m w2 neg 0 d 0 w neg d w 0 d 0 w d cl} def
/mt {mp x y w2 add m w2 neg w neg d w 0 d cl} def
/m21 {mb f} def /m25 {mb s} def /m22 {mt f} def /m26{mt s} def
/m23 {mp x y w2 sub m w2 w d w neg 0 d cl f} def
/m27 {mp x y w2 add m w3 neg w2 neg d w3 w2 neg d w3 w2 d cl s} def
/m28 {mp x w2 sub y w2 sub w3 add m w3 0 d  0 w3 neg d w3 0 d 0 w3 d w3 0 d  0 w3 d w3 neg 0 d 0 w3 d w3 neg 0 d 0 w3 neg d w3 neg 0 d cl s } def
/m29 {mp gsave x w2 sub y w2 add w3 sub m currentpoint t 4 {side} repeat cl fill gr} def
/m30 {mp gsave x w2 sub y w2 add w3 sub m currentpoint t 4 {side} repeat cl s gr} def
/m31 {mp x y w2 sub m 0 w d x w2 sub y m w 0 d x w2 sub y w2 add m w w neg d x w2 sub y w2 sub m w w d s} def
/m32 {mp x y w2 sub m w2 w d w neg 0 d cl s} def
/m33 {mp x y w2 add m w3 neg w2 neg d w3 w2 neg d w3 w2 d cl f} def
/m34 {mp x w2 sub y w2 sub w3 add m w3 0 d  0 w3 neg d w3 0 d 0 w3 d w3 0 d  0 w3 d w3 neg 0 d 0 w3 d w3 neg 0 d 0 w3 neg d w3 neg 0 d cl f } def
/m2 {mp x y w2 sub m 0 w d x w2 sub y m w 0 d s} def
/m5 {mp x w2 sub y w2 sub m w w d x w2 sub y w2 add m w w neg d s} def
/reEncode {exch findfont dup length dict begin {1 index /FID eq  {pop pop} {def} ifelse } forall /Encoding exch def currentdict end dup /FontName get exch definefont pop } def [/Times-Bold /Times-Italic /Times-BoldItalic /Helvetica /Helvetica-Oblique
 /Helvetica-Bold /Helvetica-BoldOblique /Courier /Courier-Oblique /Courier-Bold /Courier-BoldOblique /Times-Roman /AvantGarde-Book /AvantGarde-BookOblique /AvantGarde-Demi /AvantGarde-DemiOblique /Bookman-Demi /Bookman-DemiItalic /Bookman-Light
 /Bookman-LightItalic /Helvetica-Narrow /Helvetica-Narrow-Bold /Helvetica-Narrow-BoldOblique /Helvetica-Narrow-Oblique /NewCenturySchlbk-Roman /NewCenturySchlbk-Bold /NewCenturySchlbk-BoldItalic /NewCenturySchlbk-Italic /Palatino-Bold
 /Palatino-BoldItalic /Palatino-Italic /Palatino-Roman ] {ISOLatin1Encoding reEncode } forall
%%EndProlog
%%BeginSetup
%%EndSetup
newpath  gsave  .25 .25 scale  gsave  0 0 t black[  ] 0 sd 3 lw 1 1 1 c 2268 1468 0 0 bf black 1 1 1 c 1814 1174 227 147 bf black 1814 1174 227 147 bl 0.8 0.8 0.8 c 181 21 227 779 bf /w 12 def /w2 {w 2 div} def /w3 {w 3 div} def 317 790 m20 182 16
 408 655 bf 499 664 m20 181 20 590 564 bf 680 574 m20 181 17 771 476 bf 862 485 m20 182 21 952 404 bf 1043 415 m20 181 19 1134 348 bf 1225 358 m20 182 22 1315 295 bf 1406 307 m20 181 27 1497 246 bf 1587 261 m20 182 28 1678 202 bf 1769 217 m20 181 29
 1860 162 bf 1950 178 m20 black 227 147 m 1814 X s
 gsave  2268 1468 0 0 C 1903.67 43.6099 t 0 r /Helvetica findfont 47.4021 sf 0 0 m ( \(GeV\)) show NC gr 
 gsave  2268 1468 0 0 C 1806.97 62.5708 t 0 r /Helvetica findfont 32.2334 sf 0 0 m (ch+em) show NC gr 
 gsave  2268 1468 0 0 C 1806.97 17.0648 t 0 r /Helvetica findfont 32.2334 sf 0 0 m (T,jet) show NC gr 
 gsave  2268 1468 0 0 C 1780.42 43.6099 t 0 r /Helvetica findfont 47.4021 sf 0 0 m (p) show NC gr  227 182 m -35 Y s 263 164 m -17 Y s 299 164 m -17 Y s 336 164 m -17 Y s 372 164 m -17 Y s 408 182 m -35 Y s 444 164 m -17 Y s 481 164 m -17 Y s 517 164
 m -17 Y s 553 164 m -17 Y s 590 182 m -35 Y s 626 164 m -17 Y s 662 164 m -17 Y s 698 164 m -17 Y s 735 164 m -17 Y s 771 182 m -35 Y s 807 164 m -17 Y s 844 164 m -17 Y s 880 164 m -17 Y s 916 164 m -17 Y s 952 182 m -35 Y s 989 164 m -17 Y s 1025
 164 m -17 Y s 1061 164 m -17 Y s 1098 164 m -17 Y s 1134 182 m -35 Y s 1170 164 m -17 Y s 1206 164 m -17 Y s 1243 164 m -17 Y s 1279 164 m -17 Y s 1315 182 m -35 Y s 1352 164 m -17 Y s 1388 164 m -17 Y s 1424 164 m -17 Y s 1460 164 m -17 Y s 1497
 182 m -35 Y s 1533 164 m -17 Y s 1569 164 m -17 Y s 1606 164 m -17 Y s 1642 164 m -17 Y s 1678 182 m -35 Y s 1714 164 m -17 Y s 1751 164 m -17 Y s 1787 164 m -17 Y s 1823 164 m -17 Y s 1860 182 m -35 Y s 1896 164 m -17 Y s 1932 164 m -17 Y s 1968
 164 m -17 Y s 2005 164 m -17 Y s 2041 182 m -35 Y s
 gsave  2268 1468 0 0 C 199.089 98.5964 t 0 r /Helvetica findfont 47.4021 sf 0 0 m (20) show NC gr 
 gsave  2268 1468 0 0 C 381.113 98.5964 t 0 r /Helvetica findfont 47.4021 sf 0 0 m (30) show NC gr 
 gsave  2268 1468 0 0 C 561.241 98.5964 t 0 r /Helvetica findfont 47.4021 sf 0 0 m (40) show NC gr 
 gsave  2268 1468 0 0 C 743.265 98.5964 t 0 r /Helvetica findfont 47.4021 sf 0 0 m (50) show NC gr 
 gsave  2268 1468 0 0 C 925.289 98.5964 t 0 r /Helvetica findfont 47.4021 sf 0 0 m (60) show NC gr 
 gsave  2268 1468 0 0 C 1107.31 98.5964 t 0 r /Helvetica findfont 47.4021 sf 0 0 m (70) show NC gr 
 gsave  2268 1468 0 0 C 1287.44 98.5964 t 0 r /Helvetica findfont 47.4021 sf 0 0 m (80) show NC gr 
 gsave  2268 1468 0 0 C 1469.47 98.5964 t 0 r /Helvetica findfont 47.4021 sf 0 0 m (90) show NC gr 
 gsave  2268 1468 0 0 C 1638.22 98.5964 t 0 r /Helvetica findfont 47.4021 sf 0 0 m (100) show NC gr 
 gsave  2268 1468 0 0 C 1818.34 98.5964 t 0 r /Helvetica findfont 47.4021 sf 0 0 m (110) show NC gr 
 gsave  2268 1468 0 0 C 2000.37 98.5964 t 0 r /Helvetica findfont 47.4021 sf 0 0 m (120) show NC gr  227 1321 m 1814 X s 227 1286 m 35 Y s 263 1303 m 18 Y s 299 1303 m 18 Y s 336 1303 m 18 Y s 372 1303 m 18 Y s 408 1286 m 35 Y s 444 1303 m 18 Y s 481
 1303 m 18 Y s 517 1303 m 18 Y s 553 1303 m 18 Y s 590 1286 m 35 Y s 626 1303 m 18 Y s 662 1303 m 18 Y s 698 1303 m 18 Y s 735 1303 m 18 Y s 771 1286 m 35 Y s 807 1303 m 18 Y s 844 1303 m 18 Y s 880 1303 m 18 Y s 916 1303 m 18 Y s 952 1286 m 35 Y s
 989 1303 m 18 Y s 1025 1303 m 18 Y s 1061 1303 m 18 Y s 1098 1303 m 18 Y s 1134 1286 m 35 Y s 1170 1303 m 18 Y s 1206 1303 m 18 Y s 1243 1303 m 18 Y s 1279 1303 m 18 Y s 1315 1286 m 35 Y s 1352 1303 m 18 Y s 1388 1303 m 18 Y s 1424 1303 m 18 Y s
 1460 1303 m 18 Y s 1497 1286 m 35 Y s 1533 1303 m 18 Y s 1569 1303 m 18 Y s 1606 1303 m 18 Y s 1642 1303 m 18 Y s 1678 1286 m 35 Y s 1714 1303 m 18 Y s 1751 1303 m 18 Y s 1787 1303 m 18 Y s 1823 1303 m 18 Y s 1860 1286 m 35 Y s 1896 1303 m 18 Y s
 1932 1303 m 18 Y s 1968 1303 m 18 Y s 2005 1303 m 18 Y s 2041 1286 m 35 Y s 227 147 m 1174 Y s
 gsave  2268 1468 0 0 C 85.3238 1295.03 t 90 r /Symbol findfont 47.4021 sf 0 0 m (h) show NC gr 
 gsave  2268 1468 0 0 C 85.3238 1270.38 t 90 r /Helvetica findfont 47.4021 sf 0 0 m (d) show NC gr 
 gsave  2268 1468 0 0 C 111.869 1249.52 t 90 r /Helvetica findfont 32.2334 sf 0 0 m (T) show NC gr 
 gsave  2268 1468 0 0 C 85.3238 1181.26 t 90 r /Helvetica findfont 47.4021 sf 0 0 m (/dp) show NC gr 
 gsave  2268 1468 0 0 C 85.3238 1152.82 t 90 r /Symbol findfont 47.4021 sf 0 0 m (s) show NC gr 
 gsave  2268 1468 0 0 C 62.5708 1135.75 t 90 r /Helvetica findfont 32.2334 sf 0 0 m (2) show NC gr 
 gsave  2268 1468 0 0 C 85.3238 1097.83 t 90 r /Helvetica findfont 47.4021 sf 0 0 m ( d) show NC gr 
 gsave  2268 1468 0 0 C 100.492 1018.2 t 90 r /Helvetica findfont 32.2334 sf 0 0 m (event) show NC gr 
 gsave  2268 1468 0 0 C 85.3238 946.146 t 90 r /Helvetica findfont 47.4021 sf 0 0 m (1/N) show NC gr  281 147 m -54 X s
 gsave  2268 1468 0 0 C 180.128 147.895 t 0 r /Helvetica findfont 32.2334 sf 0 0 m (\2558) show NC gr 
 gsave  2268 1468 0 0 C 128.934 125.142 t 0 r /Helvetica findfont 47.4021 sf 0 0 m (10) show NC gr  254 206 m -27 X s 254 240 m -27 X s 254 265 m -27 X s 254 284 m -27 X s 254 299 m -27 X s 254 312 m -27 X s 254 323 m -27 X s 254 333 m -27 X s 281
 342 m -54 X s
 gsave  2268 1468 0 0 C 180.128 341.295 t 0 r /Helvetica findfont 32.2334 sf 0 0 m (\2557) show NC gr 
 gsave  2268 1468 0 0 C 128.934 320.438 t 0 r /Helvetica findfont 47.4021 sf 0 0 m (10) show NC gr  254 401 m -27 X s 254 436 m -27 X s 254 460 m -27 X s 254 479 m -27 X s 254 495 m -27 X s 254 508 m -27 X s 254 519 m -27 X s 254 529 m -27 X s 281
 538 m -54 X s
 gsave  2268 1468 0 0 C 180.128 538.488 t 0 r /Helvetica findfont 32.2334 sf 0 0 m (\2556) show NC gr 
 gsave  2268 1468 0 0 C 128.934 515.735 t 0 r /Helvetica findfont 47.4021 sf 0 0 m (10) show NC gr  254 597 m -27 X s 254 631 m -27 X s 254 656 m -27 X s 254 675 m -27 X s 254 690 m -27 X s 254 703 m -27 X s 254 715 m -27 X s 254 725 m -27 X s 281
 734 m -54 X s
 gsave  2268 1468 0 0 C 180.128 735.681 t 0 r /Helvetica findfont 32.2334 sf 0 0 m (\2555) show NC gr 
 gsave  2268 1468 0 0 C 128.934 712.928 t 0 r /Helvetica findfont 47.4021 sf 0 0 m (10) show NC gr  254 793 m -27 X s 254 827 m -27 X s 254 852 m -27 X s 254 871 m -27 X s 254 886 m -27 X s 254 899 m -27 X s 254 910 m -27 X s 254 921 m -27 X s 281
 929 m -54 X s
 gsave  2268 1468 0 0 C 180.128 929.081 t 0 r /Helvetica findfont 32.2334 sf 0 0 m (\2554) show NC gr 
 gsave  2268 1468 0 0 C 128.934 908.224 t 0 r /Helvetica findfont 47.4021 sf 0 0 m (10) show NC gr  254 988 m -27 X s 254 1023 m -27 X s 254 1047 m -27 X s 254 1066 m -27 X s 254 1082 m -27 X s 254 1095 m -27 X s 254 1106 m -27 X s 254 1116 m -27 X s
 281 1125 m -54 X s
 gsave  2268 1468 0 0 C 180.128 1126.27 t 0 r /Helvetica findfont 32.2334 sf 0 0 m (\2553) show NC gr 
 gsave  2268 1468 0 0 C 128.934 1103.52 t 0 r /Helvetica findfont 47.4021 sf 0 0 m (10) show NC gr  254 1184 m -27 X s 254 1218 m -27 X s 254 1243 m -27 X s 254 1262 m -27 X s 254 1277 m -27 X s 254 1291 m -27 X s 254 1302 m -27 X s 254 1312 m -27 X
 s 281 1321 m -54 X s
 gsave  2268 1468 0 0 C 180.128 1319.67 t 0 r /Helvetica findfont 32.2334 sf 0 0 m (\2552) show NC gr 
 gsave  2268 1468 0 0 C 128.934 1298.82 t 0 r /Helvetica findfont 47.4021 sf 0 0 m (10) show NC gr  2041 147 m 1174 Y s 1987 147 m 54 X s 2014 206 m 27 X s 2014 240 m 27 X s 2014 265 m 27 X s 2014 284 m 27 X s 2014 299 m 27 X s 2014 312 m 27 X s 2014
 323 m 27 X s 2014 333 m 27 X s 1987 342 m 54 X s 2014 401 m 27 X s 2014 436 m 27 X s 2014 460 m 27 X s 2014 479 m 27 X s 2014 495 m 27 X s 2014 508 m 27 X s 2014 519 m 27 X s 2014 529 m 27 X s 1987 538 m 54 X s 2014 597 m 27 X s 2014 631 m 27 X s
 2014 656 m 27 X s 2014 675 m 27 X s 2014 690 m 27 X s 2014 703 m 27 X s 2014 715 m 27 X s 2014 725 m 27 X s 1987 734 m 54 X s 2014 793 m 27 X s 2014 827 m 27 X s 2014 852 m 27 X s 2014 871 m 27 X s 2014 886 m 27 X s 2014 899 m 27 X s 2014 910 m 27 X
 s 2014 921 m 27 X s 1987 929 m 54 X s 2014 988 m 27 X s 2014 1023 m 27 X s 2014 1047 m 27 X s 2014 1066 m 27 X s 2014 1082 m 27 X s 2014 1095 m 27 X s 2014 1106 m 27 X s 2014 1116 m 27 X s 1987 1125 m 54 X s 2014 1184 m 27 X s 2014 1218 m 27 X s
 2014 1243 m 27 X s 2014 1262 m 27 X s 2014 1277 m 27 X s 2014 1291 m 27 X s 2014 1302 m 27 X s 2014 1312 m 27 X s 1987 1321 m 54 X s 0 0 1 c 1 1 1 c 0 0 1 c 227 790 m 85 X s 323 790 m 85 X s 317 790 m20 408 664 m 85 X s 505 664 m 85 X s 499 664 m20
 590 574 m 85 X s 686 574 m 85 X s 680 574 m20 771 485 m 85 X s 867 485 m 85 X s 862 485 m20 952 415 m 85 X s 1049 415 m 85 X s 1043 415 m20 1134 358 m 85 X s 1230 358 m 85 X s 1225 358 m20 1315 307 m 85 X s 1412 307 m 85 X s 1406 307 m20 1497 261 m
 85 X s 1593 261 m 85 X s 1587 261 m20 1769 211 m s 1769 223 m s 1678 217 m 85 X s 1775 217 m 85 X s 1769 217 m20 1950 171 m 1 Y s 1950 183 m 1 Y s 1860 178 m 85 X s 1956 178 m 85 X s 1950 178 m20 black
 gsave  2268 1468 0 0 C 498.67 1185.05 t 0 r /Helvetica-Bold findfont 68.259 sf 0 0 m (X\255Section Total Systematic Uncertainty) show NC gr  1 1 1 c 567 367 340 220 bf black
 gsave  2268 1468 0 0 C 481.605 481.605 t 0 r /Helvetica findfont 54.9864 sf 0 0 m (Statistical Uncertainty) show NC gr  0 0 1 c 411 495 m20 black
 gsave  2268 1468 0 0 C 481.605 297.685 t 0 r /Helvetica findfont 54.9864 sf 0 0 m (Systematic Uncertainty) show NC gr  0.8 0.8 0.8 c 361 312 m 100 X s black
 gsave  2268 1468 0 0 C 1524.45 343.191 t 0 r /Helvetica-Bold findfont 68.259 sf 0 0 m ( R = 0.2) show NC gr 
 gsave  2268 1468 0 0 C 1496.01 322.334 t 0 r /Helvetica-Bold findfont 45.506 sf 0 0 m (T) show NC gr 
 gsave  2268 1468 0 0 C 1313.99 343.191 t 0 r /Helvetica-Bold findfont 68.259 sf 0 0 m (anti\255k) show NC gr 
 gr  gr showpage
end
%%EOF
