%!PS-Adobe-2.0 EPSF-2.0
%%BoundingBox:  0 0 567 398
%%Title: /Users/cgy606/Documents/Train/LEGOTrain/020814/lhc13c/lhc13c_TrackPhi.eps: 
%%Creator: ROOT Version 5.34/09
%%CreationDate: Fri Mar 28 14:55:19 2014
%%EndComments
%%BeginProlog
80 dict begin
/s {stroke} def /l {lineto} def /m {moveto} def /t {translate} def
/r {rotate} def /rl {roll}  def /R {repeat} def
/d {rlineto} def /rm {rmoveto} def /gr {grestore} def /f {eofill} def
/c {setrgbcolor} def /black {0 setgray} def /sd {setdash} def
/cl {closepath} def /sf {scalefont setfont} def /lw {setlinewidth} def
/box {m dup 0 exch d exch 0 d 0 exch neg d cl} def
/NC{systemdict begin initclip end}def/C{NC box clip newpath}def
/bl {box s} def /bf {box f} def /Y { 0 exch d} def /X { 0 d} def 
/K {{pop pop 0 moveto} exch kshow} bind def
/ita {/ang 15 def gsave [1 0 ang dup sin exch cos div 1 0 0] concat} def 
/mp {newpath /y exch def /x exch def} def
/side {[w .77 mul w .23 mul] .385 w mul sd w 0 l currentpoint t -144 r} def
/mr {mp x y w2 0 360 arc} def /m24 {mr s} def /m20 {mr f} def
/mb {mp x y w2 add m w2 neg 0 d 0 w neg d w 0 d 0 w d cl} def
/mt {mp x y w2 add m w2 neg w neg d w 0 d cl} def
/m21 {mb f} def /m25 {mb s} def /m22 {mt f} def /m26{mt s} def
/m23 {mp x y w2 sub m w2 w d w neg 0 d cl f} def
/m27 {mp x y w2 add m w3 neg w2 neg d w3 w2 neg d w3 w2 d cl s} def
/m28 {mp x w2 sub y w2 sub w3 add m w3 0 d  0 w3 neg d w3 0 d 0 w3 d w3 0 d  0 w3 d w3 neg 0 d 0 w3 d w3 neg 0 d 0 w3 neg d w3 neg 0 d cl s } def
/m29 {mp gsave x w2 sub y w2 add w3 sub m currentpoint t 4 {side} repeat cl fill gr} def
/m30 {mp gsave x w2 sub y w2 add w3 sub m currentpoint t 4 {side} repeat cl s gr} def
/m31 {mp x y w2 sub m 0 w d x w2 sub y m w 0 d x w2 sub y w2 add m w w neg d x w2 sub y w2 sub m w w d s} def
/m32 {mp x y w2 sub m w2 w d w neg 0 d cl s} def
/m33 {mp x y w2 add m w3 neg w2 neg d w3 w2 neg d w3 w2 d cl f} def
/m34 {mp x w2 sub y w2 sub w3 add m w3 0 d  0 w3 neg d w3 0 d 0 w3 d w3 0 d  0 w3 d w3 neg 0 d 0 w3 d w3 neg 0 d 0 w3 neg d w3 neg 0 d cl f } def
/m2 {mp x y w2 sub m 0 w d x w2 sub y m w 0 d s} def
/m5 {mp x w2 sub y w2 sub m w w d x w2 sub y w2 add m w w neg d s} def
/reEncode {exch findfont dup length dict begin {1 index /FID eq  {pop pop} {def} ifelse } forall /Encoding exch def currentdict end dup /FontName get exch definefont pop } def [/Times-Bold /Times-Italic /Times-BoldItalic /Helvetica /Helvetica-Oblique
 /Helvetica-Bold /Helvetica-BoldOblique /Courier /Courier-Oblique /Courier-Bold /Courier-BoldOblique /Times-Roman /AvantGarde-Book /AvantGarde-BookOblique /AvantGarde-Demi /AvantGarde-DemiOblique /Bookman-Demi /Bookman-DemiItalic /Bookman-Light
 /Bookman-LightItalic /Helvetica-Narrow /Helvetica-Narrow-Bold /Helvetica-Narrow-BoldOblique /Helvetica-Narrow-Oblique /NewCenturySchlbk-Roman /NewCenturySchlbk-Bold /NewCenturySchlbk-BoldItalic /NewCenturySchlbk-Italic /Palatino-Bold
 /Palatino-BoldItalic /Palatino-Italic /Palatino-Roman ] {ISOLatin1Encoding reEncode } forall
%%EndProlog
%%BeginSetup
%%EndSetup
newpath  gsave  .25 .25 scale  gsave  0 0 t black[  ] 0 sd 3 lw 0.999 0.999 0.999 c 2268 1594 0 0 bf black 0.999 0.999 0.999 c 1814 1276 227 159 bf black 1814 1276 227 159 bl 0 0 1 c 1 1 1 c 0 0 1 c 227 1080 m 1 X s 244 1080 m 1 X s /w 16 def /w2 {w
 2 div} def /w3 {w 3 div} def 236 1080 m20 245 1066 m s 262 1066 m 1 X s 254 1066 m20 263 1068 m s 280 1068 m 1 X s 272 1068 m20 281 1078 m s 298 1078 m 1 X s 290 1078 m20 299 1070 m s 316 1070 m 1 X s 308 1070 m20 317 1079 m s 334 1079 m 1 X s 326
 1079 m20 335 1072 m s 352 1072 m 1 X s 344 1072 m20 353 1071 m s 370 1071 m s 361 1071 m20 370 1073 m 1 X s 388 1073 m s 379 1073 m20 388 1073 m 1 X s 406 1073 m s 397 1073 m20 406 1061 m 1 X s 424 1061 m s 415 1061 m20 424 1081 m 1 X s 442 1081 m s
 433 1081 m20 442 1068 m 1 X s 460 1068 m s 451 1068 m20 460 1081 m 1 X s 477 1081 m 1 X s 469 1081 m20 478 1084 m 1 X s 495 1084 m 1 X s 487 1084 m20 496 1072 m 1 X s 513 1072 m 1 X s 505 1072 m20 514 1084 m 1 X s 531 1084 m 1 X s 523 1084 m20 532
 1069 m 1 X s 549 1069 m 1 X s 541 1069 m20 550 1077 m 1 X s 567 1077 m 1 X s 559 1077 m20 568 1075 m 1 X s 585 1075 m 1 X s 577 1075 m20 586 1073 m 1 X s 603 1073 m 1 X s 595 1073 m20 604 1072 m 1 X s 621 1072 m 1 X s 613 1072 m20 622 1079 m 1 X s
 639 1079 m 1 X s 631 1079 m20 640 1056 m 1 X s 657 1056 m 1 X s 649 1056 m20 658 1066 m 1 X s 675 1066 m 1 X s 667 1066 m20 676 1071 m 1 X s 693 1071 m 1 X s 685 1071 m20 694 1058 m 1 X s 711 1058 m 1 X s 703 1058 m20 712 1064 m 1 X s 729 1064 m 1 X
 s 721 1064 m20 730 1069 m s 747 1069 m 1 X s 739 1069 m20 748 1071 m s 765 1071 m 1 X s 757 1071 m20 766 1070 m s 783 1070 m 1 X s 775 1070 m20 784 1058 m s 801 1058 m 1 X s 793 1058 m20 802 1068 m s 819 1068 m 1 X s 811 1068 m20 820 1090 m s 837
 1090 m s 829 1090 m20 837 1058 m 1 X s 855 1058 m s 846 1058 m20 855 1061 m 1 X s 873 1061 m s 864 1061 m20 873 1052 m 1 X s 891 1052 m s 882 1052 m20 891 1068 m 1 X s 909 1068 m s 900 1068 m20 909 1073 m 1 X s 927 1073 m s 918 1073 m20 927 1074 m 1
 X s 944 1074 m 1 X s 936 1074 m20 945 1060 m 1 X s 962 1060 m 1 X s 954 1060 m20 963 1067 m 1 X s 980 1067 m 1 X s 972 1067 m20 981 1062 m 1 X s 998 1062 m 1 X s 990 1062 m20 999 1059 m 1 X s 1016 1059 m 1 X s 1008 1059 m20 1017 1068 m 1 X s 1034
 1068 m 1 X s 1026 1068 m20 1035 1059 m 1 X s 1052 1059 m 1 X s 1044 1059 m20 1053 1053 m 1 X s 1070 1053 m 1 X s 1062 1053 m20 1071 1065 m 1 X s 1088 1065 m 1 X s 1080 1065 m20 1089 1052 m 1 X s 1106 1052 m 1 X s 1098 1052 m20 1107 1069 m 1 X s 1124
 1069 m 1 X s 1116 1069 m20 1125 1055 m 1 X s 1142 1055 m 1 X s 1134 1055 m20 1143 1057 m 1 X s 1160 1057 m 1 X s 1152 1057 m20 1161 1051 m 1 X s 1178 1051 m 1 X s 1170 1051 m20 1179 1063 m 1 X s 1196 1063 m 1 X s 1188 1063 m20 1197 1043 m s 1214
 1043 m 1 X s 1206 1043 m20 1215 1054 m s 1232 1054 m 1 X s 1224 1054 m20 1233 1049 m s 1250 1049 m 1 X s 1242 1049 m20 1251 1052 m s 1268 1052 m 1 X s 1260 1052 m20 1269 1049 m s 1286 1049 m 1 X s 1278 1049 m20 1287 1055 m s 1304 1055 m s 1296 1055
 m20 1304 1059 m 1 X s 1322 1059 m s 1313 1059 m20 1322 1049 m 1 X s 1340 1049 m s 1331 1049 m20 1340 1055 m 1 X s 1358 1055 m s 1349 1055 m20 1358 1045 m 1 X s 1376 1045 m s 1367 1045 m20 1376 1055 m 1 X s 1394 1055 m s 1385 1055 m20 1394 1049 m 1 X
 s 1412 1049 m s 1403 1049 m20 1412 1053 m 1 X s 1429 1053 m 1 X s 1421 1053 m20 1430 1054 m 1 X s 1447 1054 m 1 X s 1439 1054 m20 1448 1052 m 1 X s 1465 1052 m 1 X s 1457 1052 m20 1466 1056 m 1 X s 1483 1056 m 1 X s 1475 1056 m20 1484 1044 m 1 X s
 1501 1044 m 1 X s 1493 1044 m20 1502 1070 m 1 X s 1519 1070 m 1 X s 1511 1070 m20 1520 1072 m 1 X s 1537 1072 m 1 X s 1529 1072 m20 1538 1059 m 1 X s 1555 1059 m 1 X s 1547 1059 m20 1556 1062 m 1 X s 1573 1062 m 1 X s 1565 1062 m20 1574 1055 m 1 X s
 1591 1055 m 1 X s 1583 1055 m20 1592 1055 m 1 X s 1609 1055 m 1 X s 1601 1055 m20 1610 1066 m 1 X s 1627 1066 m 1 X s 1619 1066 m20 1628 1048 m 1 X s 1645 1048 m 1 X s 1637 1048 m20 1646 1032 m 1 X s 1663 1032 m 1 X s 1655 1032 m20 1664 1044 m 1 X s
 1681 1044 m 1 X s 1673 1044 m20 1682 1063 m s 1699 1063 m 1 X s 1691 1063 m20 1700 1066 m s 1717 1066 m 1 X s 1709 1066 m20 1718 1083 m s 1735 1083 m 1 X s 1727 1083 m20 1736 1057 m s 1753 1057 m 1 X s 1745 1057 m20 1754 1070 m s 1771 1070 m 1 X s
 1763 1070 m20 1772 1059 m s 1789 1059 m s 1780 1059 m20 1789 1031 m 1 X s 1807 1031 m s 1798 1031 m20 1807 1036 m 1 X s 1825 1036 m s 1816 1036 m20 1825 1022 m 1 X s 1843 1022 m s 1834 1022 m20 1843 1063 m 1 X s 1861 1063 m s 1852 1063 m20 1861 1067
 m 1 X s 1879 1067 m s 1870 1067 m20 1879 1067 m 1 X s 1896 1067 m 1 X s 1888 1067 m20 1897 1065 m 1 X s 1914 1065 m 1 X s 1906 1065 m20 1915 1073 m 1 X s 1932 1073 m 1 X s 1924 1073 m20 1933 1052 m 1 X s 1950 1052 m 1 X s 1942 1052 m20 1951 1051 m 1
 X s 1968 1051 m 1 X s 1960 1051 m20 1969 1062 m 1 X s 1986 1062 m 1 X s 1978 1062 m20 1987 1063 m 1 X s 2004 1063 m 1 X s 1996 1063 m20 2005 1059 m 1 X s 2022 1059 m 1 X s 2014 1059 m20 2023 159 m 1 X s 2040 159 m 1 X s 2032 159 m20 black 227 159 m
 1814 X s
 gsave  2268 1594 0 0 C 2008.9 63.6768 t 0 r /Symbol findfont 51.3523 sf 0 0 m (j) show NC gr  227 198 m -39 Y s 284 179 m -20 Y s 341 179 m -20 Y s 398 179 m -20 Y s 455 179 m -20 Y s 513 198 m -39 Y s 570 179 m -20 Y s 627 179 m -20 Y s 684 179 m
 -20 Y s 741 179 m -20 Y s 799 198 m -39 Y s 856 179 m -20 Y s 913 179 m -20 Y s 970 179 m -20 Y s 1027 179 m -20 Y s 1084 198 m -39 Y s 1142 179 m -20 Y s 1199 179 m -20 Y s 1256 179 m -20 Y s 1313 179 m -20 Y s 1370 198 m -39 Y s 1427 179 m -20 Y s
 1485 179 m -20 Y s 1542 179 m -20 Y s 1599 179 m -20 Y s 1656 198 m -39 Y s 1713 179 m -20 Y s 1771 179 m -20 Y s 1828 179 m -20 Y s 1885 179 m -20 Y s 1942 198 m -39 Y s 1942 198 m -39 Y s 1999 179 m -20 Y s
 gsave  2268 1594 0 0 C 211.571 106.813 t 0 r /Helvetica findfont 51.3523 sf 0 0 m (0) show NC gr 
 gsave  2268 1594 0 0 C 501.198 106.813 t 0 r /Helvetica findfont 51.3523 sf 0 0 m (1) show NC gr 
 gsave  2268 1594 0 0 C 782.609 106.813 t 0 r /Helvetica findfont 51.3523 sf 0 0 m (2) show NC gr 
 gsave  2268 1594 0 0 C 1068.13 106.813 t 0 r /Helvetica findfont 51.3523 sf 0 0 m (3) show NC gr 
 gsave  2268 1594 0 0 C 1355.7 106.813 t 0 r /Helvetica findfont 51.3523 sf 0 0 m (4) show NC gr 
 gsave  2268 1594 0 0 C 1641.22 106.813 t 0 r /Helvetica findfont 51.3523 sf 0 0 m (5) show NC gr 
 gsave  2268 1594 0 0 C 1926.74 106.813 t 0 r /Helvetica findfont 51.3523 sf 0 0 m (6) show NC gr  227 159 m 1276 Y s
 gsave  2268 1594 0 0 C 108.867 1405 t 90 r /Symbol findfont 51.3523 sf 0 0 m (j) show NC gr 
 gsave  2268 1594 0 0 C 108.867 1283.81 t 90 r /Helvetica findfont 51.3523 sf 0 0 m ( dN/d) show NC gr 
 gsave  2268 1594 0 0 C 127.354 1176.99 t 90 r /Helvetica findfont 34.9195 sf 0 0 m (Events) show NC gr 
 gsave  2268 1594 0 0 C 108.867 1098.94 t 90 r /Helvetica findfont 51.3523 sf 0 0 m (1/N) show NC gr  281 159 m -54 X s 254 202 m -27 X s 254 244 m -27 X s 254 287 m -27 X s 254 329 m -27 X s 281 372 m -54 X s 254 414 m -27 X s 254 457 m -27 X s 254
 499 m -27 X s 254 542 m -27 X s 281 584 m -54 X s 254 627 m -27 X s 254 669 m -27 X s 254 712 m -27 X s 254 754 m -27 X s 281 797 m -54 X s 254 839 m -27 X s 254 882 m -27 X s 254 925 m -27 X s 254 967 m -27 X s 281 1010 m -54 X s 254 1052 m -27 X s
 254 1095 m -27 X s 254 1137 m -27 X s 254 1180 m -27 X s 281 1222 m -54 X s 254 1265 m -27 X s 254 1307 m -27 X s 254 1350 m -27 X s 254 1392 m -27 X s 281 1435 m -54 X s
 gsave  2268 1594 0 0 C 186.922 141.732 t 0 r /Helvetica findfont 51.3523 sf 0 0 m (0) show NC gr 
 gsave  2268 1594 0 0 C 195.139 353.304 t 0 r /Helvetica findfont 51.3523 sf 0 0 m (1) show NC gr 
 gsave  2268 1594 0 0 C 186.922 564.875 t 0 r /Helvetica findfont 51.3523 sf 0 0 m (2) show NC gr 
 gsave  2268 1594 0 0 C 186.922 778.5 t 0 r /Helvetica findfont 51.3523 sf 0 0 m (3) show NC gr 
 gsave  2268 1594 0 0 C 186.922 990.072 t 0 r /Helvetica findfont 51.3523 sf 0 0 m (4) show NC gr 
 gsave  2268 1594 0 0 C 186.922 1203.7 t 0 r /Helvetica findfont 51.3523 sf 0 0 m (5) show NC gr 
 gsave  2268 1594 0 0 C 186.922 1417.32 t 0 r /Helvetica findfont 51.3523 sf 0 0 m (6) show NC gr  1 1 1 c black 227 1060 m 1 X s 244 1060 m 1 X s 236 1060 m21 245 1049 m s 262 1049 m 1 X s 254 1049 m21 263 1050 m s 280 1050 m 1 X s 272 1050 m21 281
 1063 m s 298 1063 m 1 X s 290 1063 m21 299 1055 m s 316 1055 m 1 X s 308 1055 m21 317 1063 m s 334 1063 m 1 X s 326 1063 m21 335 1057 m s 352 1057 m 1 X s 344 1057 m21 353 1054 m s 370 1054 m s 361 1054 m21 370 1058 m 1 X s 388 1058 m s 379 1058 m21
 388 1057 m 1 X s 406 1057 m s 397 1057 m21 406 1037 m 1 X s 424 1037 m s 415 1037 m21 424 1066 m 1 X s 442 1066 m s 433 1066 m21 442 1050 m 1 X s 460 1050 m s 451 1050 m21 460 1066 m 1 X s 477 1066 m 1 X s 469 1066 m21 478 1068 m 1 X s 495 1068 m 1
 X s 487 1068 m21 496 1054 m 1 X s 513 1054 m 1 X s 505 1054 m21 514 1067 m 1 X s 531 1067 m 1 X s 523 1067 m21 532 1051 m 1 X s 549 1051 m 1 X s 541 1051 m21 550 1060 m 1 X s 567 1060 m 1 X s 559 1060 m21 568 1060 m 1 X s 585 1060 m 1 X s 577 1060
 m21 586 1050 m 1 X s 603 1050 m 1 X s 595 1050 m21 604 1051 m 1 X s 621 1051 m 1 X s 613 1051 m21 622 1061 m 1 X s 639 1061 m 1 X s 631 1061 m21 640 1036 m 1 X s 657 1036 m 1 X s 649 1036 m21 658 1050 m 1 X s 675 1050 m 1 X s 667 1050 m21 676 1054 m
 1 X s 693 1054 m 1 X s 685 1054 m21 694 1032 m 1 X s 711 1032 m 1 X s 703 1032 m21 712 1026 m 1 X s 729 1026 m 1 X s 721 1026 m21 730 1032 m s 747 1032 m 1 X s 739 1032 m21 748 1031 m s 765 1031 m 1 X s 757 1031 m21 766 1025 m s 783 1025 m 1 X s 775
 1025 m21 784 909 m s 801 909 m 1 X s 793 909 m21 802 1022 m s 819 1022 m 1 X s 811 1022 m21 820 965 m s 837 965 m s 829 965 m21 837 668 m 1 X s 855 668 m s 846 668 m21 855 635 m 1 X s 873 635 m s 864 635 m21 873 761 m 1 X s 891 761 m s 882 761 m21
 891 1034 m 1 X s 909 1034 m s 900 1034 m21 909 1053 m 1 X s 927 1053 m s 918 1053 m21 927 1058 m 1 X s 944 1058 m 1 X s 936 1058 m21 945 1044 m 1 X s 962 1044 m 1 X s 954 1044 m21 963 1044 m 1 X s 980 1044 m 1 X s 972 1044 m21 981 1044 m 1 X s 998
 1044 m 1 X s 990 1044 m21 999 1042 m 1 X s 1016 1042 m 1 X s 1008 1042 m21 1017 1051 m 1 X s 1034 1051 m 1 X s 1026 1051 m21 1035 1043 m 1 X s 1052 1043 m 1 X s 1044 1043 m21 1053 1035 m 1 X s 1070 1035 m 1 X s 1062 1035 m21 1071 1049 m 1 X s 1088
 1049 m 1 X s 1080 1049 m21 1089 1036 m 1 X s 1106 1036 m 1 X s 1098 1036 m21 1107 1052 m 1 X s 1124 1052 m 1 X s 1116 1052 m21 1125 1035 m 1 X s 1142 1035 m 1 X s 1134 1035 m21 1143 1035 m 1 X s 1160 1035 m 1 X s 1152 1035 m21 1161 1026 m 1 X s 1178
 1026 m 1 X s 1170 1026 m21 1179 1039 m 1 X s 1196 1039 m 1 X s 1188 1039 m21 1197 1005 m s 1214 1005 m 1 X s 1206 1005 m21 1215 1015 m s 1232 1015 m 1 X s 1224 1015 m21 1233 1021 m s 1250 1021 m 1 X s 1242 1021 m21 1251 1035 m s 1268 1035 m 1 X s
 1260 1035 m21 1269 1032 m s 1286 1032 m 1 X s 1278 1032 m21 1287 1039 m s 1304 1039 m s 1296 1039 m21 1304 1038 m 1 X s 1322 1038 m s 1313 1038 m21 1322 1009 m 1 X s 1340 1009 m s 1331 1009 m21 1340 1037 m 1 X s 1358 1037 m s 1349 1037 m21 1358 1027
 m 1 X s 1376 1027 m s 1367 1027 m21 1376 1037 m 1 X s 1394 1037 m s 1385 1037 m21 1394 1028 m 1 X s 1412 1028 m s 1403 1028 m21 1412 1014 m 1 X s 1429 1014 m 1 X s 1421 1014 m21 1430 1007 m 1 X s 1447 1007 m 1 X s 1439 1007 m21 1448 991 m 1 X s 1465
 991 m 1 X s 1457 991 m21 1466 1012 m 1 X s 1483 1012 m 1 X s 1475 1012 m21 1484 923 m 1 X s 1501 923 m 1 X s 1493 923 m21 1502 1048 m 1 X s 1519 1048 m 1 X s 1511 1048 m21 1520 1052 m 1 X s 1537 1052 m 1 X s 1529 1052 m21 1538 1041 m 1 X s 1555 1041
 m 1 X s 1547 1041 m21 1556 1045 m 1 X s 1573 1045 m 1 X s 1565 1045 m21 1574 1027 m 1 X s 1591 1027 m 1 X s 1583 1027 m21 1592 1021 m 1 X s 1609 1021 m 1 X s 1601 1021 m21 1610 1031 m 1 X s 1627 1031 m 1 X s 1619 1031 m21 1628 1014 m 1 X s 1645 1014
 m 1 X s 1637 1014 m21 1646 891 m 1 X s 1663 891 m 1 X s 1655 891 m21 1664 952 m 1 X s 1681 952 m 1 X s 1673 952 m21 1682 1046 m s 1699 1046 m 1 X s 1691 1046 m21 1700 1046 m s 1717 1046 m 1 X s 1709 1046 m21 1718 1065 m s 1735 1065 m 1 X s 1727 1065
 m21 1736 1012 m s 1753 1012 m 1 X s 1745 1012 m21 1754 1032 m s 1771 1032 m 1 X s 1763 1032 m21 1772 1019 m s 1789 1019 m s 1780 1019 m21 1789 952 m 1 X s 1807 952 m s 1798 952 m21 1807 922 m 1 X s 1825 922 m s 1816 922 m21 1825 823 m 1 X s 1843 823
 m s 1834 823 m21 1843 1039 m 1 X s 1861 1039 m s 1852 1039 m21 1861 1049 m 1 X s 1879 1049 m s 1870 1049 m21 1879 1049 m 1 X s 1896 1049 m 1 X s 1888 1049 m21 1897 1049 m 1 X s 1914 1049 m 1 X s 1906 1049 m21 1915 1053 m 1 X s 1932 1053 m 1 X s 1924
 1053 m21 1933 1019 m 1 X s 1950 1019 m 1 X s 1942 1019 m21 1951 1016 m 1 X s 1968 1016 m 1 X s 1960 1016 m21 1969 1037 m 1 X s 1986 1037 m 1 X s 1978 1037 m21 1987 1044 m 1 X s 2004 1044 m 1 X s 1996 1044 m21 2005 1018 m 1 X s 2022 1018 m 1 X s 2014
 1018 m21 2023 159 m 1 X s 2040 159 m 1 X s 2032 159 m21 1 0 0 c 1 1 1 c 1 0 0 c 227 179 m 1 X s 244 179 m 1 X s 236 179 m24 245 177 m s 262 177 m 1 X s 254 177 m24 263 177 m s 280 177 m 1 X s 272 177 m24 281 175 m s 298 175 m 1 X s 290 175 m24 299
 174 m s 316 174 m 1 X s 308 174 m24 317 175 m s 334 175 m 1 X s 326 175 m24 335 175 m s 352 175 m 1 X s 344 175 m24 353 176 m s 370 176 m s 361 176 m24 370 175 m 1 X s 388 175 m s 379 175 m24 388 176 m 1 X s 406 176 m s 397 176 m24 406 184 m 1 X s
 424 184 m s 415 184 m24 424 175 m 1 X s 442 175 m s 433 175 m24 442 177 m 1 X s 460 177 m s 451 177 m24 460 175 m 1 X s 477 175 m 1 X s 469 175 m24 478 175 m 1 X s 495 175 m 1 X s 487 175 m24 496 177 m 1 X s 513 177 m 1 X s 505 177 m24 514 176 m 1 X
 s 531 176 m 1 X s 523 176 m24 532 177 m 1 X s 549 177 m 1 X s 541 177 m24 550 176 m 1 X s 567 176 m 1 X s 559 176 m24 568 175 m 1 X s 585 175 m 1 X s 577 175 m24 586 183 m 1 X s 603 183 m 1 X s 595 183 m24 604 181 m 1 X s 621 181 m 1 X s 613 181 m24
 622 178 m 1 X s 639 178 m 1 X s 631 178 m24 640 179 m 1 X s 657 179 m 1 X s 649 179 m24 658 176 m 1 X s 675 176 m 1 X s 667 176 m24 676 177 m 1 X s 693 177 m 1 X s 685 177 m24 694 185 m 1 X s 711 185 m 1 X s 703 185 m24 712 197 m 1 X s 729 197 m 1 X
 s 721 197 m24 730 197 m s 747 197 m 1 X s 739 197 m24 748 199 m s 765 199 m 1 X s 757 199 m24 766 205 m s 783 205 m 1 X s 775 205 m24 784 308 m s 801 308 m 1 X s 793 308 m24 802 205 m s 819 205 m 1 X s 811 205 m24 820 285 m s 837 285 m s 829 285 m24
 837 549 m 1 X s 855 549 m s 846 549 m24 855 585 m 1 X s 873 585 m s 864 585 m24 873 450 m 1 X s 891 450 m s 882 450 m24 891 194 m 1 X s 909 194 m s 900 194 m24 909 179 m 1 X s 927 179 m s 918 179 m24 927 176 m 1 X s 944 176 m 1 X s 936 176 m24 945
 175 m 1 X s 962 175 m 1 X s 954 175 m24 963 182 m 1 X s 980 182 m 1 X s 972 182 m24 981 177 m 1 X s 998 177 m 1 X s 990 177 m24 999 177 m 1 X s 1016 177 m 1 X s 1008 177 m24 1017 177 m 1 X s 1034 177 m 1 X s 1026 177 m24 1035 175 m 1 X s 1052 175 m
 1 X s 1044 175 m24 1053 177 m 1 X s 1070 177 m 1 X s 1062 177 m24 1071 176 m 1 X s 1088 176 m 1 X s 1080 176 m24 1089 176 m 1 X s 1106 176 m 1 X s 1098 176 m24 1107 177 m 1 X s 1124 177 m 1 X s 1116 177 m24 1125 179 m 1 X s 1142 179 m 1 X s 1134 179
 m24 1143 181 m 1 X s 1160 181 m 1 X s 1152 181 m24 1161 184 m 1 X s 1178 184 m 1 X s 1170 184 m24 1179 184 m 1 X s 1196 184 m 1 X s 1188 184 m24 1197 198 m s 1214 198 m 1 X s 1206 198 m24 1215 198 m s 1232 198 m 1 X s 1224 198 m24 1233 187 m s 1250
 187 m 1 X s 1242 187 m24 1251 177 m s 1268 177 m 1 X s 1260 177 m24 1269 177 m s 1286 177 m 1 X s 1278 177 m24 1287 176 m s 1304 176 m s 1296 176 m24 1304 180 m 1 X s 1322 180 m s 1313 180 m24 1322 199 m 1 X s 1340 199 m s 1331 199 m24 1340 178 m 1
 X s 1358 178 m s 1349 178 m24 1358 178 m 1 X s 1376 178 m s 1367 178 m24 1376 177 m 1 X s 1394 177 m s 1385 177 m24 1394 180 m 1 X s 1412 180 m s 1403 180 m24 1412 198 m 1 X s 1429 198 m 1 X s 1421 198 m24 1430 206 m 1 X s 1447 206 m 1 X s 1439 206
 m24 1448 220 m 1 X s 1465 220 m 1 X s 1457 220 m24 1466 203 m 1 X s 1483 203 m 1 X s 1475 203 m24 1484 280 m 1 X s 1501 280 m 1 X s 1493 280 m24 1502 182 m 1 X s 1519 182 m 1 X s 1511 182 m24 1520 179 m 1 X s 1537 179 m 1 X s 1529 179 m24 1538 178 m
 1 X s 1555 178 m 1 X s 1547 178 m24 1556 176 m 1 X s 1573 176 m 1 X s 1565 176 m24 1574 188 m 1 X s 1591 188 m 1 X s 1583 188 m24 1592 193 m 1 X s 1609 193 m 1 X s 1601 193 m24 1610 195 m 1 X s 1627 195 m 1 X s 1619 195 m24 1628 193 m 1 X s 1645 193
 m 1 X s 1637 193 m24 1646 300 m 1 X s 1663 300 m 1 X s 1655 300 m24 1664 251 m 1 X s 1681 251 m 1 X s 1673 251 m24 1682 177 m s 1699 177 m 1 X s 1691 177 m24 1700 179 m s 1717 179 m 1 X s 1709 179 m24 1718 177 m s 1735 177 m 1 X s 1727 177 m24 1736
 204 m s 1753 204 m 1 X s 1745 204 m24 1754 197 m s 1771 197 m 1 X s 1763 197 m24 1772 200 m s 1789 200 m s 1780 200 m24 1789 239 m 1 X s 1807 239 m s 1798 239 m24 1807 273 m 1 X s 1825 273 m s 1816 273 m24 1825 358 m 1 X s 1843 358 m s 1834 358 m24
 1843 184 m 1 X s 1861 184 m s 1852 184 m24 1861 178 m 1 X s 1879 178 m s 1870 178 m24 1879 178 m 1 X s 1896 178 m 1 X s 1888 178 m24 1897 176 m 1 X s 1914 176 m 1 X s 1906 176 m24 1915 180 m 1 X s 1932 180 m 1 X s 1924 180 m24 1933 193 m 1 X s 1950
 193 m 1 X s 1942 193 m24 1951 194 m 1 X s 1968 194 m 1 X s 1960 194 m24 1969 184 m 1 X s 1986 184 m 1 X s 1978 184 m24 1987 179 m 1 X s 2004 179 m 1 X s 1996 179 m24 2005 201 m 1 X s 2022 201 m 1 X s 2014 201 m24 black 1 1 1 c 567 239 952 558 bf
 black
 gsave  2268 1594 0 0 C 1092.78 743.581 t 0 r /Helvetica-Bold findfont 36.9736 sf 0 0 m (Sum) show NC gr  0 0 1 c 1023 757 m20 black
 gsave  2268 1594 0 0 C 1092.78 663.471 t 0 r /Helvetica-Bold findfont 36.9736 sf 0 0 m (w/SPD & ITSrefit) show NC gr  1023 677 m21
 gsave  2268 1594 0 0 C 1092.78 583.362 t 0 r /Helvetica-Bold findfont 36.9736 sf 0 0 m (w/o SPD & ITSrefit) show NC gr  1 0 0 c 1023 598 m24 black
 gsave  2268 1594 0 0 C 472.441 1329 t 0 r /Helvetica-Bold findfont 55.4605 sf 0 0 m ( distribution of tracks for lhc13c merged output) show NC gr 
 gsave  2268 1594 0 0 C 439.576 1329 t 0 r /Symbol findfont 55.4605 sf 0 0 m (j) show NC gr 
 gr  gr showpage
end
%%EOF
