256
383
0	31	36
1	31	35
2	31	34
3	31	33
4	31	32
5	31	31
6	31	30
7	31	29
8	27	29
9	27	30
10	27	31
11	27	32
12	27	33
13	27	34
14	27	35
15	27	36
16	26	29
17	26	30
18	26	31
19	26	32
20	26	33
21	26	34
22	26	35
23	26	36
24	30	36
25	30	35
26	30	34
27	30	33
28	30	32
29	30	31
30	30	30
31	30	29
32	23	36
33	23	35
34	23	34
35	23	33
36	23	32
37	23	31
38	23	30
39	23	29
40	19	29
41	19	30
42	19	31
43	19	32
44	19	33
45	19	34
46	19	35
47	19	36
48	18	29
49	18	30
50	18	31
51	18	32
52	18	33
53	18	34
54	18	35
55	18	36
56	22	36
57	22	35
58	22	34
59	22	33
60	22	32
61	22	31
62	22	30
63	22	29
64	15	36
65	15	35
66	15	34
67	15	33
68	15	32
69	15	31
70	15	30
71	15	29
72	11	29
73	11	30
74	11	31
75	11	32
76	11	33
77	11	34
78	11	35
79	11	36
80	10	36
81	10	35
82	10	34
83	10	33
84	10	32
85	10	31
86	10	30
87	10	29
88	14	36
89	14	35
90	14	34
91	14	33
92	14	32
93	14	31
94	14	30
95	14	29
96	7	36
97	7	35
98	7	34
99	7	33
100	7	32
101	7	31
102	7	30
103	7	29
104	3	29
105	3	30
106	3	31
107	3	32
108	3	33
109	3	34
110	3	35
111	3	36
112	2	29
113	2	30
114	2	31
115	2	32
116	2	33
117	2	34
118	2	35
119	2	36
120	6	36
121	6	35
122	6	34
123	6	33
124	6	32
125	6	31
126	6	30
127	6	29
256	29	36
257	29	35
258	29	34
259	29	33
260	29	32
261	29	31
262	29	30
263	29	29
264	25	29
265	25	30
266	25	31
267	25	32
268	25	33
269	25	34
270	25	35
271	25	36
272	24	29
273	24	30
274	24	31
275	24	32
276	24	33
277	24	34
278	24	35
279	24	36
280	28	36
281	28	35
282	28	34
283	28	33
284	28	32
285	28	31
286	28	30
287	28	29
288	21	36
289	21	35
290	21	34
291	21	33
292	21	32
293	21	31
294	21	30
295	21	29
296	17	29
297	17	30
298	17	31
299	17	32
300	17	33
301	17	34
302	17	35
303	17	36
304	16	29
305	16	30
306	16	31
307	16	32
308	16	33
309	16	34
310	16	35
311	16	36
312	20	36
313	20	35
314	20	34
315	20	33
316	20	32
317	20	31
318	20	30
319	20	29
320	13	36
321	13	35
322	13	34
323	13	33
324	13	32
325	13	31
326	13	30
327	13	29
328	9	29
329	9	30
330	9	31
331	9	32
332	9	33
333	9	34
334	9	35
335	9	36
336	8	29
337	8	30
338	8	31
339	8	32
340	8	33
341	8	34
342	8	35
343	8	36
344	12	36
345	12	35
346	12	34
347	12	33
348	12	32
349	12	31
350	12	30
351	12	29
352	5	36
353	5	35
354	5	34
355	5	33
356	5	32
357	5	31
358	5	30
359	5	29
360	1	29
361	1	30
362	1	31
363	1	32
364	1	33
365	1	34
366	1	35
367	1	36
368	0	29
369	0	30
370	0	31
371	0	32
372	0	33
373	0	34
374	0	35
375	0	36
376	4	36
377	4	35
378	4	34
379	4	33
380	4	32
381	4	31
382	4	30
383	4	29
